%!PS-Adobe-3.0 EPSF-3.0
%%Creator: cairo 1.16.0 (https://cairographics.org)
%%CreationDate: Tue Aug 27 01:17:49 2019
%%Pages: 1
%%DocumentData: Clean7Bit
%%LanguageLevel: 2
%%BoundingBox: 16 9 185 195
%%EndComments
%%BeginProlog
50 dict begin
/q { gsave } bind def
/Q { grestore } bind def
/cm { 6 array astore concat } bind def
/w { setlinewidth } bind def
/J { setlinecap } bind def
/j { setlinejoin } bind def
/M { setmiterlimit } bind def
/d { setdash } bind def
/m { moveto } bind def
/l { lineto } bind def
/c { curveto } bind def
/h { closepath } bind def
/re { exch dup neg 3 1 roll 5 3 roll moveto 0 rlineto
      0 exch rlineto 0 rlineto closepath } bind def
/S { stroke } bind def
/f { fill } bind def
/f* { eofill } bind def
/n { newpath } bind def
/W { clip } bind def
/W* { eoclip } bind def
/BT { } bind def
/ET { } bind def
/BDC { mark 3 1 roll /BDC pdfmark } bind def
/EMC { mark /EMC pdfmark } bind def
/cairo_store_point { /cairo_point_y exch def /cairo_point_x exch def } def
/Tj { show currentpoint cairo_store_point } bind def
/TJ {
  {
    dup
    type /stringtype eq
    { show } { -0.001 mul 0 cairo_font_matrix dtransform rmoveto } ifelse
  } forall
  currentpoint cairo_store_point
} bind def
/cairo_selectfont { cairo_font_matrix aload pop pop pop 0 0 6 array astore
    cairo_font exch selectfont cairo_point_x cairo_point_y moveto } bind def
/Tf { pop /cairo_font exch def /cairo_font_matrix where
      { pop cairo_selectfont } if } bind def
/Td { matrix translate cairo_font_matrix matrix concatmatrix dup
      /cairo_font_matrix exch def dup 4 get exch 5 get cairo_store_point
      /cairo_font where { pop cairo_selectfont } if } bind def
/Tm { 2 copy 8 2 roll 6 array astore /cairo_font_matrix exch def
      cairo_store_point /cairo_font where { pop cairo_selectfont } if } bind def
/g { setgray } bind def
/rg { setrgbcolor } bind def
/d1 { setcachedevice } bind def
/cairo_data_source {
  CairoDataIndex CairoData length lt
    { CairoData CairoDataIndex get /CairoDataIndex CairoDataIndex 1 add def }
    { () } ifelse
} def
/cairo_flush_ascii85_file { cairo_ascii85_file status { cairo_ascii85_file flushfile } if } def
/cairo_image { image cairo_flush_ascii85_file } def
/cairo_imagemask { imagemask cairo_flush_ascii85_file } def
%%EndProlog
%%BeginSetup
%%EndSetup
%%Page: 1 1
%%BeginPageSetup
%%PageBoundingBox: 16 9 185 195
%%EndPageSetup
q 16 9 169 186 rectclip
1 0 0 -1 0 200 cm q
0 g
2 w
0 J
0 j
[] 0.0 d
4 M q 1 0 0 1 0 0 cm
99.375 171.191 m 99.703 171.191 100.031 171.18 100.355 171.164 c 100.684
 171.141 101.012 171.113 101.34 171.07 c 101.668 171.031 101.992 170.977
 102.32 170.914 c 102.648 170.852 102.977 170.781 103.305 170.699 c 103.633
 170.613 103.957 170.523 104.285 170.418 c 104.613 170.316 104.941 170.203
 105.27 170.078 c 105.594 169.953 105.922 169.82 106.25 169.676 c 106.578
 169.531 106.906 169.375 107.23 169.211 c 107.559 169.043 107.887 168.867
 108.215 168.684 c 108.543 168.496 108.867 168.301 109.195 168.094 c 109.523
 167.887 109.852 167.668 110.18 167.441 c 110.508 167.215 110.832 166.977
 111.16 166.727 c 111.488 166.48 111.816 166.223 112.145 165.953 c 112.469
 165.684 112.797 165.406 113.125 165.117 c 113.453 164.828 113.781 164.527
 114.105 164.219 c 114.434 163.906 114.762 163.586 115.09 163.254 c 115.418
 162.926 115.742 162.582 116.07 162.23 c 116.398 161.883 116.727 161.52 
117.055 161.148 c 117.383 160.773 117.707 160.395 118.035 160 c 118.363 
159.605 118.691 159.203 119.02 158.789 c 119.344 158.379 119.672 157.953
 120 157.52 c 120.328 157.086 120.656 156.641 120.98 156.188 c 121.309 155.73
 121.637 155.266 121.965 154.789 c 122.293 154.316 122.617 153.828 122.945
 153.332 c 123.273 152.836 123.602 152.332 123.93 151.812 c 124.258 151.297
 124.582 150.77 124.91 150.234 c 125.238 149.695 125.566 149.148 125.895
 148.59 c 126.219 148.031 126.547 147.461 126.875 146.883 c 127.203 146.305
 127.531 145.715 127.855 145.117 c 128.184 144.516 128.512 143.906 128.84
 143.285 c 129.168 142.668 129.492 142.035 129.82 141.395 c 130.148 140.754
 130.477 140.105 130.805 139.441 c 131.133 138.781 131.457 138.109 131.785
 137.426 c 132.113 136.746 132.441 136.051 132.77 135.348 c 133.094 134.645
 133.422 133.934 133.75 133.211 c 134.078 132.484 134.406 131.754 134.73
 131.008 c 135.059 130.266 135.387 129.508 135.715 128.746 c 136.043 127.98
 136.367 127.203 136.695 126.418 c 137.023 125.633 137.352 124.836 137.68
 124.031 c 138.008 123.227 138.332 122.41 138.66 121.582 c 138.988 120.754
 139.316 119.918 139.645 119.07 c 139.969 118.223 140.297 117.363 140.625
 116.496 c 140.953 115.629 141.281 114.75 141.605 113.859 c 141.934 112.973
 142.262 112.074 142.59 111.164 c 142.918 110.254 143.242 109.336 143.57
 108.402 c 143.898 107.473 144.227 106.531 144.555 105.582 c 144.883 104.633
 145.207 103.672 145.535 102.699 c 145.863 101.727 146.191 100.746 146.52
 99.754 c 146.844 98.762 147.172 97.758 147.5 96.746 c 147.828 95.73 148.156
 94.711 148.48 93.676 c 148.809 92.641 149.137 91.598 149.465 90.543 c 149.793
 89.488 150.117 88.426 150.445 87.352 c 150.773 86.273 151.102 85.191 151.43
 84.094 c 151.758 83 152.082 81.895 152.41 80.777 c 152.738 79.66 153.066
 78.535 153.395 77.398 c 153.719 76.262 154.047 75.113 154.375 73.953 c 
154.703 72.797 155.031 71.629 155.355 70.449 c 155.684 69.273 156.012 68.086
 156.34 66.887 c 156.668 65.688 156.992 64.477 157.32 63.258 c 157.648 62.039
 157.977 60.809 158.305 59.566 c 158.633 58.328 158.957 57.078 159.285 55.816
 c 159.613 54.555 159.941 53.285 160.27 52 c 160.594 50.719 160.922 49.43
 161.25 48.125 c S Q
q 1 0 0 1 0 0 cm
161.25 48.125 m 161.25 58.035 133.547 66.07 99.375 66.07 c 65.203 66.07
 37.5 58.035 37.5 48.125 c 37.5 38.215 65.203 30.18 99.375 30.18 c 133.547
 30.18 161.25 38.215 161.25 48.125 c h
161.25 48.125 m S Q
0.75 w
[ 6 1.5 0.75 1.5] 0 d
q 1 0 0 1 0 0 cm
99.375 26.215 m 99.375 190.625 l S Q
2 w
[] 0.0 d
q 1 0 0 1 0 0 cm
99.375 171.191 m 99.047 171.191 98.719 171.18 98.395 171.164 c 98.066 171.141
 97.738 171.113 97.41 171.07 c 97.082 171.031 96.758 170.977 96.43 170.914
 c 96.102 170.852 95.773 170.781 95.445 170.699 c 95.117 170.613 94.793 
170.523 94.465 170.418 c 94.137 170.316 93.809 170.203 93.48 170.078 c 93.156
 169.953 92.828 169.82 92.5 169.676 c 92.172 169.531 91.844 169.375 91.52
 169.211 c 91.191 169.043 90.863 168.867 90.535 168.684 c 90.207 168.496
 89.883 168.301 89.555 168.094 c 89.227 167.887 88.898 167.668 88.57 167.441
 c 88.242 167.215 87.918 166.977 87.59 166.727 c 87.262 166.48 86.934 166.223
 86.605 165.953 c 86.281 165.684 85.953 165.406 85.625 165.117 c 85.297 
164.828 84.969 164.527 84.645 164.219 c 84.316 163.906 83.988 163.586 83.66
 163.254 c 83.332 162.926 83.008 162.582 82.68 162.23 c 82.352 161.883 82.023
 161.52 81.695 161.148 c 81.367 160.773 81.043 160.395 80.715 160 c 80.387
 159.605 80.059 159.203 79.73 158.789 c 79.406 158.379 79.078 157.953 78.75
 157.52 c 78.422 157.086 78.094 156.641 77.77 156.188 c 77.441 155.73 77.113
 155.266 76.785 154.789 c 76.457 154.316 76.133 153.828 75.805 153.332 c
 75.477 152.836 75.148 152.332 74.82 151.812 c 74.492 151.297 74.168 150.77
 73.84 150.234 c 73.512 149.695 73.184 149.148 72.855 148.59 c 72.531 148.031
 72.203 147.461 71.875 146.883 c 71.547 146.305 71.219 145.715 70.895 145.117
 c 70.566 144.516 70.238 143.906 69.91 143.285 c 69.582 142.668 69.258 142.035
 68.93 141.395 c 68.602 140.754 68.273 140.105 67.945 139.441 c 67.617 138.781
 67.293 138.109 66.965 137.426 c 66.637 136.746 66.309 136.051 65.98 135.348
 c 65.656 134.645 65.328 133.934 65 133.211 c 64.672 132.484 64.344 131.754
 64.02 131.008 c 63.691 130.266 63.363 129.508 63.035 128.746 c 62.707 127.98
 62.383 127.203 62.055 126.418 c 61.727 125.633 61.398 124.836 61.07 124.031
 c 60.742 123.227 60.418 122.41 60.09 121.582 c 59.762 120.754 59.434 119.918
 59.105 119.07 c 58.781 118.223 58.453 117.363 58.125 116.496 c 57.797 115.629
 57.469 114.75 57.145 113.859 c 56.816 112.973 56.488 112.074 56.16 111.164
 c 55.832 110.254 55.508 109.336 55.18 108.402 c 54.852 107.473 54.523 106.531
 54.195 105.582 c 53.867 104.633 53.543 103.672 53.215 102.699 c 52.887 
101.727 52.559 100.746 52.23 99.754 c 51.906 98.762 51.578 97.758 51.25 
96.746 c 50.922 95.73 50.594 94.711 50.27 93.676 c 49.941 92.641 49.613 
91.598 49.285 90.543 c 48.957 89.488 48.633 88.426 48.305 87.352 c 47.977
 86.273 47.648 85.191 47.32 84.094 c 46.992 83 46.668 81.895 46.34 80.777
 c 46.012 79.66 45.684 78.535 45.355 77.398 c 45.031 76.262 44.703 75.113
 44.375 73.953 c 44.047 72.797 43.719 71.629 43.395 70.449 c 43.066 69.273
 42.738 68.086 42.41 66.887 c 42.082 65.688 41.758 64.477 41.43 63.258 c
 41.102 62.039 40.773 60.809 40.445 59.566 c 40.117 58.328 39.793 57.078
 39.465 55.816 c 39.137 54.555 38.809 53.285 38.48 52 c 38.156 50.719 37.828
 49.43 37.5 48.125 c S Q
0.75 w
q 1 0 0 1 0 0 cm
161.25 41.375 m 161.25 10.57 l S Q
q 1 0 0 1 0 0 cm
37.5 41.375 m 37.5 10.57 l S Q
q 1 0 0 1 0 0 cm
38.609 24.098 m 160.141 24.098 l S Q
46.109 24.098 m 49.109 21.098 l 38.609 24.098 l 49.109 27.098 l h
46.109 24.098 m f*
0.8 w
q 1 0 0 1 0 0 cm
46.109 24.098 m 49.109 21.098 l 38.609 24.098 l 49.109 27.098 l h
46.109 24.098 m S Q
152.641 24.098 m 149.641 27.098 l 160.141 24.098 l 149.641 21.098 l h
152.641 24.098 m f*
q -1 0 0 -1 0 0 cm
-152.641 -24.098 m -149.641 -27.098 l -160.141 -24.098 l -149.641 -21.098
 l h
-152.641 -24.098 m S Q
0.75 w
[ 6 1.5 0.75 1.5] 0 d
q 1 0 0 1 0 0 cm
16.34 48.125 m 182.41 48.125 l S Q
[ 6 1.5 0.75 1.5] 0 d
q 1 0 0 1 0 0 cm
16.34 171.191 m 182.41 171.191 l S Q
0.739805 w
[] 0.0 d
q 1 0 0 1 0 0 cm
172.23 49.695 m 172.23 169.438 l S Q
172.23 57.094 m 175.191 60.051 l 172.23 49.695 l 169.273 60.051 l h
172.23 57.094 m f*
0.789126 w
q 0 1 -1 0 0 0 cm
57.094 -172.23 m 60.051 -175.191 l 49.695 -172.23 l 60.051 -169.273 l h
57.094 -172.23 m S Q
172.23 162.039 m 169.273 159.078 l 172.23 169.438 l 175.191 159.078 l h
172.23 162.039 m f*
q 0 -1 1 0 0 0 cm
-162.039 172.23 m -159.078 169.273 l -169.438 172.23 l -159.078 175.191
 l h
-162.039 172.23 m S Q
101.227 16.809 m 100.09 18.855 98.801 20.41 97.93 20.41 c 97.211 20.41 
97.059 19.082 97.059 17.832 c 97.059 15.406 98.762 12.105 100.812 12.105
 c 101.684 12.105 102.25 13.281 102.25 14.078 c 102.25 14.57 101.871 15.633
 101.227 16.809 c h
101.227 18.59 m 101.039 19.16 l 100.926 19.727 100.812 20.145 100.812 20.41
 c 100.812 20.828 101 21.434 101.758 21.434 c 103.16 21.434 104.07 20.523
 104.641 19.234 c 104.527 19.047 104.414 18.895 104.148 18.895 c 103.504
 19.727 103.086 20.07 102.859 20.07 c 102.781 20.07 102.594 20.031 102.594
 19.766 c 102.594 19.539 102.746 18.934 102.82 18.477 c 105.211 8.051 l 
105.551 6.57 105.777 5.66 105.777 5.66 c 105.777 5.512 105.703 5.434 105.512
 5.434 c 104.906 5.66 103.273 5.965 102.328 6.004 c 102.289 6.57 l 102.289
 6.648 102.289 6.688 102.402 6.688 c 103.086 6.723 l 103.391 6.723 103.578
 6.875 103.578 7.367 c 103.578 7.594 103.504 8.012 103.391 8.469 c 102.555
 12.523 l 102.289 11.844 101.605 11.273 100.773 11.273 c 98.348 11.273 95.238
 14.648 95.238 18.172 c 95.238 19.426 95.578 21.434 97.551 21.434 c 98.727
 21.434 99.789 20.523 101.152 18.555 c h
101.227 18.59 m f
176.945 115.086 m 177.855 111.332 l 179.258 109.477 180.734 108.148 181.531
 108.148 c 182.023 108.148 182.328 108.301 182.328 108.98 c 182.328 109.324
 182.289 109.742 182.102 110.5 c 181.266 114.102 l 181.078 114.859 180.852
 115.77 180.852 116.188 c 180.852 116.641 181.113 116.945 181.797 116.945
 c 182.859 116.945 183.883 116.188 184.945 114.859 c 184.867 114.633 184.719
 114.441 184.414 114.441 c 183.809 115.125 183.164 115.578 182.934 115.578
 c 182.746 115.578 182.707 115.465 182.707 115.199 c 182.707 115.012 182.82
 114.52 182.973 113.91 c 183.809 110.309 l 183.996 109.512 184.109 109.02
 184.109 108.602 c 184.109 107.238 183.504 106.785 182.633 106.785 c 181.457
 106.785 180.242 107.277 178.195 109.703 c 179.562 103.559 l 179.902 102.082
 180.129 101.172 180.129 101.172 c 180.129 101.02 180.09 100.945 179.863
 100.945 c 179.258 101.172 177.629 101.477 176.719 101.512 c 176.641 102.082
 l 176.641 102.156 176.68 102.195 176.754 102.195 c 177.438 102.234 l 177.742
 102.234 177.93 102.387 177.93 102.879 c 177.93 103.105 177.855 103.523 
177.777 103.977 c 175.277 115.086 l 175.199 115.543 175.012 116.109 175.012
 116.336 c 175.012 116.719 175.199 116.945 175.922 116.945 c 176.793 116.945
 176.793 115.957 176.945 115.086 c h
176.945 115.086 m f
Q Q
showpage
%%Trailer
end
%%EOF
