%!PS-Adobe-3.0 EPSF-3.0
%%Creator: cairo 1.16.0 (https://cairographics.org)
%%CreationDate: Tue Sep 10 21:14:42 2019
%%Pages: 1
%%DocumentData: Clean7Bit
%%LanguageLevel: 2
%%BoundingBox: 3 13 284 286
%%EndComments
%%BeginProlog
50 dict begin
/q { gsave } bind def
/Q { grestore } bind def
/cm { 6 array astore concat } bind def
/w { setlinewidth } bind def
/J { setlinecap } bind def
/j { setlinejoin } bind def
/M { setmiterlimit } bind def
/d { setdash } bind def
/m { moveto } bind def
/l { lineto } bind def
/c { curveto } bind def
/h { closepath } bind def
/re { exch dup neg 3 1 roll 5 3 roll moveto 0 rlineto
      0 exch rlineto 0 rlineto closepath } bind def
/S { stroke } bind def
/f { fill } bind def
/f* { eofill } bind def
/n { newpath } bind def
/W { clip } bind def
/W* { eoclip } bind def
/BT { } bind def
/ET { } bind def
/BDC { mark 3 1 roll /BDC pdfmark } bind def
/EMC { mark /EMC pdfmark } bind def
/cairo_store_point { /cairo_point_y exch def /cairo_point_x exch def } def
/Tj { show currentpoint cairo_store_point } bind def
/TJ {
  {
    dup
    type /stringtype eq
    { show } { -0.001 mul 0 cairo_font_matrix dtransform rmoveto } ifelse
  } forall
  currentpoint cairo_store_point
} bind def
/cairo_selectfont { cairo_font_matrix aload pop pop pop 0 0 6 array astore
    cairo_font exch selectfont cairo_point_x cairo_point_y moveto } bind def
/Tf { pop /cairo_font exch def /cairo_font_matrix where
      { pop cairo_selectfont } if } bind def
/Td { matrix translate cairo_font_matrix matrix concatmatrix dup
      /cairo_font_matrix exch def dup 4 get exch 5 get cairo_store_point
      /cairo_font where { pop cairo_selectfont } if } bind def
/Tm { 2 copy 8 2 roll 6 array astore /cairo_font_matrix exch def
      cairo_store_point /cairo_font where { pop cairo_selectfont } if } bind def
/g { setgray } bind def
/rg { setrgbcolor } bind def
/d1 { setcachedevice } bind def
/cairo_data_source {
  CairoDataIndex CairoData length lt
    { CairoData CairoDataIndex get /CairoDataIndex CairoDataIndex 1 add def }
    { () } ifelse
} def
/cairo_flush_ascii85_file { cairo_ascii85_file status { cairo_ascii85_file flushfile } if } def
/cairo_image { image cairo_flush_ascii85_file } def
/cairo_imagemask { imagemask cairo_flush_ascii85_file } def
%%EndProlog
%%BeginSetup
%%EndSetup
%%Page: 1 1
%%BeginPageSetup
%%PageBoundingBox: 3 13 284 286
%%EndPageSetup
q 3 13 281 273 rectclip
1 0 0 -1 0 300 cm q
0 g
0.75 w
0 J
0 j
[] 0.0 d
4 M q 1 0 0 1 0 0 cm
25.715 16.07 m 25.715 285 l S Q
25.715 23.57 m 28.715 26.57 l 25.715 16.07 l 22.715 26.57 l h
25.715 23.57 m f*
0.8 w
q 0 1 -1 0 0 0 cm
23.57 -25.715 m 26.57 -28.715 l 16.07 -25.715 l 26.57 -22.715 l h
23.57 -25.715 m S Q
25.715 277.5 m 22.715 274.5 l 25.715 285 l 28.715 274.5 l h
25.715 277.5 m f*
q 0 -1 1 0 0 0 cm
-277.5 25.715 m -274.5 22.715 l -285 25.715 l -274.5 28.715 l h
-277.5 25.715 m S Q
0.75 w
q 1 0 0 1 0 0 cm
4.82 249.105 m 281.785 249.105 l S Q
12.32 249.105 m 15.32 246.105 l 4.82 249.105 l 15.32 252.105 l h
12.32 249.105 m f*
0.8 w
q 1 0 0 1 0 0 cm
12.32 249.105 m 15.32 246.105 l 4.82 249.105 l 15.32 252.105 l h
12.32 249.105 m S Q
274.285 249.105 m 271.285 252.105 l 281.785 249.105 l 271.285 246.105 l
 h
274.285 249.105 m f*
q -1 0 0 -1 0 0 cm
-274.285 -249.105 m -271.285 -252.105 l -281.785 -249.105 l -271.285 -246.105
 l h
-274.285 -249.105 m S Q
2 w
1 j
q 1 0 0 1 0 0 cm
256.07 149.195 m 256.07 193.133 220.453 228.75 176.52 228.75 c 132.582 
228.75 96.965 193.133 96.965 149.195 c 96.965 105.262 132.582 69.645 176.52
 69.645 c 220.453 69.645 256.07 105.262 256.07 149.195 c h
256.07 149.195 m S Q
0.00784314 g
180.27 149.195 m 180.27 151.266 178.59 152.945 176.52 152.945 c 174.445
 152.945 172.77 151.266 172.77 149.195 c 172.77 147.125 174.445 145.445 
176.52 145.445 c 178.59 145.445 180.27 147.125 180.27 149.195 c h
180.27 149.195 m f
0 g
0.75 w
0 j
[ 3 6] 0 d
q 1 0 0 1 0 0 cm
176.52 149.195 m 176.52 249.105 l S Q
[ 3 6] 0 d
q 1 0 0 1 0 0 cm
176.52 149.195 m 25.715 149.195 l S Q
185.512 164.98 m 187.227 164.98 188.969 164.137 190.48 162.512 c 190.422
 162.336 190.336 162.219 190.133 162.219 c 188.594 163.672 187.285 164.227
 185.629 164.227 c 183.391 164.227 182.461 162.367 182.461 160.215 c 182.461
 159.691 182.52 159.168 182.637 158.645 c 183.391 154.898 186.18 153.355
 187.574 153.355 c 190.047 153.355 190.773 154.84 190.918 156.438 c 191.469
 156.352 l 191.469 155.391 191.527 154.492 191.613 153.504 c 190.625 153.445
 190.105 152.66 187.926 152.66 c 184.988 152.66 181.734 155.363 181.035 
158.996 c 180.949 159.461 180.891 159.926 180.891 160.359 c 180.891 162.832
 182.285 164.98 185.512 164.98 c h
185.512 164.98 m f
194.219 160.156 m 194.219 161 194.277 165.242 198.145 168.586 c 198.316
 168.527 198.461 168.41 198.52 168.266 c 197.91 167.566 195.758 165.012 
195.758 160.156 c 195.758 155.305 197.938 152.746 198.52 152.078 c 198.434
 151.902 198.348 151.789 198.145 151.758 c 195.934 153.648 194.219 156.727
 194.219 160.156 c h
194.219 160.156 m f
202.289 163.469 m 203.016 160.418 l 204.176 158.906 205.367 157.805 206.035
 157.805 c 206.414 157.805 206.676 157.918 206.676 158.5 c 206.676 158.762
 206.648 159.109 206.5 159.723 c 205.805 162.684 l 205.66 163.266 205.484
 164.023 205.484 164.371 c 205.484 164.719 205.688 164.98 206.242 164.98
 c 207.113 164.98 207.953 164.371 208.797 163.266 c 208.738 163.121 208.652
 162.977 208.391 162.977 c 207.898 163.527 207.375 163.875 207.172 163.875
 c 207.023 163.875 206.996 163.789 206.996 163.559 c 206.996 163.41 207.082
 163.004 207.199 162.512 c 207.898 159.574 l 208.043 158.938 208.129 158.5
 208.129 158.18 c 208.129 157.078 207.637 156.699 206.938 156.699 c 205.949
 156.699 204.992 157.105 203.305 159.082 c 204.438 154.055 l 204.699 152.863
 204.902 152.109 204.902 152.109 c 204.902 151.992 204.844 151.934 204.672
 151.934 c 204.176 152.109 202.84 152.34 202.086 152.398 c 202.027 152.863
 l 202.027 152.891 202.055 152.949 202.113 152.949 c 202.695 152.98 l 202.926
 152.98 203.074 153.094 203.074 153.504 c 203.074 153.707 203.043 154.027
 202.957 154.402 c 200.922 163.469 l 200.863 163.848 200.719 164.312 200.719
 164.488 c 200.719 164.809 200.863 164.98 201.473 164.98 c 202.172 164.98
 202.145 164.168 202.289 163.469 c h
202.289 163.469 m f
212.293 163.062 m 211.711 163.062 211.305 163.441 211.305 163.965 c 211.305
 164.547 211.801 164.719 212.121 164.777 c 212.469 164.809 212.789 164.922
 212.789 165.328 c 212.789 165.738 212.121 166.578 211.16 166.812 c 211.16
 167.016 211.219 167.133 211.336 167.246 c 212.438 167.043 213.516 166.172
 213.516 164.895 c 213.516 163.762 213.02 163.062 212.293 163.062 c h
212.293 163.062 m f
219.922 163.469 m 219.836 163.848 219.691 164.312 219.691 164.488 c 219.691
 164.809 219.863 164.98 220.445 164.98 c 221.145 164.98 221.145 164.168 
221.289 163.469 c 221.957 160.477 l 222.102 160.449 222.246 160.449 222.363
 160.449 c 222.508 160.449 222.652 160.562 222.742 160.738 c 223.062 161.32
 223.266 162.25 223.641 163.094 c 224.254 164.43 224.719 164.98 225.473 
164.98 c 226.113 164.98 226.75 164.43 227.332 163.383 c 227.215 163.238 
227.129 163.148 226.926 163.148 c 226.547 163.672 226.172 164.023 225.965
 164.023 c 225.59 164.023 225.5 163.73 225.297 163.324 c 224.805 162.309
 224.543 161.609 224.281 161.086 c 223.992 160.508 223.875 160.246 223.266
 160.07 c 223.266 160.012 l 224.223 159.168 l 225.152 158.355 225.648 158.008
 225.996 158.008 c 226.488 158.008 226.402 158.27 227.043 158.27 c 227.305
 158.27 227.883 157.918 227.883 157.34 c 227.883 156.844 227.477 156.699
 226.984 156.699 c 226.402 156.699 225.27 157.398 223.934 158.59 c 223.207
 159.227 l 222.887 159.488 222.508 159.781 222.102 159.781 c 223.438 154.055
 l 223.73 152.863 223.902 152.109 223.902 152.109 c 223.902 151.992 223.844
 151.934 223.672 151.934 c 223.176 152.109 221.871 152.34 221.113 152.398
 c 221.055 152.863 l 221.055 152.891 221.055 152.949 221.145 152.949 c 221.695
 152.98 l 221.957 152.98 222.102 153.094 222.102 153.504 c 222.102 153.707
 222.074 154.027 221.957 154.402 c h
219.922 163.469 m f
234.285 160.156 m 234.285 159.312 234.23 155.07 230.395 151.73 c 230.188
 151.789 230.043 151.902 229.984 152.051 c 230.598 152.746 232.777 155.305
 232.777 160.156 c 232.777 165.012 230.598 167.566 229.984 168.207 c 230.043
 168.41 230.16 168.555 230.395 168.555 c 232.574 166.668 234.285 163.586
 234.285 160.156 c h
234.285 160.156 m f
229.824 67.871 m 229.91 67.316 230.172 67.027 231.422 67.027 c 232.469 
67.027 233.457 67.348 233.457 68.887 c 233.457 69.148 233.426 69.469 233.367
 69.816 c 232.992 71.82 231.887 72.637 230.172 72.637 c 229.707 72.637 229.098
 72.605 228.922 72.547 c h
226.566 77.168 m 226.48 77.691 226.16 77.895 225.434 77.953 c 224.969 77.98
 l 224.883 77.98 224.824 78.039 224.824 78.129 c 224.738 78.477 l 224.766
 78.504 l 225.434 78.504 226.305 78.477 227.062 78.477 c 227.758 78.477 
228.633 78.504 229.473 78.504 c 229.504 78.477 l 229.59 78.129 l 229.59 
78.039 229.562 77.98 229.473 77.98 c 228.836 77.953 l 228.223 77.926 227.965
 77.777 227.965 77.402 c 227.965 77.344 227.992 77.254 228.02 77.168 c 228.805
 73.07 l 229.184 73.215 229.504 73.273 230.113 73.273 c 233.367 73.273 234.703
 71.066 234.996 69.496 c 235.023 69.32 235.055 69.117 235.055 68.914 c 235.055
 67.812 234.414 66.387 231.684 66.387 c 231.219 66.387 230.086 66.562 229.359
 66.562 c 228.66 66.562 227.758 66.531 227.121 66.531 c 227.062 66.562 l
 226.977 66.938 l 226.945 67.027 227.004 67.055 227.062 67.055 c 227.758
 67.086 l 228.02 67.113 228.371 67.258 228.371 67.695 c 228.371 67.754 228.371
 67.812 228.371 67.871 c h
226.566 77.168 m f
236.578 73.828 m 236.578 74.641 236.664 78.91 240.5 82.254 c 240.676 82.195
 240.82 82.078 240.879 81.934 c 240.266 81.238 238.117 78.68 238.117 73.828
 c 238.117 68.945 240.297 66.418 240.879 65.746 c 240.82 65.543 240.703 
65.43 240.5 65.398 c 238.293 67.289 236.578 70.367 236.578 73.828 c h
236.578 73.828 m f
245.402 72.75 m 246.043 74.582 l 244.328 77.141 l 244.125 77.43 243.922
 77.488 243.805 77.488 c 243.66 77.488 243.457 77.43 243.309 77.371 c 243.137
 77.285 242.961 77.254 242.758 77.254 c 242.352 77.254 242.062 77.547 242.062
 77.953 c 242.062 78.445 242.73 78.648 243.137 78.648 c 243.773 78.648 244.211
 78.391 245.023 77.227 c 246.305 75.395 l 247.031 77.633 l 247.234 78.359
 247.438 78.648 248.074 78.648 c 248.715 78.648 249.527 78.301 250.109 77.344
 c 250.023 77.168 249.879 77.023 249.676 76.992 c 249.18 77.605 248.949 
77.75 248.746 77.75 c 248.57 77.75 248.453 77.547 248.309 77.082 c 247.293
 74.09 l 248.715 72.023 l 248.977 71.59 249.441 71.531 249.559 71.531 c 
249.73 71.531 249.965 71.59 250.141 71.707 c 250.254 71.82 250.547 71.91
 250.75 71.91 c 250.98 71.91 251.332 71.531 251.332 71.094 c 251.332 70.629
 250.836 70.367 250.402 70.367 c 249.473 70.367 248.859 70.688 247.961 71.996
 c 247.031 73.332 l 246.535 71.707 l 246.215 70.746 246.012 70.367 245.547
 70.367 c 245.113 70.367 243.746 71.152 243.105 71.617 c 243.137 71.82 243.195
 72.055 243.34 72.199 c 243.57 72.082 244.184 71.793 244.531 71.793 c 244.793
 71.793 244.965 71.852 245.055 71.996 c 245.141 72.141 245.258 72.461 245.402
 72.75 c h
245.402 72.75 m f
254.656 76.73 m 254.074 76.73 253.668 77.109 253.668 77.633 c 253.668 78.215
 254.16 78.391 254.48 78.445 c 254.859 78.477 255.148 78.594 255.148 79 
c 255.148 79.406 254.48 80.25 253.523 80.48 c 253.523 80.684 253.582 80.801
 253.695 80.945 c 254.801 80.742 255.875 79.84 255.875 78.562 c 255.875 
77.43 255.41 76.73 254.656 76.73 c h
254.656 76.73 m f
267.168 78.477 m 267.547 77.895 269.785 74.438 270.309 73.215 c 270.598
 72.578 270.801 71.91 270.801 71.238 c 270.801 70.719 270.539 70.367 269.844
 70.367 c 269.289 70.367 268.969 70.602 268.969 71.035 c 268.969 71.184 
269 71.355 269.086 71.445 c 269.379 71.852 269.465 72.258 269.465 72.547
 c 269.465 73.363 268.707 74.758 268.07 75.746 c 268.07 75.746 267.141 77.285
 266.645 77.98 c 266.527 77.926 l 266.414 75.773 266.297 74.031 265.746 
71.734 c 265.484 70.746 265.25 70.367 264.785 70.367 c 264.352 70.367 262.984
 71.152 262.344 71.617 c 262.375 71.82 262.434 72.055 262.578 72.199 c 262.809
 72.082 263.418 71.793 263.77 71.793 c 264.031 71.793 264.203 71.852 264.293
 71.996 c 264.379 72.141 264.496 72.43 264.582 72.75 c 265.164 74.641 265.715
 79.172 265.512 79.609 c 264.758 80.859 263.973 81.672 263.711 81.672 c 
263.535 81.672 263.16 81.441 263.07 81.352 c 262.926 81.238 262.578 81.09
 262.402 81.09 c 262.023 81.09 261.559 81.441 261.559 82.02 c 261.559 82.633
 262.375 82.805 262.691 82.805 c 263.68 82.805 265.133 81.613 266.324 79.785
 c h
267.168 78.477 m f
276.684 73.828 m 276.684 72.984 276.598 68.711 272.762 65.398 c 272.559
 65.43 272.41 65.543 272.352 65.719 c 272.965 66.418 275.145 68.945 275.145
 73.828 c 275.145 78.68 272.965 81.238 272.352 81.906 c 272.41 82.109 272.527
 82.227 272.762 82.227 c 274.941 80.336 276.684 77.254 276.684 73.828 c 
h
276.684 73.828 m f
0.00784314 g
222.812 81.977 m 222.812 84.047 221.137 85.727 219.062 85.727 c 216.992
 85.727 215.312 84.047 215.312 81.977 c 215.312 79.906 216.992 78.227 219.062
 78.227 c 221.137 78.227 222.812 79.906 222.812 81.977 c h
222.812 81.977 m f
0 g
[ 3 6] 0 d
q 1 0 0 1 0 0 cm
179.266 144.652 m 216.223 85.953 l S Q
180.863 142.113 m 180.395 140.043 l 178.863 145.285 l 182.93 141.641 l 
h
180.863 142.113 m f*
0.338489 w
[] 0.0 d
q 0.629654 -1 1 0.629654 0 0 cm
-20.217 193.593 m -18.946 192.324 l -23.39 193.591 l -18.947 194.859 l 
h
-20.217 193.593 m S Q
214.625 88.492 m 215.094 90.562 l 216.621 85.32 l 212.555 88.961 l h
214.625 88.492 m f*
q -0.629654 1 -1 -0.629654 0 0 cm
-33.404 -193.592 m -32.133 -194.861 l -36.575 -193.591 l -32.135 -192.321
 l h
-33.404 -193.592 m S Q
189.957 111.074 m 190.074 110.465 l 190.246 109.797 190.395 109.215 190.395
 108.926 c 190.395 108.633 190.246 108.461 190.016 108.461 c 189.465 108.461
 188.766 108.574 187.953 108.691 c 187.809 108.836 187.863 109.012 187.953
 109.188 c 188.648 109.215 l 188.852 109.242 188.969 109.391 188.969 109.562
 c 188.969 109.738 188.969 109.969 188.852 110.465 c 187.863 114.766 l 187.809
 115.145 187.66 115.434 187.66 115.723 c 187.66 116.016 187.809 116.188 
188.328 116.188 c 188.941 116.188 188.941 115.434 189.113 114.766 c 189.609
 112.73 l 190.449 111.25 191.41 109.621 191.816 109.621 c 191.992 109.621
 192.078 109.707 192.195 109.824 c 192.312 109.969 192.543 110.203 192.777
 110.203 c 193.242 110.203 193.559 109.68 193.559 109.215 c 193.559 108.867
 193.301 108.402 192.66 108.402 c 191.789 108.402 190.77 109.477 190.016
 111.102 c h
189.957 111.074 m f
41.305 23.266 m 41.656 22.684 43.922 19.254 44.414 18.035 c 44.707 17.395
 44.938 16.727 44.938 16.059 c 44.938 15.535 44.676 15.188 43.98 15.188 
c 43.426 15.188 43.109 15.418 43.109 15.883 c 43.109 16 43.137 16.176 43.223
 16.262 c 43.484 16.668 43.602 17.074 43.602 17.367 c 43.602 18.18 42.848
 19.547 42.207 20.535 c 42.207 20.535 41.277 22.074 40.785 22.77 c 40.668
 22.711 l 40.551 20.562 40.434 18.82 39.883 16.551 c 39.621 15.562 39.387
 15.188 38.922 15.188 c 38.488 15.188 37.152 15.973 36.512 16.438 c 36.512
 16.641 36.598 16.871 36.742 17.016 c 36.949 16.902 37.559 16.609 37.934
 16.609 c 38.168 16.609 38.371 16.668 38.457 16.812 c 38.547 16.957 38.633
 17.25 38.75 17.57 c 39.301 19.457 39.852 23.934 39.648 24.398 c 38.895 
25.648 38.109 26.461 37.848 26.461 c 37.676 26.461 37.324 26.199 37.207 
26.113 c 37.094 25.996 36.715 25.852 36.57 25.852 c 36.191 25.852 35.727
 26.23 35.727 26.809 c 35.727 27.391 36.539 27.566 36.859 27.566 c 37.82
 27.566 39.273 26.402 40.465 24.543 c h
41.305 23.266 m f
273.176 233.898 m 273.785 235.613 l 272.188 237.969 l 271.984 238.258 271.809
 238.316 271.695 238.316 c 271.547 238.316 271.375 238.289 271.23 238.203
 c 271.055 238.145 270.879 238.113 270.734 238.113 c 270.328 238.113 270.066
 238.375 270.066 238.754 c 270.066 239.219 270.676 239.422 271.055 239.422
 c 271.664 239.422 272.07 239.16 272.828 238.055 c 274.02 236.34 l 274.715
 238.461 l 274.918 239.133 275.094 239.422 275.703 239.422 c 276.285 239.422
 277.07 239.102 277.594 238.203 c 277.535 238.027 277.359 237.91 277.188
 237.852 c 276.723 238.434 276.52 238.578 276.312 238.578 c 276.168 238.578
 276.023 238.375 275.906 237.941 c 274.977 235.148 l 276.285 233.203 l 276.547
 232.797 276.984 232.738 277.098 232.738 c 277.246 232.738 277.449 232.797
 277.621 232.914 c 277.738 233 278 233.086 278.176 233.086 c 278.438 233.086
 278.727 232.738 278.727 232.332 c 278.727 231.895 278.262 231.633 277.883
 231.633 c 277.012 231.633 276.43 231.953 275.59 233.176 c 274.715 234.422
 l 274.223 232.883 l 273.93 231.984 273.758 231.633 273.32 231.633 c 272.914
 231.633 271.637 232.359 271.027 232.824 c 271.055 233 271.113 233.23 271.258
 233.348 c 271.461 233.262 272.043 232.969 272.391 232.969 c 272.594 232.969
 272.77 233.027 272.855 233.176 c 272.945 233.32 273.059 233.609 273.176
 233.898 c h
273.176 233.898 m f
174.984 265.348 m 175.684 262.469 l 176.758 261.047 177.891 260.027 178.5
 260.027 c 178.879 260.027 179.113 260.145 179.113 260.668 c 179.113 260.93
 179.082 261.25 178.938 261.832 c 178.297 264.59 l 178.152 265.172 177.977
 265.871 177.977 266.191 c 177.977 266.539 178.18 266.77 178.703 266.77 
c 179.52 266.77 180.305 266.191 181.117 265.172 c 181.059 265 180.941 264.852
 180.711 264.852 c 180.246 265.375 179.75 265.727 179.578 265.727 c 179.43
 265.727 179.402 265.637 179.402 265.434 c 179.402 265.289 179.488 264.91
 179.605 264.445 c 180.246 261.684 l 180.391 261.074 180.477 260.699 180.477
 260.379 c 180.477 259.332 180.012 258.984 179.344 258.984 c 178.441 258.984
 177.512 259.359 175.945 261.219 c 176.988 256.512 l 177.25 255.379 177.426
 254.684 177.426 254.684 c 177.426 254.566 177.398 254.508 177.223 254.508
 c 176.758 254.684 175.508 254.914 174.812 254.945 c 174.754 255.379 l 174.754
 255.438 174.781 255.465 174.84 255.465 c 175.363 255.496 l 175.594 255.496
 175.742 255.613 175.742 255.988 c 175.742 256.164 175.684 256.484 175.625
 256.832 c 173.707 265.348 l 173.648 265.695 173.504 266.133 173.504 266.305
 c 173.504 266.598 173.648 266.77 174.199 266.77 c 174.867 266.77 174.867
 266.016 174.984 265.348 c h
174.984 265.348 m f
14.348 150.91 m 14.289 151.262 14.145 151.695 14.145 151.871 c 14.145 152.16
 14.316 152.336 14.871 152.336 c 15.508 152.336 15.508 151.551 15.656 150.91
 c 16.293 148.121 l 16.41 148.062 16.555 148.062 16.672 148.062 c 16.789
 148.062 16.934 148.18 17.02 148.324 c 17.312 148.879 17.516 149.777 17.863
 150.562 c 18.445 151.785 18.852 152.336 19.578 152.336 c 20.16 152.336 
20.77 151.785 21.32 150.824 c 21.203 150.68 21.117 150.594 20.945 150.594
 c 20.594 151.117 20.219 151.434 20.043 151.434 c 19.695 151.434 19.578 
151.145 19.402 150.766 c 18.938 149.836 18.707 149.141 18.473 148.676 c 
18.184 148.121 18.094 147.891 17.516 147.715 c 17.516 147.656 l 18.414 146.871
 l 19.258 146.09 19.723 145.797 20.07 145.797 c 20.535 145.797 20.449 146.031
 21.059 146.031 c 21.293 146.031 21.844 145.711 21.844 145.156 c 21.844 
144.691 21.465 144.547 21 144.547 c 20.449 144.547 19.375 145.215 18.125
 146.32 c 17.457 146.93 l 17.137 147.164 16.789 147.453 16.41 147.453 c 
17.66 142.078 l 17.922 140.945 18.094 140.246 18.094 140.246 c 18.094 140.129
 18.039 140.074 17.891 140.074 c 17.426 140.246 16.176 140.48 15.48 140.508
 c 15.422 140.945 l 15.422 141.004 15.422 141.031 15.508 141.031 c 16.031
 141.062 l 16.266 141.062 16.41 141.176 16.41 141.555 c 16.41 141.73 16.383
 142.02 16.293 142.398 c h
14.348 150.91 m f
Q Q
showpage
%%Trailer
end
%%EOF
