%!PS-Adobe-3.0 EPSF-3.0
%%Creator: cairo 1.16.0 (https://cairographics.org)
%%CreationDate: Tue Aug 27 00:36:13 2019
%%Pages: 1
%%DocumentData: Clean7Bit
%%LanguageLevel: 2
%%BoundingBox: 9 23 195 178
%%EndComments
%%BeginProlog
50 dict begin
/q { gsave } bind def
/Q { grestore } bind def
/cm { 6 array astore concat } bind def
/w { setlinewidth } bind def
/J { setlinecap } bind def
/j { setlinejoin } bind def
/M { setmiterlimit } bind def
/d { setdash } bind def
/m { moveto } bind def
/l { lineto } bind def
/c { curveto } bind def
/h { closepath } bind def
/re { exch dup neg 3 1 roll 5 3 roll moveto 0 rlineto
      0 exch rlineto 0 rlineto closepath } bind def
/S { stroke } bind def
/f { fill } bind def
/f* { eofill } bind def
/n { newpath } bind def
/W { clip } bind def
/W* { eoclip } bind def
/BT { } bind def
/ET { } bind def
/BDC { mark 3 1 roll /BDC pdfmark } bind def
/EMC { mark /EMC pdfmark } bind def
/cairo_store_point { /cairo_point_y exch def /cairo_point_x exch def } def
/Tj { show currentpoint cairo_store_point } bind def
/TJ {
  {
    dup
    type /stringtype eq
    { show } { -0.001 mul 0 cairo_font_matrix dtransform rmoveto } ifelse
  } forall
  currentpoint cairo_store_point
} bind def
/cairo_selectfont { cairo_font_matrix aload pop pop pop 0 0 6 array astore
    cairo_font exch selectfont cairo_point_x cairo_point_y moveto } bind def
/Tf { pop /cairo_font exch def /cairo_font_matrix where
      { pop cairo_selectfont } if } bind def
/Td { matrix translate cairo_font_matrix matrix concatmatrix dup
      /cairo_font_matrix exch def dup 4 get exch 5 get cairo_store_point
      /cairo_font where { pop cairo_selectfont } if } bind def
/Tm { 2 copy 8 2 roll 6 array astore /cairo_font_matrix exch def
      cairo_store_point /cairo_font where { pop cairo_selectfont } if } bind def
/g { setgray } bind def
/rg { setrgbcolor } bind def
/d1 { setcachedevice } bind def
/cairo_data_source {
  CairoDataIndex CairoData length lt
    { CairoData CairoDataIndex get /CairoDataIndex CairoDataIndex 1 add def }
    { () } ifelse
} def
/cairo_flush_ascii85_file { cairo_ascii85_file status { cairo_ascii85_file flushfile } if } def
/cairo_image { image cairo_flush_ascii85_file } def
/cairo_imagemask { imagemask cairo_flush_ascii85_file } def
%%EndProlog
%%BeginSetup
%%EndSetup
%%Page: 1 1
%%BeginPageSetup
%%PageBoundingBox: 9 23 195 178
%%EndPageSetup
q 9 23 186 155 rectclip
1 0 0 -1 0 200 cm q
0 g
0.803922 w
0 J
0 j
[] 0.0 d
4 M q 1 0 0 1 0 0 cm
180.262 135.641 m 180.262 147.117 153.219 156.418 119.859 156.418 c 86.5
 156.418 59.457 147.117 59.457 135.641 c 59.457 124.164 86.5 114.859 119.859
 114.859 c 153.219 114.859 180.262 124.164 180.262 135.641 c h
180.262 135.641 m S Q
1.607844 w
q 1 0 0 1 0 0 cm
180.262 135.641 m 180.262 147.117 153.219 156.418 119.859 156.418 c 86.5
 156.418 59.457 147.117 59.457 135.641 c 59.457 124.164 86.5 114.859 119.859
 114.859 c 153.219 114.859 180.262 124.164 180.262 135.641 c h
180.262 135.641 m S Q
0.75 w
[ 6 1.5 0.75 1.5] 0 d
q 1 0 0 1 0 0 cm
68.539 153.27 m 171.176 117.957 l S Q
[ 6 1.5 0.75 1.5] 0 d
q 1 0 0 1 0 0 cm
194.438 161.238 m 9.91 97.754 l S Q
0.803922 w
[] 0.0 d
q 1 0 0 1 0 0 cm
180.262 63.285 m 180.262 74.762 153.219 84.066 119.859 84.066 c 86.5 84.066
 59.457 74.762 59.457 63.285 c 59.457 51.809 86.5 42.504 119.859 42.504 
c 153.219 42.504 180.262 51.809 180.262 63.285 c h
180.262 63.285 m S Q
1.607844 w
q 1 0 0 1 0 0 cm
180.262 63.285 m 180.262 74.762 153.219 84.066 119.859 84.066 c 86.5 84.066
 59.457 74.762 59.457 63.285 c 59.457 51.809 86.5 42.504 119.859 42.504 
c 153.219 42.504 180.262 51.809 180.262 63.285 c h
180.262 63.285 m S Q
0.75 w
[ 6 1.5 0.75 1.5] 0 d
q 1 0 0 1 0 0 cm
194.438 88.883 m 9.922 25.402 l S Q
1.607844 w
[] 0.0 d
q 1 0 0 1 0 0 cm
59.457 63.285 m 59.457 135.641 l S Q
q 1 0 0 1 0 0 cm
180.262 63.285 m 180.262 135.641 l S Q
0.878687 w
[ 7.029496 1.757374 0.878687 1.757374] 0 d
q 1 0 0 1 0 0 cm
119.859 22.586 m 119.859 176.336 l S Q
1 w
[] 0.0 d
q 1 0 0 1 0 0 cm
18.152 29.703 m 18.152 99.383 l S Q
18.152 39.703 m 22.152 43.703 l 18.152 29.703 l 14.152 43.703 l h
18.152 39.703 m f*
1.066667 w
q 0 1 -1 0 0 0 cm
39.703 -18.152 m 43.703 -22.152 l 29.703 -18.152 l 43.703 -14.152 l h
39.703 -18.152 m S Q
18.152 89.383 m 14.152 85.383 l 18.152 99.383 l 22.152 85.383 l h
18.152 89.383 m f*
q 0 -1 1 0 0 0 cm
-89.383 18.152 m -85.383 14.152 l -99.383 18.152 l -85.383 22.152 l h
-89.383 18.152 m S Q
23.707 72.379 m 24.617 68.625 l 26.02 66.766 27.5 65.441 28.297 65.441 
c 28.789 65.441 29.09 65.59 29.09 66.273 c 29.09 66.617 29.055 67.031 28.863
 67.789 c 28.031 71.395 l 27.84 72.152 27.613 73.062 27.613 73.477 c 27.613
 73.934 27.879 74.234 28.559 74.234 c 29.621 74.234 30.645 73.477 31.707
 72.152 c 31.633 71.922 31.48 71.734 31.176 71.734 c 30.57 72.418 29.926
 72.871 29.699 72.871 c 29.508 72.871 29.469 72.758 29.469 72.492 c 29.469
 72.301 29.586 71.809 29.734 71.203 c 30.57 67.602 l 30.758 66.805 30.875
 66.312 30.875 65.895 c 30.875 64.531 30.266 64.074 29.395 64.074 c 28.219
 64.074 27.008 64.566 24.957 66.996 c 26.324 60.852 l 26.664 59.375 26.891
 58.465 26.891 58.465 c 26.891 58.312 26.855 58.234 26.625 58.234 c 26.02
 58.465 24.391 58.766 23.48 58.805 c 23.402 59.375 l 23.402 59.449 23.441
 59.488 23.52 59.488 c 24.199 59.523 l 24.504 59.523 24.691 59.676 24.691
 60.172 c 24.691 60.398 24.617 60.816 24.543 61.27 c 22.039 72.379 l 21.965
 72.832 21.773 73.402 21.773 73.629 c 21.773 74.008 21.965 74.234 22.684
 74.234 c 23.555 74.234 23.555 73.25 23.707 72.379 c h
23.707 72.379 m f
0.75 w
[ 6 1.5 0.75 1.5] 0 d
q 1 0 0 1 0 0 cm
9.824 144.094 m 116.285 107.469 l S Q
[ 6 1.5 0.75 1.5] 0 d
q 1 0 0 1 0 0 cm
91.359 174.906 m 189.488 141.148 l S Q
1 w
[] 0.0 d
q 1 0 0 1 0 0 cm
98.754 171.402 m 15.824 142.875 l S Q
89.297 168.152 m 84.215 170.633 l 98.754 171.402 l 86.816 163.066 l h
89.297 168.152 m f*
1.008646 w
q -1 -0.344029 0.344029 -1 0 0 cm
-131.574 -122.887 m -127.792 -126.669 l -141.03 -122.884 l -127.791 -119.103
 l h
-131.574 -122.887 m S Q
25.281 146.129 m 30.367 143.645 l 15.824 142.875 l 27.762 151.211 l h
25.281 146.129 m f*
q 1 0.344029 -0.344029 1 0 0 cm
67.558 122.887 m 71.341 119.101 l 58.101 122.887 l 71.339 126.668 l h
67.558 122.887 m S Q
46.648 168.293 m 45.512 170.34 44.223 171.895 43.352 171.895 c 42.629 171.895
 42.477 170.566 42.477 169.316 c 42.477 166.891 44.184 163.59 46.23 163.59
 c 47.102 163.59 47.672 164.766 47.672 165.562 c 47.672 166.055 47.293 167.117
 46.648 168.293 c h
46.648 170.074 m 46.457 170.645 l 46.344 171.211 46.23 171.629 46.23 171.895
 c 46.23 172.312 46.422 172.918 47.18 172.918 c 48.582 172.918 49.492 172.008
 50.062 170.719 c 49.945 170.527 49.832 170.379 49.566 170.379 c 48.922 
171.211 48.508 171.555 48.277 171.555 c 48.203 171.555 48.012 171.516 48.012
 171.25 c 48.012 171.023 48.164 170.414 48.242 169.961 c 50.629 159.535 
l 50.969 158.055 51.199 157.145 51.199 157.145 c 51.199 156.992 51.121 156.918
 50.934 156.918 c 50.324 157.145 48.695 157.449 47.746 157.488 c 47.711 
158.055 l 47.711 158.133 47.711 158.168 47.824 158.168 c 48.508 158.207 
l 48.809 158.207 49 158.359 49 158.852 c 49 159.078 48.922 159.496 48.809
 159.949 c 47.977 164.008 l 47.711 163.324 47.027 162.758 46.195 162.758
 c 43.766 162.758 40.656 166.133 40.656 169.656 c 40.656 170.91 41 172.918
 42.969 172.918 c 44.145 172.918 45.207 172.008 46.574 170.035 c h
46.648 170.074 m f
1 w
q 1 0 0 1 0 0 cm
119.859 63.227 m 176.227 69.141 l S Q
166.281 68.098 m 161.887 71.66 l 176.227 69.141 l 162.719 63.703 l h
166.281 68.098 m f*
1.060839 w
q -1 -0.104959 0.104959 -1 0 0 cm
-171.539 -50.093 m -167.562 -54.073 l -181.484 -50.092 l -167.559 -46.116
 l h
-171.539 -50.093 m S Q
155.391 58.887 m 155.543 58.09 l 155.77 57.219 155.961 56.457 155.961 56.078
 c 155.961 55.699 155.77 55.473 155.465 55.473 c 154.746 55.473 153.836 
55.625 152.773 55.777 c 152.586 55.965 152.66 56.195 152.773 56.422 c 153.684
 56.457 l 153.949 56.496 154.102 56.688 154.102 56.914 c 154.102 57.141 
154.102 57.445 153.949 58.09 c 152.66 63.699 l 152.586 64.195 152.395 64.574
 152.395 64.953 c 152.395 65.332 152.586 65.559 153.266 65.559 c 154.062
 65.559 154.062 64.574 154.289 63.699 c 154.938 61.047 l 156.035 59.113 
157.285 56.988 157.816 56.988 c 158.043 56.988 158.16 57.105 158.309 57.254
 c 158.461 57.445 158.766 57.75 159.066 57.75 c 159.676 57.75 160.094 57.066
 160.094 56.457 c 160.094 56.004 159.75 55.398 158.918 55.398 c 157.777 
55.398 156.453 56.801 155.465 58.922 c h
155.391 58.887 m f
0.75 w
[ 6 1.5 0.75 1.5] 0 d
q 1 0 0 1 0 0 cm
68.527 80.887 m 171.191 45.566 l S Q
Q Q
showpage
%%Trailer
end
%%EOF
