%!PS-Adobe-3.0 EPSF-3.0
%%Creator: cairo 1.16.0 (https://cairographics.org)
%%CreationDate: Tue Sep 10 03:54:44 2019
%%Pages: 1
%%DocumentData: Clean7Bit
%%LanguageLevel: 2
%%BoundingBox: 10 5 212 169
%%EndComments
%%BeginProlog
50 dict begin
/q { gsave } bind def
/Q { grestore } bind def
/cm { 6 array astore concat } bind def
/w { setlinewidth } bind def
/J { setlinecap } bind def
/j { setlinejoin } bind def
/M { setmiterlimit } bind def
/d { setdash } bind def
/m { moveto } bind def
/l { lineto } bind def
/c { curveto } bind def
/h { closepath } bind def
/re { exch dup neg 3 1 roll 5 3 roll moveto 0 rlineto
      0 exch rlineto 0 rlineto closepath } bind def
/S { stroke } bind def
/f { fill } bind def
/f* { eofill } bind def
/n { newpath } bind def
/W { clip } bind def
/W* { eoclip } bind def
/BT { } bind def
/ET { } bind def
/BDC { mark 3 1 roll /BDC pdfmark } bind def
/EMC { mark /EMC pdfmark } bind def
/cairo_store_point { /cairo_point_y exch def /cairo_point_x exch def } def
/Tj { show currentpoint cairo_store_point } bind def
/TJ {
  {
    dup
    type /stringtype eq
    { show } { -0.001 mul 0 cairo_font_matrix dtransform rmoveto } ifelse
  } forall
  currentpoint cairo_store_point
} bind def
/cairo_selectfont { cairo_font_matrix aload pop pop pop 0 0 6 array astore
    cairo_font exch selectfont cairo_point_x cairo_point_y moveto } bind def
/Tf { pop /cairo_font exch def /cairo_font_matrix where
      { pop cairo_selectfont } if } bind def
/Td { matrix translate cairo_font_matrix matrix concatmatrix dup
      /cairo_font_matrix exch def dup 4 get exch 5 get cairo_store_point
      /cairo_font where { pop cairo_selectfont } if } bind def
/Tm { 2 copy 8 2 roll 6 array astore /cairo_font_matrix exch def
      cairo_store_point /cairo_font where { pop cairo_selectfont } if } bind def
/g { setgray } bind def
/rg { setrgbcolor } bind def
/d1 { setcachedevice } bind def
/cairo_data_source {
  CairoDataIndex CairoData length lt
    { CairoData CairoDataIndex get /CairoDataIndex CairoDataIndex 1 add def }
    { () } ifelse
} def
/cairo_flush_ascii85_file { cairo_ascii85_file status { cairo_ascii85_file flushfile } if } def
/cairo_image { image cairo_flush_ascii85_file } def
/cairo_imagemask { imagemask cairo_flush_ascii85_file } def
%%EndProlog
%%BeginSetup
%%EndSetup
%%Page: 1 1
%%BeginPageSetup
%%PageBoundingBox: 10 5 212 169
%%EndPageSetup
q 10 5 202 164 rectclip
1 0 0 -1 0 173 cm q
0 g
0.75 w
0 J
0 j
[] 0.0 d
4 M q 1 0 0 1 0 0 cm
109.984 165.848 m 109.984 6.734 l S Q
1 0 0 rg
1.134525 w
1 j
10 M q 1 0 0 -1 0 0 cm
206.496 -154.91 m 202.41 -151.016 l 198.664 -147.27 l 195.266 -143.676 
l 191.859 -140.125 l 188.797 -136.906 l 185.922 -133.656 l 183.16 -130.594
 l 180.625 -127.531 l 178.246 -124.617 l 176.016 -121.934 l 174.16 -119.172
 l 172.309 -116.488 l 170.566 -113.918 l 169.059 -111.535 l 167.504 -109
 l 166.332 -106.613 l 165.121 -104.387 l 164.289 -102.004 l 163.457 -99.809
 l 162.586 -97.578 l 162.059 -95.383 l 161.57 -93.305 l 161.379 -91.113 
l 161.074 -89.07 l 161.074 -84.645 l 161.379 -82.602 l 161.57 -80.41 l 162.059
 -78.328 l 162.586 -76.137 l 163.457 -73.906 l 164.289 -71.711 l 165.121
 -69.328 l 166.332 -67.133 l 167.504 -64.715 l 169.059 -62.184 l 170.566
 -59.797 l 172.309 -57.266 l 174.16 -54.543 l 176.016 -51.781 l 178.246 
-49.098 l 180.625 -46.184 l 183.16 -43.121 l 185.922 -40.059 l 188.797 -36.844
 l 191.859 -33.594 l 195.266 -30.035 l 198.664 -26.445 l 202.41 -22.699 
l 206.496 -18.805 l S Q
q 1 0 0 -1 0 0 cm
13.512 -154.91 m 17.598 -151.016 l 21.34 -147.27 l 24.746 -143.676 l 28.148
 -140.125 l 31.211 -136.906 l 34.086 -133.656 l 36.809 -130.594 l 39.379
 -127.531 l 41.762 -124.617 l 43.957 -121.934 l 45.848 -119.172 l 47.699
 -116.488 l 49.438 -113.918 l 50.949 -111.535 l 52.504 -109 l 53.676 -106.613
 l 54.883 -104.387 l 55.715 -102.004 l 56.551 -99.809 l 57.418 -97.578 l
 57.949 -95.383 l 58.441 -93.305 l 58.629 -91.113 l 58.93 -89.07 l 58.93
 -84.645 l 58.629 -82.602 l 58.441 -80.41 l 57.949 -78.328 l 57.418 -76.137
 l 56.551 -73.906 l 55.715 -71.711 l 54.883 -69.328 l 53.676 -67.133 l 52.504
 -64.715 l 50.949 -62.184 l 49.438 -59.797 l 47.699 -57.266 l 45.848 -54.543
 l 43.957 -51.781 l 41.762 -49.098 l 39.379 -46.184 l 36.809 -43.121 l 34.086
 -40.059 l 31.211 -36.844 l 28.148 -33.594 l 24.746 -30.035 l 21.34 -26.445
 l 17.598 -22.699 l 13.512 -18.805 l S Q
0 g
0.28363 w
2 j
q 1 0 0 -1 0 0 cm
44.824 -86.875 m 44.824 -86.836 l 44.789 -86.762 l 44.789 -86.574 l 44.75
 -86.5 l 44.75 -86.457 l 44.711 -86.387 l 44.676 -86.309 l 44.637 -86.195
 l 44.562 -86.047 l 44.488 -85.93 l 44.445 -85.891 l 44.445 -85.855 l 44.41
 -85.816 l 44.184 -85.664 l 44.105 -85.664 l 44.07 -85.629 l 44.035 -85.629
 l 43.879 -85.59 l 43.73 -85.551 l 43.617 -85.516 l 43.426 -85.516 l 43.312
 -85.551 l 43.16 -85.551 l 43.047 -85.59 l 42.973 -85.59 l 42.898 -85.629
 l 42.785 -85.664 l 42.559 -85.816 l 42.516 -85.855 l 42.516 -85.891 l 42.445
 -85.93 l 42.289 -86.16 l 42.254 -86.23 l 42.219 -86.273 l 42.18 -86.309
 l 42.141 -86.457 l 42.102 -86.613 l 42.102 -86.988 l 42.141 -87.141 l 42.141
 -87.254 l 42.18 -87.332 l 42.219 -87.406 l 42.289 -87.52 l 42.367 -87.672
 l 42.445 -87.785 l 42.516 -87.82 l 42.516 -87.863 l 42.559 -87.898 l 42.785
 -88.047 l 42.82 -88.047 l 42.82 -88.086 l 42.898 -88.086 l 43.012 -88.125
 l 43.16 -88.16 l 43.273 -88.199 l 43.504 -88.199 l 43.578 -88.16 l 43.766
 -88.16 l 43.844 -88.125 l 43.957 -88.125 l 44.035 -88.086 l 44.148 -88.047
 l 44.297 -87.973 l 44.41 -87.898 l 44.445 -87.863 l 44.445 -87.82 l 44.488
 -87.785 l 44.637 -87.559 l 44.676 -87.48 l 44.676 -87.445 l 44.711 -87.406
 l 44.789 -87.102 l 44.824 -87.027 l h
44.824 -86.875 m S Q
q 1 0 0 -1 0 0 cm
60.293 -86.875 m 60.293 -86.762 l 60.258 -86.574 l 60.258 -86.457 l 60.215
 -86.387 l 60.215 -86.309 l 60.145 -86.195 l 60.066 -86.047 l 59.953 -85.93
 l 59.914 -85.891 l 59.875 -85.855 l 59.84 -85.816 l 59.613 -85.664 l 59.574
 -85.664 l 59.574 -85.629 l 59.5 -85.629 l 59.387 -85.59 l 59.234 -85.551
 l 59.121 -85.516 l 58.895 -85.516 l 58.816 -85.551 l 58.629 -85.551 l 58.555
 -85.59 l 58.441 -85.59 l 58.363 -85.629 l 58.25 -85.664 l 58.023 -85.816
 l 57.984 -85.855 l 57.984 -85.891 l 57.949 -85.93 l 57.797 -86.16 l 57.758
 -86.23 l 57.723 -86.273 l 57.723 -86.309 l 57.645 -86.457 l 57.609 -86.613
 l 57.57 -86.723 l 57.57 -86.914 l 57.609 -86.988 l 57.609 -87.141 l 57.645
 -87.219 l 57.645 -87.254 l 57.684 -87.332 l 57.723 -87.406 l 57.797 -87.52
 l 57.871 -87.672 l 57.949 -87.785 l 57.984 -87.82 l 57.984 -87.863 l 58.023
 -87.898 l 58.25 -88.047 l 58.289 -88.047 l 58.328 -88.086 l 58.363 -88.086
 l 58.516 -88.125 l 58.668 -88.16 l 58.781 -88.199 l 58.969 -88.199 l 59.082
 -88.16 l 59.234 -88.16 l 59.348 -88.125 l 59.422 -88.125 l 59.5 -88.086
 l 59.613 -88.047 l 59.84 -87.898 l 60.066 -87.672 l 60.145 -87.559 l 60.18
 -87.48 l 60.18 -87.445 l 60.215 -87.406 l 60.258 -87.254 l 60.293 -87.102
 l h
60.293 -86.875 m S Q
0.284 w
1 j
[ 2.272 0.568 0.284 0.568] 0 d
q 1 0 0 -1 0 0 cm
109.984 -86.875 m 203.242 -8.668 l S Q
[ 2.272 0.568 0.284 0.568] 0 d
q 1 0 0 -1 0 0 cm
109.984 -86.875 m 16.387 -164.289 l S Q
[ 2.272 0.568 0.284 0.568] 0 d
q 1 0 0 -1 0 0 cm
109.984 -86.875 m 203.582 -163.945 l S Q
[ 2.272 0.568 0.284 0.568] 0 d
q 1 0 0 -1 0 0 cm
109.984 -86.875 m 16.387 -9.008 l S Q
0.28363 w
2 j
[] 0.0 d
q 1 0 0 -1 0 0 cm
177.863 -86.875 m 177.863 -86.457 l 177.828 -86.387 l 177.793 -86.309 l
 177.715 -86.195 l 177.641 -86.047 l 177.566 -85.93 l 177.488 -85.891 l 
177.488 -85.855 l 177.453 -85.816 l 177.223 -85.664 l 177.188 -85.664 l 
177.188 -85.629 l 177.109 -85.629 l 176.996 -85.59 l 176.848 -85.551 l 176.734
 -85.516 l 176.508 -85.516 l 176.43 -85.551 l 176.242 -85.551 l 176.164 
-85.59 l 176.051 -85.59 l 175.977 -85.629 l 175.863 -85.664 l 175.711 -85.742
 l 175.598 -85.816 l 175.562 -85.855 l 175.562 -85.891 l 175.52 -85.93 l
 175.449 -86.047 l 175.371 -86.16 l 175.336 -86.23 l 175.336 -86.273 l 175.293
 -86.309 l 175.258 -86.457 l 175.223 -86.613 l 175.18 -86.723 l 175.18 -86.914
 l 175.223 -86.988 l 175.223 -87.141 l 175.258 -87.219 l 175.258 -87.254
 l 175.293 -87.332 l 175.336 -87.406 l 175.371 -87.52 l 175.449 -87.672 
l 175.52 -87.785 l 175.562 -87.82 l 175.562 -87.863 l 175.598 -87.898 l 
175.824 -88.047 l 175.902 -88.047 l 175.938 -88.086 l 175.977 -88.086 l 
176.129 -88.125 l 176.281 -88.16 l 176.395 -88.199 l 176.578 -88.199 l 176.691
 -88.16 l 176.848 -88.16 l 176.961 -88.125 l 177.035 -88.125 l 177.109 -88.086
 l 177.223 -88.047 l 177.336 -87.973 l 177.453 -87.898 l 177.488 -87.863
 l 177.488 -87.82 l 177.566 -87.785 l 177.715 -87.559 l 177.75 -87.48 l 
177.793 -87.445 l 177.828 -87.406 l 177.863 -87.254 l 177.906 -87.102 l 
177.906 -87.027 l 177.863 -86.914 l h
177.863 -86.875 m S Q
0 0.682353 0 rg
1.134525 w
0 j
q 1 0 0 -1 0 0 cm
110.02 -86.195 m 161.227 -44.102 l S Q
0 0 1 rg
q 1 0 0 -1 0 0 cm
110.02 -86.195 m 161.074 -86.195 l S Q
Q q
10.344 4.918 199.688 162.699 re W n
q
10 4 201 164 re W n
  q
1 g
0.28363 w
0 J
0 j
[] 0.0 d
10 M q 1 0 0 -1 0 0 cm
10.715 -5.457 198.918 -161.668 re S Q
  Q
Q
1 0.521569 0.0117647 rg
1.134525 w
0 J
0 j
[] 0.0 d
10 M q 1 0 0 -1 0 0 cm
161.074 -86.195 m 161.074 -43.652 l S Q
0 0.682353 0 rg
q 1 0 0 -1 0 0 cm
110.098 -87.707 m 177.074 -87.707 l S Q
0 g
44.977 86.688 m 44.977 87.629 44.215 88.391 43.273 88.391 c 42.336 88.391
 41.574 87.629 41.574 86.688 c 41.574 85.75 42.336 84.988 43.273 84.988 
c 44.215 84.988 44.977 85.75 44.977 86.688 c f*
0.28363 w
q 1 0 0 -1 0 0 cm
44.977 -86.688 m 44.977 -87.629 44.215 -88.391 43.273 -88.391 c 42.336 
-88.391 41.574 -87.629 41.574 -86.688 c 41.574 -85.75 42.336 -84.988 43.273
 -84.988 c 44.215 -84.988 44.977 -85.75 44.977 -86.688 c h
44.977 -86.688 m S Q
178.133 86.613 m 178.133 87.551 177.371 88.312 176.43 88.312 c 175.488 
88.312 174.727 87.551 174.727 86.613 c 174.727 85.672 175.488 84.91 176.43
 84.91 c 177.371 84.91 178.133 85.672 178.133 86.613 c f*
q 1 0 0 -1 0 0 cm
178.133 -86.613 m 178.133 -87.551 177.371 -88.312 176.43 -88.312 c 175.488
 -88.312 174.727 -87.551 174.727 -86.613 c 174.727 -85.672 175.488 -84.91
 176.43 -84.91 c 177.371 -84.91 178.133 -85.672 178.133 -86.613 c h
178.133 -86.613 m S Q
111.348 86.875 m 111.348 86.836 l 111.309 86.762 l 111.309 86.574 l 111.27
 86.5 l 111.27 86.387 l 111.234 86.309 l 111.195 86.195 l 111.121 86.047
 l 111.043 85.934 l 111.008 85.891 l 110.969 85.855 l 110.93 85.816 l 110.703
 85.664 l 110.629 85.664 l 110.59 85.629 l 110.551 85.629 l 110.402 85.59
 l 110.246 85.551 l 110.133 85.516 l 109.949 85.516 l 109.871 85.551 l 109.719
 85.551 l 109.645 85.59 l 109.531 85.59 l 109.457 85.629 l 109.344 85.664
 l 109.191 85.742 l 109.074 85.816 l 108.961 85.93 l 108.891 86.047 l 108.812
 86.16 l 108.812 86.23 l 108.777 86.273 l 108.777 86.309 l 108.734 86.457
 l 108.699 86.613 l 108.664 86.723 l 108.664 86.914 l 108.699 86.988 l 108.699
 87.141 l 108.734 87.219 l 108.734 87.332 l 108.777 87.406 l 108.812 87.52
 l 108.891 87.672 l 108.961 87.785 l 109.004 87.82 l 109.039 87.863 l 109.074
 87.898 l 109.191 87.973 l 109.305 88.047 l 109.379 88.047 l 109.418 88.086
 l 109.457 88.086 l 109.605 88.125 l 109.758 88.16 l 109.836 88.199 l 110.02
 88.199 l 110.098 88.16 l 110.289 88.16 l 110.363 88.125 l 110.477 88.125
 l 110.551 88.086 l 110.664 88.047 l 110.816 87.973 l 110.93 87.898 l 110.969
 87.863 l 111.008 87.82 l 111.043 87.785 l 111.195 87.559 l 111.195 87.48
 l 111.234 87.445 l 111.234 87.406 l 111.27 87.254 l 111.309 87.102 l 111.348
 87.027 l 111.348 86.875 l f*
2 j
q 1 0 0 -1 0 0 cm
111.348 -86.875 m 111.348 -86.836 l 111.309 -86.762 l 111.309 -86.574 l
 111.27 -86.5 l 111.27 -86.387 l 111.234 -86.309 l 111.195 -86.195 l 111.121
 -86.047 l 111.043 -85.93 l 111.008 -85.891 l 110.969 -85.855 l 110.93 -85.816
 l 110.703 -85.664 l 110.629 -85.664 l 110.59 -85.629 l 110.551 -85.629 
l 110.402 -85.59 l 110.246 -85.551 l 110.133 -85.516 l 109.949 -85.516 l
 109.871 -85.551 l 109.719 -85.551 l 109.645 -85.59 l 109.531 -85.59 l 109.457
 -85.629 l 109.344 -85.664 l 109.191 -85.742 l 109.074 -85.816 l 108.961
 -85.93 l 108.891 -86.047 l 108.812 -86.16 l 108.812 -86.23 l 108.777 -86.273
 l 108.777 -86.309 l 108.734 -86.457 l 108.699 -86.613 l 108.664 -86.723
 l 108.664 -86.914 l 108.699 -86.988 l 108.699 -87.141 l 108.734 -87.219
 l 108.734 -87.332 l 108.777 -87.406 l 108.812 -87.52 l 108.891 -87.672 
l 108.961 -87.785 l 109.004 -87.82 l 109.039 -87.863 l 109.074 -87.898 l
 109.191 -87.973 l 109.305 -88.047 l 109.379 -88.047 l 109.418 -88.086 l
 109.457 -88.086 l 109.605 -88.125 l 109.758 -88.16 l 109.836 -88.199 l 
110.02 -88.199 l 110.098 -88.16 l 110.289 -88.16 l 110.363 -88.125 l 110.477
 -88.125 l 110.551 -88.086 l 110.664 -88.047 l 110.816 -87.973 l 110.93 
-87.898 l 110.969 -87.863 l 111.008 -87.82 l 111.043 -87.785 l 111.195 -87.559
 l 111.195 -87.48 l 111.234 -87.445 l 111.234 -87.406 l 111.27 -87.254 l
 111.309 -87.102 l 111.348 -87.027 l h
111.348 -86.875 m S Q
q 1 0 0 -1 0 0 cm
162.438 -86.875 m 162.438 -86.836 l 162.398 -86.762 l 162.398 -86.574 l
 162.363 -86.5 l 162.363 -86.457 l 162.324 -86.387 l 162.285 -86.309 l 162.211
 -86.195 l 162.137 -86.047 l 162.059 -85.93 l 162.02 -85.891 l 162.02 -85.855
 l 161.984 -85.816 l 161.754 -85.664 l 161.719 -85.664 l 161.684 -85.629
 l 161.641 -85.629 l 161.492 -85.59 l 161.34 -85.551 l 161.227 -85.516 l
 161.039 -85.516 l 160.926 -85.551 l 160.773 -85.551 l 160.66 -85.59 l 160.547
 -85.59 l 160.469 -85.629 l 160.355 -85.664 l 160.129 -85.816 l 160.016 
-85.93 l 159.941 -86.047 l 159.867 -86.16 l 159.828 -86.23 l 159.828 -86.273
 l 159.789 -86.309 l 159.754 -86.457 l 159.715 -86.613 l 159.676 -86.723
 l 159.676 -86.914 l 159.715 -86.988 l 159.715 -87.141 l 159.754 -87.219
 l 159.754 -87.254 l 159.789 -87.332 l 159.789 -87.406 l 159.867 -87.52 
l 159.941 -87.672 l 160.016 -87.785 l 160.055 -87.82 l 160.094 -87.863 l
 160.129 -87.898 l 160.355 -88.047 l 160.398 -88.047 l 160.434 -88.086 l
 160.469 -88.086 l 160.625 -88.125 l 160.773 -88.16 l 160.887 -88.199 l 
161.113 -88.199 l 161.188 -88.16 l 161.379 -88.16 l 161.457 -88.125 l 161.57
 -88.125 l 161.641 -88.086 l 161.754 -88.047 l 161.867 -87.973 l 161.984
 -87.898 l 162.02 -87.863 l 162.02 -87.82 l 162.059 -87.785 l 162.137 -87.672
 l 162.211 -87.559 l 162.25 -87.48 l 162.285 -87.445 l 162.285 -87.406 l
 162.363 -87.254 l 162.398 -87.102 l 162.438 -87.027 l h
162.438 -86.875 m S Q
115.789 13.543 m 116.211 11.438 l 116.246 11.238 116.281 11.09 116.375 
10.961 c 118.297 8.16 l 118.535 7.832 118.664 7.629 119.047 7.594 c 119.34
 7.574 l 119.379 7.52 119.414 7.301 119.395 7.262 c 119.066 7.262 118.754
 7.281 118.5 7.281 c 118.262 7.281 117.914 7.262 117.512 7.262 c 117.473
 7.301 117.453 7.539 117.473 7.574 c 117.84 7.609 l 118.098 7.648 118.113
 7.723 117.895 8.031 c 116.156 10.688 l 116.102 10.688 l 115.168 8.031 l
 115.055 7.758 115.02 7.648 115.402 7.609 c 115.754 7.574 l 115.789 7.52
 115.809 7.301 115.789 7.262 c 115.348 7.262 115.02 7.281 114.598 7.281 
c 114.195 7.281 113.773 7.262 113.465 7.262 c 113.426 7.316 113.445 7.52
 113.48 7.574 c 113.645 7.594 l 114.012 7.648 114.105 7.777 114.324 8.363
 c 115.332 11.055 l 115.348 11.125 115.367 11.219 115.367 11.254 c 115.367
 11.328 115.348 11.418 115.332 11.531 c 114.945 13.543 l 114.891 13.855 
114.707 14.02 114.27 14.055 c 113.922 14.094 l 113.883 14.129 113.848 14.312
 113.902 14.406 c 114.398 14.406 114.781 14.387 115.223 14.387 c 115.641
 14.387 116.137 14.406 116.613 14.406 c 116.648 14.367 116.688 14.148 116.648
 14.094 c 116.281 14.055 l 115.844 14.02 115.734 13.875 115.789 13.543 c
 h
115.789 13.543 m f
120.844 7.121 m 120.785 7.078 120.727 7.062 120.652 7.062 c 120.625 7.062
 l 120.523 7.062 120.465 7.105 120.434 7.18 c 119.863 8.469 l 119.863 8.469
 119.863 8.484 119.863 8.496 c 119.863 8.527 119.879 8.555 119.906 8.586
 c 119.938 8.602 119.965 8.613 119.98 8.613 c 120.008 8.613 120.039 8.602
 120.055 8.586 c 120.945 7.516 l 120.992 7.473 120.992 7.414 120.992 7.371
 c 120.992 7.266 120.945 7.164 120.844 7.121 c h
120.844 7.121 m f
Q q
0 g
0.75 w
0 J
0 j
[] 0.0 d
4 M q 1 0 0 1 0 0 cm
11.02 86.875 m 211.996 86.875 l S Q
201.43 76.945 m 201.41 77 201.484 77 201.574 77.02 c 201.758 77.055 202.07
 77.148 202.379 77.789 c 203.461 80.059 l 203.516 80.148 203.551 80.242 
203.551 80.316 c 203.551 80.332 203.551 80.352 203.551 80.387 c 203.535 
80.441 203.461 80.555 203.387 80.645 c 201.539 82.695 l 201.246 83.023 200.77
 83.52 200.145 83.555 c 200.09 83.555 200.035 83.574 200.02 83.629 c 199.98
 83.848 l 199.98 83.867 l 200.293 83.867 200.566 83.848 200.879 83.848 c
 201.301 83.848 201.574 83.867 202.07 83.867 c 202.105 83.848 l 202.141 
83.629 l 202.141 83.594 202.141 83.555 202.086 83.555 c 201.887 83.539 l
 201.684 83.52 201.629 83.445 201.629 83.355 c 201.629 83.281 201.703 83.133
 201.832 83.008 c 203.625 80.992 l 203.715 80.918 203.789 80.848 203.809
 80.848 c 203.844 80.848 203.898 80.883 203.938 80.973 c 204.945 83.043 
l 205 83.191 205.055 83.301 205.055 83.371 c 205.055 83.465 204.961 83.5
 204.707 83.539 c 204.484 83.555 l 204.43 83.555 204.414 83.594 204.414 
83.629 c 204.359 83.848 l 204.395 83.867 l 204.887 83.867 205.473 83.848
 205.711 83.848 c 205.969 83.848 206.41 83.867 206.828 83.867 c 206.848 
83.848 l 206.902 83.629 l 206.902 83.594 206.883 83.555 206.828 83.555 c
 206.371 83.52 206.078 83.152 205.879 82.715 c 204.688 80.406 l 204.633 
80.297 204.578 80.188 204.578 80.113 c 204.578 80.078 204.578 80.059 204.594
 80.039 c 204.613 79.949 204.688 79.84 204.797 79.711 c 206.574 77.75 l 
206.938 77.348 207.23 77.055 207.875 77.02 c 207.965 77.02 207.984 76.98
 207.984 76.945 c 208.02 76.727 l 208 76.707 l 207.582 76.707 207.215 76.727
 206.977 76.727 c 206.719 76.727 206.352 76.707 205.914 76.707 c 205.895
 76.727 l 205.859 76.945 l 205.84 77 205.879 77.02 205.914 77.02 c 206.227
 77.055 l 206.352 77.055 206.41 77.109 206.41 77.164 c 206.41 77.258 206.336
 77.387 206.188 77.531 c 204.449 79.473 l 204.375 79.547 204.32 79.602 204.285
 79.602 c 204.266 79.602 204.23 79.547 204.191 79.473 c 203.297 77.531 l
 203.242 77.402 203.188 77.293 203.188 77.219 c 203.188 77.129 203.258 77.074
 203.441 77.055 c 203.789 77.02 l 203.828 77.02 203.844 77 203.863 76.945
 c 203.898 76.746 l 203.883 76.746 203.883 76.707 203.883 76.707 c 203.387
 76.707 202.855 76.727 202.602 76.727 c 202.344 76.727 201.922 76.707 201.5
 76.707 c 201.465 76.746 l h
201.43 76.945 m f
209.805 75.637 m 209.734 75.582 209.66 75.562 209.586 75.562 c 209.531 
75.562 l 209.402 75.562 209.332 75.617 209.293 75.711 c 208.578 77.32 l 
208.578 77.34 208.578 77.359 208.578 77.359 c 208.578 77.414 208.598 77.449
 208.633 77.488 c 208.672 77.488 208.707 77.504 208.727 77.504 c 208.762
 77.504 208.801 77.488 208.816 77.469 c 209.934 76.133 l 209.988 76.078 
209.988 76.023 209.988 75.965 c 209.988 75.82 209.934 75.711 209.805 75.637
 c h
209.805 75.637 m f
0 0.592157 0 rg
132.477 61.77 m 133.23 61.77 133.93 61.23 134.449 60.516 c 134.414 60.406
 134.305 60.336 134.219 60.336 c 133.785 60.801 133.375 61.141 132.801 61.141
 c 132.621 61.141 132.422 61.09 132.262 60.891 c 132.098 60.691 131.992 
60.477 131.992 59.832 c 131.992 58.234 132.746 57.301 133.57 57.301 c 133.715
 57.301 134.02 57.355 134.02 57.695 c 134.02 57.77 134 57.859 133.965 57.91
 c 133.93 57.965 133.91 58.074 133.91 58.129 c 133.91 58.305 134.02 58.469
 134.199 58.469 c 134.484 58.469 134.754 58.254 134.754 58 c 134.754 57.57
 134.719 56.961 133.555 56.961 c 133.141 56.961 132.441 57.246 131.992 57.73
 c 131.473 58.289 131.113 59.113 131.113 60.066 c 131.113 60.426 131.184
 60.91 131.434 61.25 c 131.652 61.574 132.027 61.77 132.477 61.77 c h
132.477 61.77 m f
143.816 97.008 m 144.57 97.008 145.27 96.469 145.789 95.754 c 145.754 95.645
 145.645 95.574 145.559 95.574 c 145.125 96.039 144.715 96.379 144.141 96.379
 c 143.961 96.379 143.762 96.328 143.602 96.129 c 143.438 95.934 143.332
 95.715 143.332 95.07 c 143.332 93.473 144.086 92.539 144.91 92.539 c 145.055
 92.539 145.359 92.594 145.359 92.934 c 145.359 93.008 145.34 93.098 145.305
 93.148 c 145.27 93.203 145.25 93.312 145.25 93.367 c 145.25 93.547 145.359
 93.707 145.539 93.707 c 145.824 93.707 146.094 93.492 146.094 93.238 c 
146.094 92.809 146.059 92.199 144.895 92.199 c 144.48 92.199 143.781 92.484
 143.332 92.973 c 142.812 93.527 142.453 94.352 142.453 95.305 c 142.453
 95.664 142.523 96.148 142.773 96.488 c 142.992 96.812 143.367 97.008 143.816
 97.008 c h
143.816 97.008 m f
0 0 1 rg
139.328 78.59 m 139.043 78.555 138.914 78.52 138.484 78.52 c 137.336 78.52
 135.777 80.207 135.777 81.895 c 135.777 82.484 135.918 83.328 136.816 83.328
 c 137.391 83.328 137.984 82.734 138.629 81.785 c 138.648 81.805 l 138.504
 82.25 l 138.43 82.504 138.414 82.719 138.414 82.844 c 138.414 83.043 138.484
 83.328 138.844 83.328 c 139.508 83.328 139.938 82.898 140.207 82.289 c 
140.152 82.199 140.102 82.125 139.977 82.125 c 139.668 82.52 139.473 82.684
 139.363 82.684 c 139.328 82.684 139.238 82.664 139.238 82.539 c 139.238
 82.43 139.312 82.145 139.348 81.93 c 140.082 78.609 l 139.832 78.609 139.543
 78.645 139.328 78.59 c h
138.809 80.871 m 138.27 81.84 137.445 82.734 137.102 82.734 c 136.746 82.734
 136.637 82.305 136.637 81.715 c 136.637 80.582 137.535 78.859 138.504 78.859
 c 138.738 78.859 138.969 78.93 139.168 79.059 c 139.168 79.059 139.059 
80.188 138.809 80.871 c h
138.809 80.871 m f
1 0.521569 0.0117647 rg
155.465 61.727 m 155.605 61.027 155.734 60.598 155.734 60.598 c 155.734
 60.523 155.695 60.488 155.605 60.488 c 155.32 60.598 154.547 60.738 154.102
 60.758 c 154.062 61.027 l 154.062 61.062 154.082 61.082 154.117 61.082 
c 154.457 61.098 l 154.602 61.098 154.676 61.172 154.676 61.402 c 154.676
 61.512 154.656 61.691 154.602 61.922 c 153.508 66.824 l 153.348 67.488 
153.633 68.062 154.602 68.062 c 154.926 68.062 155.34 67.918 155.715 67.668
 c 156.684 67.004 157.672 65.637 157.672 64.527 c 157.672 63.809 157.527
 63.25 156.559 63.25 c 155.824 63.25 155.266 63.934 154.891 64.363 c 154.871
 64.363 l h
156.793 64.742 m 156.793 66.285 155.465 67.684 154.656 67.684 c 154.262
 67.684 154.191 67.273 154.367 66.535 c 154.727 65.012 l 155.23 64.418 155.715
 63.754 156.234 63.754 c 156.559 63.754 156.793 64.004 156.793 64.742 c 
h
156.793 64.742 m f
1 g
83.094 88.84 24.926 10.418 re f*
1 w
1 j
q 1 0 0 1 0 0 cm
83.094 88.84 24.926 10.418 re S Q
0 g
83.234 94.031 m 83.234 94.531 83.289 97.172 85.656 99.234 c 85.766 99.199
 85.855 99.129 85.891 99.039 c 85.516 98.605 84.188 97.027 84.188 94.031
 c 84.188 91.016 85.531 89.453 85.891 89.043 c 85.855 88.914 85.785 88.844
 85.656 88.824 c 84.293 89.992 83.234 91.895 83.234 94.031 c h
83.234 94.031 m f
88.219 96.078 m 88.668 94.191 l 89.387 93.242 90.141 92.578 90.535 92.578
 c 90.785 92.578 90.945 92.648 90.945 92.988 c 90.945 93.152 90.91 93.367
 90.82 93.762 c 90.391 95.59 l 90.301 95.949 90.191 96.418 90.191 96.633
 c 90.191 96.848 90.32 97.008 90.66 97.008 c 91.215 97.008 91.738 96.633
 92.258 95.949 c 92.223 95.844 92.148 95.754 91.988 95.754 c 91.699 96.094
 91.359 96.328 91.254 96.328 c 91.164 96.328 91.125 96.273 91.125 96.129
 c 91.125 96.039 91.199 95.789 91.254 95.484 c 91.699 93.672 l 91.789 93.277
 91.844 93.008 91.844 92.809 c 91.844 92.129 91.539 91.895 91.09 91.895 
c 90.5 91.895 89.887 92.129 88.848 93.348 c 89.547 90.242 l 89.707 89.527
 89.836 89.043 89.836 89.043 c 89.836 88.969 89.797 88.934 89.691 88.934
 c 89.387 89.043 88.559 89.203 88.094 89.238 c 88.059 89.508 l 88.059 89.543
 88.074 89.562 88.129 89.562 c 88.469 89.578 l 88.633 89.578 88.723 89.652
 88.723 89.902 c 88.723 90.027 88.688 90.242 88.633 90.477 c 87.375 96.078
 l 87.34 96.309 87.25 96.598 87.25 96.703 c 87.25 96.902 87.34 97.008 87.715
 97.008 c 88.148 97.008 88.129 96.508 88.219 96.078 c h
88.219 96.078 m f
94.398 95.824 m 94.043 95.824 93.789 96.059 93.789 96.383 c 93.789 96.742
 94.094 96.848 94.293 96.883 c 94.527 96.902 94.707 96.973 94.707 97.227
 c 94.707 97.477 94.293 97.996 93.699 98.141 c 93.699 98.266 93.734 98.336
 93.809 98.426 c 94.488 98.301 95.152 97.746 95.152 96.957 c 95.152 96.254
 94.867 95.824 94.398 95.824 c h
94.398 95.824 m f
99.113 96.078 m 99.059 96.309 98.969 96.598 98.969 96.703 c 98.969 96.902
 99.078 97.008 99.438 97.008 c 99.883 97.008 99.883 96.508 99.957 96.078
 c 100.387 94.227 l 100.477 94.191 100.547 94.191 100.637 94.191 c 100.727
 94.191 100.801 94.281 100.852 94.371 c 101.07 94.75 101.195 95.324 101.41
 95.844 c 101.785 96.668 102.074 97.008 102.539 97.008 c 102.934 97.008 
103.328 96.668 103.707 96.023 c 103.617 95.934 103.582 95.879 103.457 95.879
 c 103.223 96.203 102.988 96.418 102.863 96.418 c 102.629 96.418 102.559
 96.219 102.449 95.988 c 102.129 95.359 101.984 94.91 101.824 94.605 c 101.645
 94.246 101.57 94.086 101.195 93.977 c 101.195 93.941 l 101.785 93.402 l
 102.344 92.898 102.648 92.703 102.883 92.703 c 103.168 92.703 103.133 92.863
 103.508 92.863 c 103.672 92.863 104.047 92.648 104.047 92.289 c 104.047
 91.965 103.797 91.895 103.492 91.895 c 103.113 91.895 102.414 92.324 101.605
 93.062 c 101.141 93.457 l 100.941 93.617 100.711 93.797 100.477 93.797 
c 101.285 90.242 l 101.465 89.508 101.57 89.043 101.57 89.043 c 101.57 88.969
 101.535 88.934 101.445 88.934 c 101.141 89.043 100.316 89.203 99.848 89.238
 c 99.812 89.508 l 99.812 89.543 99.812 89.562 99.867 89.562 c 100.227 89.578
 l 100.367 89.578 100.457 89.652 100.457 89.902 c 100.457 90.027 100.441
 90.227 100.387 90.477 c h
99.113 96.078 m f
108.004 94.031 m 108.004 93.512 107.949 90.871 105.582 88.824 c 105.457
 88.844 105.367 88.914 105.328 89.023 c 105.707 89.453 107.051 91.016 107.051
 94.031 c 107.051 97.027 105.707 98.605 105.328 99.02 c 105.367 99.145 105.438
 99.219 105.582 99.219 c 106.926 98.051 108.004 96.148 108.004 94.031 c 
h
108.004 94.031 m f
178.051 95.41 m 178.375 95.41 178.516 95.5 178.516 95.734 c 178.516 95.77
 178.516 95.805 178.516 95.824 c 178.5 96.109 l 178.48 96.148 178.5 96.199
 178.555 96.199 c 178.785 96.199 l 178.84 96.164 l 178.895 95.715 178.949
 95.41 178.984 95.195 c 179.02 94.961 179.109 94.621 179.234 94.172 c 179.199
 94.117 l 178.965 94.117 l 178.914 94.117 178.875 94.172 178.859 94.207 
c 178.77 94.496 l 178.68 94.82 178.516 94.98 178.141 94.98 c 176.758 94.98
 l 177.227 92.594 l 177.277 92.324 177.441 92.215 177.691 92.215 c 178.824
 92.215 l 179.629 92.215 179.754 92.664 179.844 93.453 c 180.152 93.383 
l 180.188 92.934 180.238 91.84 180.238 91.75 c 180.238 91.73 180.238 91.715
 180.223 91.715 c 180.008 91.75 179.953 91.77 179.703 91.77 c 176.938 91.77
 l 176.508 91.77 176.078 91.75 175.574 91.73 c 175.539 91.77 l 175.504 91.984
 l 175.484 92.02 175.484 92.074 175.574 92.074 c 175.879 92.09 l 176.219
 92.125 176.363 92.215 176.363 92.434 c 176.363 92.484 176.363 92.539 176.348
 92.594 c 175.25 98.211 l 175.199 98.535 175.035 98.695 174.57 98.73 c 174.281
 98.75 l 174.227 98.75 174.191 98.785 174.176 98.84 c 174.137 99.055 l 174.156
 99.07 l 174.66 99.07 175.109 99.055 175.52 99.055 c 175.969 99.055 176.398
 99.07 176.922 99.07 c 176.938 99.055 l 176.973 98.84 l 176.992 98.785 176.957
 98.75 176.902 98.75 c 176.633 98.73 l 176.273 98.695 176.113 98.605 176.113
 98.371 c 176.113 98.336 176.113 98.281 176.129 98.211 c 176.668 95.41 l
 h
178.051 95.41 m f
181.469 99.816 m 181.469 97.07 l 181.469 96.605 181.469 96.121 181.488 
96.012 c 181.488 95.977 181.469 95.977 181.453 95.977 c 181.004 96.246 180.59
 96.441 179.891 96.766 c 179.91 96.855 179.945 96.926 180.016 96.98 c 180.375
 96.836 180.555 96.785 180.699 96.785 c 180.824 96.785 180.859 96.965 180.859
 97.234 c 180.859 99.816 l 180.859 100.48 180.645 100.516 180.09 100.535
 c 180.051 100.59 180.051 100.75 180.09 100.805 c 180.484 100.785 180.754
 100.785 181.199 100.785 c 181.559 100.785 181.758 100.785 182.152 100.805
 c 182.207 100.75 182.207 100.59 182.152 100.535 c 181.613 100.516 181.469
 100.48 181.469 99.816 c h
181.469 99.816 m f
41.77 95.543 m 42.09 95.543 42.234 95.633 42.234 95.867 c 42.234 95.902
 42.234 95.941 42.234 95.957 c 42.215 96.246 l 42.199 96.281 42.215 96.336
 42.27 96.336 c 42.504 96.336 l 42.559 96.297 l 42.609 95.852 42.664 95.543
 42.699 95.328 c 42.738 95.098 42.828 94.754 42.953 94.305 c 42.918 94.254
 l 42.684 94.254 l 42.629 94.254 42.594 94.305 42.574 94.344 c 42.484 94.629
 l 42.395 94.953 42.234 95.113 41.859 95.113 c 40.477 95.113 l 40.941 92.727
 l 40.996 92.457 41.156 92.352 41.41 92.352 c 42.539 92.352 l 43.348 92.352
 43.473 92.801 43.562 93.59 c 43.867 93.516 l 43.902 93.066 43.957 91.973
 43.957 91.883 c 43.957 91.867 43.957 91.848 43.938 91.848 c 43.723 91.883
 43.672 91.902 43.418 91.902 c 40.656 91.902 l 40.223 91.902 39.793 91.883
 39.293 91.867 c 39.254 91.902 l 39.219 92.117 l 39.203 92.152 39.203 92.207
 39.293 92.207 c 39.598 92.227 l 39.938 92.262 40.082 92.352 40.082 92.566
 c 40.082 92.621 40.082 92.672 40.062 92.727 c 38.969 98.344 l 38.914 98.668
 38.754 98.828 38.285 98.863 c 38 98.883 l 37.945 98.883 37.91 98.918 37.891
 98.973 c 37.855 99.188 l 37.875 99.207 l 38.375 99.207 38.824 99.188 39.238
 99.188 c 39.688 99.188 40.117 99.207 40.637 99.207 c 40.656 99.188 l 40.691
 98.973 l 40.707 98.918 40.672 98.883 40.621 98.883 c 40.352 98.863 l 39.992
 98.828 39.828 98.738 39.828 98.504 c 39.828 98.469 39.828 98.418 39.848
 98.344 c 40.387 95.543 l h
41.77 95.543 m f
43.391 97.223 m 43.391 97.383 43.535 97.527 43.715 97.527 c 43.84 97.527
 44.074 97.383 44.074 97.203 c 44.074 97.152 44.055 97.098 44.055 97.043
 c 44.039 96.988 43.984 96.918 43.984 96.848 c 43.984 96.648 44.184 96.363
 44.773 96.363 c 45.062 96.363 45.457 96.559 45.457 97.332 c 45.457 97.832
 45.277 98.246 44.809 98.711 c 44.219 99.305 l 43.445 100.094 43.32 100.473
 43.32 100.938 c 43.32 100.938 43.715 100.918 43.984 100.918 c 45.367 100.918
 l 45.617 100.918 45.977 100.938 45.977 100.938 c 46.086 100.523 46.156 
99.914 46.176 99.68 c 46.121 99.645 46.012 99.629 45.941 99.645 c 45.797
 100.203 45.672 100.398 45.383 100.398 c 43.984 100.398 l 43.984 100.023
 44.523 99.484 44.559 99.449 c 45.367 98.676 l 45.816 98.246 46.156 97.906
 46.156 97.293 c 46.156 96.434 45.457 96.094 44.809 96.094 c 43.93 96.094
 43.391 96.738 43.391 97.223 c h
43.391 97.223 m f
0.5 w
[ 1 2] 0 d
q 1 0 0 1 0 0 cm
161.367 43.785 m 171.156 55.855 176.496 70.922 176.496 86.457 c S Q
Q Q
showpage
%%Trailer
end
%%EOF
