%!PS-Adobe-3.0 EPSF-3.0
%%Creator: cairo 1.16.0 (https://cairographics.org)
%%CreationDate: Thu Aug 29 06:25:44 2019
%%Pages: 1
%%DocumentData: Clean7Bit
%%LanguageLevel: 2
%%BoundingBox: 12 55 294 261
%%EndComments
%%BeginProlog
50 dict begin
/q { gsave } bind def
/Q { grestore } bind def
/cm { 6 array astore concat } bind def
/w { setlinewidth } bind def
/J { setlinecap } bind def
/j { setlinejoin } bind def
/M { setmiterlimit } bind def
/d { setdash } bind def
/m { moveto } bind def
/l { lineto } bind def
/c { curveto } bind def
/h { closepath } bind def
/re { exch dup neg 3 1 roll 5 3 roll moveto 0 rlineto
      0 exch rlineto 0 rlineto closepath } bind def
/S { stroke } bind def
/f { fill } bind def
/f* { eofill } bind def
/n { newpath } bind def
/W { clip } bind def
/W* { eoclip } bind def
/BT { } bind def
/ET { } bind def
/BDC { mark 3 1 roll /BDC pdfmark } bind def
/EMC { mark /EMC pdfmark } bind def
/cairo_store_point { /cairo_point_y exch def /cairo_point_x exch def } def
/Tj { show currentpoint cairo_store_point } bind def
/TJ {
  {
    dup
    type /stringtype eq
    { show } { -0.001 mul 0 cairo_font_matrix dtransform rmoveto } ifelse
  } forall
  currentpoint cairo_store_point
} bind def
/cairo_selectfont { cairo_font_matrix aload pop pop pop 0 0 6 array astore
    cairo_font exch selectfont cairo_point_x cairo_point_y moveto } bind def
/Tf { pop /cairo_font exch def /cairo_font_matrix where
      { pop cairo_selectfont } if } bind def
/Td { matrix translate cairo_font_matrix matrix concatmatrix dup
      /cairo_font_matrix exch def dup 4 get exch 5 get cairo_store_point
      /cairo_font where { pop cairo_selectfont } if } bind def
/Tm { 2 copy 8 2 roll 6 array astore /cairo_font_matrix exch def
      cairo_store_point /cairo_font where { pop cairo_selectfont } if } bind def
/g { setgray } bind def
/rg { setrgbcolor } bind def
/d1 { setcachedevice } bind def
/cairo_data_source {
  CairoDataIndex CairoData length lt
    { CairoData CairoDataIndex get /CairoDataIndex CairoDataIndex 1 add def }
    { () } ifelse
} def
/cairo_flush_ascii85_file { cairo_ascii85_file status { cairo_ascii85_file flushfile } if } def
/cairo_image { image cairo_flush_ascii85_file } def
/cairo_imagemask { imagemask cairo_flush_ascii85_file } def
%%EndProlog
%%BeginSetup
%%EndSetup
%%Page: 1 1
%%BeginPageSetup
%%PageBoundingBox: 12 55 294 261
%%EndPageSetup
q 12 55 282 206 rectclip
1 0 0 -1 0 300 cm q
0 g
1 w
0 J
0 j
[] 0.0 d
4 M q 1 0 0 1 0 0 cm
271.039 150 m 271.039 183.73 216.848 211.074 150 211.074 c 83.152 211.074
 28.961 183.73 28.961 150 c 28.961 116.27 83.152 88.926 150 88.926 c 216.848
 88.926 271.039 116.27 271.039 150 c h
271.039 150 m S Q
286.309 115.223 m 286.535 114.117 286.734 113.438 286.734 113.438 c 286.734
 113.324 286.68 113.266 286.535 113.266 c 286.082 113.438 284.863 113.664
 284.156 113.691 c 284.098 114.117 l 284.098 114.172 284.129 114.203 284.184
 114.203 c 284.723 114.23 l 284.949 114.23 285.062 114.344 285.062 114.711
 c 285.062 114.883 285.035 115.164 284.949 115.535 c 283.219 123.273 l 282.965
 124.32 283.418 125.23 284.949 125.23 c 285.461 125.23 286.113 125.004 286.707
 124.605 c 288.238 123.555 289.797 121.402 289.797 119.645 c 289.797 118.512
 289.57 117.633 288.039 117.633 c 286.875 117.633 286 118.711 285.402 119.391
 c 285.375 119.391 l h
288.406 119.984 m 288.406 122.422 286.309 124.633 285.035 124.633 c 284.41
 124.633 284.297 123.98 284.582 122.82 c 285.148 120.41 l 285.941 119.473
 286.707 118.426 287.527 118.426 c 288.039 118.426 288.406 118.824 288.406
 119.984 c h
288.406 119.984 m f
104.051 58.938 m 103.598 58.879 103.398 58.824 102.719 58.824 c 100.906
 58.824 98.438 61.488 98.438 64.152 c 98.438 65.09 98.664 66.422 100.082
 66.422 c 100.988 66.422 101.926 65.484 102.945 63.984 c 102.973 64.012 
l 102.746 64.719 l 102.633 65.117 102.605 65.457 102.605 65.656 c 102.605
 65.969 102.719 66.422 103.285 66.422 c 104.336 66.422 105.016 65.742 105.441
 64.777 c 105.355 64.637 105.27 64.523 105.07 64.523 c 104.59 65.145 104.277
 65.398 104.109 65.398 c 104.051 65.398 103.91 65.371 103.91 65.172 c 103.91
 65.004 104.023 64.551 104.078 64.211 c 105.242 58.965 l 104.844 58.965 
104.391 59.023 104.051 58.938 c h
103.23 62.539 m 102.379 64.066 101.074 65.484 100.535 65.484 c 99.969 65.484
 99.801 64.805 99.801 63.871 c 99.801 62.082 101.215 59.363 102.746 59.363
 c 103.117 59.363 103.484 59.477 103.797 59.676 c 103.797 59.676 103.625
 61.461 103.23 62.539 c h
103.23 62.539 m f
0.75 w
q 1 0 0 1 0 0 cm
30.773 69.691 m 149.102 69.691 l S Q
38.273 69.691 m 41.273 66.691 l 30.773 69.691 l 41.273 72.691 l h
38.273 69.691 m f*
0.8 w
q 1 0 0 1 0 0 cm
38.273 69.691 m 41.273 66.691 l 30.773 69.691 l 41.273 72.691 l h
38.273 69.691 m S Q
141.602 69.691 m 138.602 72.691 l 149.102 69.691 l 138.602 66.691 l h
141.602 69.691 m f*
q -1 0 0 -1 0 0 cm
-141.602 -69.691 m -138.602 -72.691 l -149.102 -69.691 l -138.602 -66.691
 l h
-141.602 -69.691 m S Q
0.75 w
q 1 0 0 1 0 0 cm
279.145 90.812 m 279.145 148.172 l S Q
279.145 98.312 m 282.145 101.312 l 279.145 90.812 l 276.145 101.312 l h
279.145 98.312 m f*
0.8 w
q 0 1 -1 0 0 0 cm
98.313 -279.145 m 101.313 -282.145 l 90.813 -279.145 l 101.313 -276.145
 l h
98.313 -279.145 m S Q
279.145 140.672 m 276.145 137.672 l 279.145 148.172 l 282.145 137.672 l
 h
279.145 140.672 m f*
q 0 -1 1 0 0 0 cm
-140.672 279.145 m -137.672 276.145 l -148.172 279.145 l -137.672 282.145
 l h
-140.672 279.145 m S Q
153.684 160.781 m 153.684 161.574 153.77 165.742 157.508 169 c 157.68 168.945
 157.82 168.832 157.879 168.691 c 157.281 168.008 155.184 165.516 155.184
 160.781 c 155.184 156.02 157.312 153.555 157.879 152.902 c 157.82 152.703
 157.707 152.59 157.508 152.562 c 155.355 154.402 153.684 157.406 153.684
 160.781 c h
153.684 160.781 m f
161.555 164.012 m 162.262 161.035 l 163.398 159.535 164.586 158.484 165.211
 158.484 c 165.609 158.484 165.863 158.598 165.863 159.137 c 165.863 159.391
 165.809 159.734 165.664 160.355 c 164.984 163.246 l 164.844 163.812 164.672
 164.551 164.672 164.891 c 164.672 165.23 164.871 165.488 165.41 165.488
 c 166.289 165.488 167.109 164.891 167.934 163.812 c 167.875 163.645 167.762
 163.504 167.508 163.504 c 167.055 164.043 166.516 164.41 166.344 164.41
 c 166.203 164.41 166.148 164.324 166.148 164.098 c 166.148 163.957 166.262
 163.559 166.344 163.078 c 167.055 160.215 l 167.195 159.59 167.281 159.164
 167.281 158.855 c 167.281 157.777 166.801 157.406 166.09 157.406 c 165.156
 157.406 164.191 157.777 162.547 159.703 c 163.652 154.801 l 163.906 153.668
 164.105 152.902 164.105 152.902 c 164.105 152.789 164.051 152.73 163.879
 152.73 c 163.398 152.902 162.094 153.156 161.355 153.211 c 161.301 153.637
 l 161.301 153.695 161.328 153.723 161.414 153.723 c 161.953 153.75 l 162.207
 153.75 162.348 153.863 162.348 154.262 c 162.348 154.461 162.293 154.801
 162.207 155.168 c 160.223 164.012 l 160.164 164.383 160.023 164.836 160.023
 165.004 c 160.023 165.316 160.164 165.488 160.762 165.488 c 161.441 165.488
 161.414 164.691 161.555 164.012 c h
161.555 164.012 m f
171.316 163.617 m 170.75 163.617 170.355 163.984 170.355 164.496 c 170.355
 165.062 170.836 165.23 171.148 165.289 c 171.516 165.316 171.801 165.43
 171.801 165.828 c 171.801 166.223 171.148 167.047 170.211 167.273 c 170.211
 167.473 170.27 167.586 170.383 167.727 c 171.461 167.527 172.508 166.648
 172.508 165.402 c 172.508 164.297 172.055 163.617 171.316 163.617 c h
171.316 163.617 m f
178.762 164.012 m 178.676 164.383 178.535 164.836 178.535 165.004 c 178.535
 165.316 178.703 165.488 179.273 165.488 c 179.98 165.488 179.98 164.691
 180.094 164.012 c 180.773 161.094 l 180.914 161.035 181.027 161.035 181.172
 161.035 c 181.312 161.035 181.426 161.18 181.512 161.32 c 181.852 161.914
 182.051 162.824 182.391 163.645 c 182.984 164.949 183.438 165.488 184.176
 165.488 c 184.801 165.488 185.422 164.949 186.02 163.93 c 185.875 163.785
 185.82 163.699 185.621 163.699 c 185.254 164.211 184.883 164.551 184.688
 164.551 c 184.316 164.551 184.203 164.238 184.035 163.871 c 183.523 162.879
 183.297 162.172 183.043 161.688 c 182.758 161.121 182.645 160.867 182.051
 160.695 c 182.051 160.641 l 182.984 159.789 l 183.863 158.996 184.344 158.684
 184.715 158.684 c 185.168 158.684 185.109 158.938 185.707 158.938 c 185.961
 158.938 186.559 158.598 186.559 158.031 c 186.559 157.523 186.16 157.406
 185.68 157.406 c 185.082 157.406 183.977 158.09 182.703 159.25 c 181.965
 159.875 l 181.652 160.129 181.285 160.414 180.914 160.414 c 182.191 154.801
 l 182.477 153.637 182.645 152.902 182.645 152.902 c 182.645 152.789 182.59
 152.73 182.445 152.73 c 181.965 152.902 180.66 153.156 179.922 153.211 
c 179.867 153.637 l 179.867 153.695 179.867 153.723 179.953 153.723 c 180.52
 153.75 l 180.746 153.75 180.887 153.863 180.887 154.262 c 180.887 154.461
 180.859 154.773 180.773 155.168 c h
178.762 164.012 m f
192.805 160.781 m 192.805 159.961 192.719 155.793 188.977 152.562 c 188.781
 152.59 188.637 152.703 188.582 152.871 c 189.176 153.555 191.301 156.02
 191.301 160.781 c 191.301 165.516 189.176 168.008 188.582 168.66 c 188.637
 168.859 188.75 168.973 188.977 168.973 c 191.105 167.133 192.805 164.125
 192.805 160.781 c h
192.805 160.781 m f
0.75 w
[ 6 1.5 0.75 1.5] 0 d
q 1 0 0 1 0 0 cm
150 55.336 m 150 244.664 l S Q
[ 6 1.5 0.75 1.5] 0 d
q 1 0 0 1 0 0 cm
287.004 150 m 12.996 150 l S Q
158.969 52.754 m 159.309 52.215 161.379 49.039 161.859 47.906 c 162.117
 47.309 162.312 46.688 162.312 46.09 c 162.312 45.609 162.086 45.27 161.434
 45.27 c 160.926 45.27 160.613 45.496 160.613 45.895 c 160.613 46.035 160.672
 46.176 160.727 46.262 c 160.98 46.66 161.094 47 161.094 47.281 c 161.094
 48.047 160.387 49.324 159.793 50.23 c 159.793 50.23 158.914 51.648 158.488
 52.301 c 158.375 52.242 l 158.289 50.258 158.148 48.641 157.637 46.547 
c 157.41 45.637 157.184 45.27 156.758 45.27 c 156.363 45.27 155.113 45.977
 154.52 46.43 c 154.52 46.629 154.605 46.828 154.746 46.969 c 154.945 46.855
 155.512 46.574 155.852 46.574 c 156.051 46.574 156.219 46.629 156.305 46.773
 c 156.391 46.914 156.477 47.168 156.59 47.48 c 157.098 49.238 157.609 53.375
 157.41 53.801 c 156.73 54.965 156.02 55.699 155.766 55.699 c 155.598 55.699
 155.285 55.473 155.172 55.391 c 155.059 55.305 154.719 55.164 154.574 55.164
 c 154.207 55.164 153.781 55.504 153.781 56.012 c 153.781 56.578 154.547
 56.75 154.832 56.75 c 155.738 56.75 157.07 55.645 158.203 53.945 c h
158.969 52.754 m f
165.586 40.07 m 165.473 39.984 165.359 39.957 165.219 39.957 c 165.16 39.957
 l 164.961 39.984 164.82 40.043 164.793 40.211 c 163.688 42.68 l 163.688
 42.707 163.688 42.734 163.688 42.734 c 163.688 42.82 163.715 42.875 163.773
 42.934 c 163.828 42.934 163.887 42.961 163.914 42.961 c 163.969 42.961 
164.027 42.934 164.055 42.906 c 165.785 40.863 l 165.871 40.777 165.871 
40.664 165.871 40.582 c 165.871 40.383 165.785 40.184 165.586 40.07 c h
165.586 40.07 m f
283.93 158.922 m 284.527 160.594 l 282.938 162.949 l 282.738 163.23 282.57
 163.262 282.457 163.262 c 282.316 163.262 282.117 163.23 282.004 163.176
 c 281.832 163.09 281.664 163.062 281.492 163.062 c 281.125 163.062 280.84
 163.344 280.84 163.715 c 280.84 164.168 281.438 164.367 281.832 164.367
 c 282.43 164.367 282.824 164.109 283.59 163.035 c 284.754 161.332 l 285.434
 163.402 l 285.633 164.082 285.828 164.367 286.398 164.367 c 286.992 164.367
 287.758 164.055 288.27 163.148 c 288.211 163.004 288.07 162.863 287.871
 162.836 c 287.418 163.402 287.191 163.516 287.02 163.516 c 286.852 163.516
 286.738 163.316 286.594 162.891 c 285.688 160.141 l 286.992 158.242 l 287.246
 157.848 287.672 157.762 287.785 157.762 c 287.926 157.762 288.152 157.816
 288.297 157.93 c 288.41 158.043 288.691 158.102 288.863 158.102 c 289.09
 158.102 289.402 157.762 289.402 157.363 c 289.402 156.938 288.949 156.684
 288.551 156.684 c 287.699 156.684 287.133 156.996 286.285 158.188 c 285.434
 159.434 l 284.949 157.93 l 284.668 157.023 284.496 156.684 284.043 156.684
 c 283.648 156.684 282.398 157.422 281.805 157.848 c 281.805 158.043 281.891
 158.242 282.031 158.383 c 282.23 158.27 282.797 158.016 283.137 158.016
 c 283.363 158.016 283.535 158.074 283.617 158.188 c 283.703 158.328 283.789
 158.613 283.93 158.922 c h
283.93 158.922 m f
292.895 151.484 m 292.781 151.398 292.668 151.371 292.555 151.371 c 292.469
 151.371 l 292.273 151.371 292.16 151.453 292.102 151.598 c 290.996 154.09
 l 290.996 154.121 290.996 154.148 290.996 154.148 c 290.996 154.234 291.023
 154.289 291.082 154.348 c 291.137 154.348 291.195 154.375 291.223 154.375
 c 291.281 154.375 291.336 154.348 291.363 154.316 c 293.094 152.25 l 293.18
 152.164 293.18 152.078 293.18 151.992 c 293.18 151.766 293.094 151.598 
292.895 151.484 c h
292.895 151.484 m f
[] 0.0 d
q 1 0 0 1 0 0 cm
28.961 138.938 m 28.961 59.625 l S Q
q 1 0 0 1 0 0 cm
177.375 88.926 m 289.5 88.926 l S Q
Q Q
showpage
%%Trailer
end
%%EOF
