%!PS-Adobe-3.0 EPSF-3.0
%%Creator: cairo 1.16.0 (https://cairographics.org)
%%CreationDate: Tue Sep 10 21:41:36 2019
%%Pages: 1
%%DocumentData: Clean7Bit
%%LanguageLevel: 2
%%BoundingBox: 3 13 284 286
%%EndComments
%%BeginProlog
50 dict begin
/q { gsave } bind def
/Q { grestore } bind def
/cm { 6 array astore concat } bind def
/w { setlinewidth } bind def
/J { setlinecap } bind def
/j { setlinejoin } bind def
/M { setmiterlimit } bind def
/d { setdash } bind def
/m { moveto } bind def
/l { lineto } bind def
/c { curveto } bind def
/h { closepath } bind def
/re { exch dup neg 3 1 roll 5 3 roll moveto 0 rlineto
      0 exch rlineto 0 rlineto closepath } bind def
/S { stroke } bind def
/f { fill } bind def
/f* { eofill } bind def
/n { newpath } bind def
/W { clip } bind def
/W* { eoclip } bind def
/BT { } bind def
/ET { } bind def
/BDC { mark 3 1 roll /BDC pdfmark } bind def
/EMC { mark /EMC pdfmark } bind def
/cairo_store_point { /cairo_point_y exch def /cairo_point_x exch def } def
/Tj { show currentpoint cairo_store_point } bind def
/TJ {
  {
    dup
    type /stringtype eq
    { show } { -0.001 mul 0 cairo_font_matrix dtransform rmoveto } ifelse
  } forall
  currentpoint cairo_store_point
} bind def
/cairo_selectfont { cairo_font_matrix aload pop pop pop 0 0 6 array astore
    cairo_font exch selectfont cairo_point_x cairo_point_y moveto } bind def
/Tf { pop /cairo_font exch def /cairo_font_matrix where
      { pop cairo_selectfont } if } bind def
/Td { matrix translate cairo_font_matrix matrix concatmatrix dup
      /cairo_font_matrix exch def dup 4 get exch 5 get cairo_store_point
      /cairo_font where { pop cairo_selectfont } if } bind def
/Tm { 2 copy 8 2 roll 6 array astore /cairo_font_matrix exch def
      cairo_store_point /cairo_font where { pop cairo_selectfont } if } bind def
/g { setgray } bind def
/rg { setrgbcolor } bind def
/d1 { setcachedevice } bind def
/cairo_data_source {
  CairoDataIndex CairoData length lt
    { CairoData CairoDataIndex get /CairoDataIndex CairoDataIndex 1 add def }
    { () } ifelse
} def
/cairo_flush_ascii85_file { cairo_ascii85_file status { cairo_ascii85_file flushfile } if } def
/cairo_image { image cairo_flush_ascii85_file } def
/cairo_imagemask { imagemask cairo_flush_ascii85_file } def
%%EndProlog
%%BeginSetup
%%EndSetup
%%Page: 1 1
%%BeginPageSetup
%%PageBoundingBox: 3 13 284 286
%%EndPageSetup
q 3 13 281 273 rectclip
1 0 0 -1 0 300 cm q
0 g
0.75 w
0 J
0 j
[] 0.0 d
4 M q 1 0 0 1 0 0 cm
25.715 16.07 m 25.715 285 l S Q
25.715 23.57 m 28.715 26.57 l 25.715 16.07 l 22.715 26.57 l h
25.715 23.57 m f*
0.8 w
q 0 1 -1 0 0 0 cm
23.57 -25.715 m 26.57 -28.715 l 16.07 -25.715 l 26.57 -22.715 l h
23.57 -25.715 m S Q
25.715 277.5 m 22.715 274.5 l 25.715 285 l 28.715 274.5 l h
25.715 277.5 m f*
q 0 -1 1 0 0 0 cm
-277.5 25.715 m -274.5 22.715 l -285 25.715 l -274.5 28.715 l h
-277.5 25.715 m S Q
0.75 w
q 1 0 0 1 0 0 cm
4.82 249.105 m 281.785 249.105 l S Q
12.32 249.105 m 15.32 246.105 l 4.82 249.105 l 15.32 252.105 l h
12.32 249.105 m f*
0.8 w
q 1 0 0 1 0 0 cm
12.32 249.105 m 15.32 246.105 l 4.82 249.105 l 15.32 252.105 l h
12.32 249.105 m S Q
274.285 249.105 m 271.285 252.105 l 281.785 249.105 l 271.285 246.105 l
 h
274.285 249.105 m f*
q -1 0 0 -1 0 0 cm
-274.285 -249.105 m -271.285 -252.105 l -281.785 -249.105 l -271.285 -246.105
 l h
-274.285 -249.105 m S Q
2 w
1 j
q 1 0 0 1 0 0 cm
134.195 163.93 m 134.195 190.703 112.492 212.41 85.715 212.41 c 58.938 
212.41 37.23 190.703 37.23 163.93 c 37.23 137.152 58.938 115.445 85.715 
115.445 c 112.492 115.445 134.195 137.152 134.195 163.93 c h
134.195 163.93 m S Q
0.00784314 g
87.508 163.93 m 87.508 164.918 86.703 165.723 85.715 165.723 c 84.723 165.723
 83.922 164.918 83.922 163.93 c 83.922 162.938 84.723 162.137 85.715 162.137
 c 86.703 162.137 87.508 162.938 87.508 163.93 c h
87.508 163.93 m f
0 g
86.098 178.762 m 87.594 178.762 89.117 178.027 90.438 176.605 c 90.387 
176.453 90.309 176.352 90.133 176.352 c 88.785 177.621 87.645 178.105 86.199
 178.105 c 84.242 178.105 83.434 176.48 83.434 174.602 c 83.434 174.145 
83.48 173.688 83.582 173.23 c 84.242 169.957 86.68 168.613 87.898 168.613
 c 90.055 168.613 90.688 169.906 90.816 171.301 c 91.297 171.227 l 91.297
 170.391 91.348 169.602 91.426 168.738 c 90.562 168.688 90.105 168.004 88.203
 168.004 c 85.641 168.004 82.797 170.363 82.188 173.535 c 82.113 173.941
 82.062 174.348 82.062 174.73 c 82.062 176.887 83.281 178.762 86.098 178.762
 c h
86.098 178.762 m f
93.699 174.551 m 93.699 175.285 93.75 178.992 97.125 181.91 c 97.277 181.859
 97.406 181.758 97.457 181.633 c 96.922 181.023 95.047 178.789 95.047 174.551
 c 95.047 170.312 96.949 168.078 97.457 167.496 c 97.379 167.344 97.305 
167.242 97.125 167.219 c 95.199 168.867 93.699 171.555 93.699 174.551 c 
h
93.699 174.551 m f
100.746 177.445 m 101.379 174.781 l 102.395 173.461 103.438 172.496 104.02
 172.496 c 104.352 172.496 104.578 172.598 104.578 173.105 c 104.578 173.332
 104.551 173.637 104.426 174.172 c 103.816 176.758 l 103.691 177.266 103.539
 177.926 103.539 178.23 c 103.539 178.535 103.715 178.762 104.199 178.762
 c 104.957 178.762 105.695 178.23 106.43 177.266 c 106.379 177.141 106.305
 177.012 106.074 177.012 c 105.645 177.496 105.188 177.801 105.008 177.801
 c 104.883 177.801 104.855 177.723 104.855 177.52 c 104.855 177.395 104.934
 177.039 105.035 176.605 c 105.645 174.043 l 105.77 173.484 105.848 173.105
 105.848 172.824 c 105.848 171.859 105.414 171.531 104.805 171.531 c 103.945
 171.531 103.105 171.887 101.633 173.613 c 102.625 169.223 l 102.852 168.18
 103.031 167.523 103.031 167.523 c 103.031 167.422 102.98 167.371 102.828
 167.371 c 102.395 167.523 101.227 167.723 100.57 167.773 c 100.52 168.18
 l 100.52 168.207 100.543 168.258 100.594 168.258 c 101.102 168.281 l 101.305
 168.281 101.43 168.383 101.43 168.738 c 101.43 168.918 101.406 169.195 
101.328 169.527 c 99.555 177.445 l 99.504 177.773 99.375 178.18 99.375 178.332
 c 99.375 178.609 99.504 178.762 100.035 178.762 c 100.645 178.762 100.621
 178.055 100.746 177.445 c h
100.746 177.445 m f
109.484 177.09 m 108.977 177.09 108.621 177.418 108.621 177.875 c 108.621
 178.383 109.051 178.535 109.332 178.586 c 109.637 178.609 109.914 178.711
 109.914 179.066 c 109.914 179.422 109.332 180.16 108.492 180.363 c 108.492
 180.539 108.543 180.641 108.645 180.742 c 109.609 180.566 110.551 179.805
 110.551 178.688 c 110.551 177.699 110.117 177.09 109.484 177.09 c h
109.484 177.09 m f
116.145 177.445 m 116.07 177.773 115.941 178.18 115.941 178.332 c 115.941
 178.609 116.094 178.762 116.602 178.762 c 117.211 178.762 117.211 178.055
 117.34 177.445 c 117.922 174.828 l 118.047 174.805 118.176 174.805 118.277
 174.805 c 118.402 174.805 118.531 174.906 118.605 175.059 c 118.887 175.566
 119.062 176.379 119.395 177.113 c 119.926 178.281 120.332 178.762 120.992
 178.762 c 121.551 178.762 122.109 178.281 122.617 177.367 c 122.516 177.242
 122.438 177.164 122.262 177.164 c 121.93 177.621 121.602 177.926 121.426
 177.926 c 121.094 177.926 121.02 177.672 120.84 177.316 c 120.41 176.43
 120.18 175.82 119.953 175.363 c 119.699 174.855 119.598 174.629 119.062
 174.477 c 119.062 174.426 l 119.902 173.688 l 120.715 172.977 121.145 172.672
 121.449 172.672 c 121.879 172.672 121.805 172.902 122.363 172.902 c 122.59
 172.902 123.098 172.598 123.098 172.09 c 123.098 171.656 122.742 171.531
 122.312 171.531 c 121.805 171.531 120.816 172.141 119.648 173.18 c 119.012
 173.738 l 118.734 173.969 118.402 174.223 118.047 174.223 c 119.215 169.223
 l 119.469 168.18 119.621 167.523 119.621 167.523 c 119.621 167.422 119.57
 167.371 119.418 167.371 c 118.988 167.523 117.848 167.723 117.188 167.773
 c 117.137 168.18 l 117.137 168.207 117.137 168.258 117.211 168.258 c 117.695
 168.281 l 117.922 168.281 118.047 168.383 118.047 168.738 c 118.047 168.918
 118.023 169.195 117.922 169.527 c h
116.145 177.445 m f
128.691 174.551 m 128.691 173.816 128.641 170.109 125.289 167.191 c 125.113
 167.242 124.984 167.344 124.934 167.473 c 125.465 168.078 127.371 170.312
 127.371 174.551 c 127.371 178.789 125.465 181.023 124.934 181.582 c 124.984
 181.758 125.086 181.887 125.289 181.887 c 127.191 180.234 128.691 177.547
 128.691 174.551 c h
128.691 174.551 m f
0.00784314 g
109.484 120.715 m 109.484 121.703 108.684 122.508 107.691 122.508 c 106.699
 122.508 105.898 121.703 105.898 120.715 c 105.898 119.723 106.699 118.922
 107.691 118.922 c 108.684 118.922 109.484 119.723 109.484 120.715 c h
109.484 120.715 m f
0 g
0.75 w
0 j
[ 1.5 0.75] 0 d
q 1 0 0 1 0 0 cm
85.715 163.93 m 107.691 120.715 l S Q
87.074 161.254 m 86.418 159.238 l 85.375 164.598 l 89.09 160.598 l h
87.074 161.254 m f*
0.356542 w
[] 0.0 d
q 0.508559 -1 1 0.508559 0 0 cm
-92.935 134.337 m -91.599 133.002 l -96.279 134.338 l -91.6 135.674 l h
-92.935 134.337 m S Q
106.332 123.387 m 106.988 125.406 l 108.031 120.047 l 104.316 124.043 l
 h
106.332 123.387 m f*
q -0.508559 1 -1 -0.508559 0 0 cm
55.068 -134.337 m 56.408 -135.675 l 51.728 -134.338 l 56.404 -133.001 l
 h
55.068 -134.337 m S Q
89.375 137.512 m 89.477 136.977 l 89.629 136.395 89.758 135.887 89.758 
135.633 c 89.758 135.379 89.629 135.227 89.426 135.227 c 88.945 135.227 
88.336 135.328 87.625 135.43 c 87.5 135.559 87.551 135.711 87.625 135.863
 c 88.234 135.887 l 88.414 135.914 88.516 136.039 88.516 136.191 c 88.516
 136.344 88.516 136.547 88.414 136.977 c 87.551 140.734 l 87.5 141.062 87.371
 141.316 87.371 141.57 c 87.371 141.824 87.5 141.977 87.957 141.977 c 88.488
 141.977 88.488 141.316 88.641 140.734 c 89.074 138.957 l 89.809 137.664
 90.645 136.242 91 136.242 c 91.152 136.242 91.23 136.32 91.332 136.422 
c 91.434 136.547 91.637 136.75 91.84 136.75 c 92.246 136.75 92.523 136.293
 92.523 135.887 c 92.523 135.582 92.297 135.176 91.738 135.176 c 90.977 
135.176 90.086 136.117 89.426 137.535 c h
89.375 137.512 m f
41.305 23.266 m 41.656 22.684 43.922 19.254 44.414 18.035 c 44.707 17.395
 44.938 16.727 44.938 16.059 c 44.938 15.535 44.676 15.188 43.98 15.188 
c 43.426 15.188 43.109 15.418 43.109 15.883 c 43.109 16 43.137 16.176 43.223
 16.262 c 43.484 16.668 43.602 17.074 43.602 17.367 c 43.602 18.18 42.848
 19.547 42.207 20.535 c 42.207 20.535 41.277 22.074 40.785 22.77 c 40.668
 22.711 l 40.551 20.562 40.434 18.82 39.883 16.551 c 39.621 15.562 39.387
 15.188 38.922 15.188 c 38.488 15.188 37.152 15.973 36.512 16.438 c 36.512
 16.641 36.598 16.871 36.742 17.016 c 36.949 16.902 37.559 16.609 37.934
 16.609 c 38.168 16.609 38.371 16.668 38.457 16.812 c 38.547 16.957 38.633
 17.25 38.75 17.57 c 39.301 19.457 39.852 23.934 39.648 24.398 c 38.895 
25.648 38.109 26.461 37.848 26.461 c 37.676 26.461 37.324 26.199 37.207 
26.113 c 37.094 25.996 36.715 25.852 36.57 25.852 c 36.191 25.852 35.727
 26.23 35.727 26.809 c 35.727 27.391 36.539 27.566 36.859 27.566 c 37.82
 27.566 39.273 26.402 40.465 24.543 c h
41.305 23.266 m f
273.176 233.898 m 273.785 235.613 l 272.188 237.969 l 271.984 238.258 271.809
 238.316 271.695 238.316 c 271.547 238.316 271.375 238.289 271.23 238.203
 c 271.055 238.145 270.879 238.113 270.734 238.113 c 270.328 238.113 270.066
 238.375 270.066 238.754 c 270.066 239.219 270.676 239.422 271.055 239.422
 c 271.664 239.422 272.07 239.16 272.828 238.055 c 274.02 236.34 l 274.715
 238.461 l 274.918 239.133 275.094 239.422 275.703 239.422 c 276.285 239.422
 277.07 239.102 277.594 238.203 c 277.535 238.027 277.359 237.91 277.188
 237.852 c 276.723 238.434 276.52 238.578 276.312 238.578 c 276.168 238.578
 276.023 238.375 275.906 237.941 c 274.977 235.148 l 276.285 233.203 l 276.547
 232.797 276.984 232.738 277.098 232.738 c 277.246 232.738 277.449 232.797
 277.621 232.914 c 277.738 233 278 233.086 278.176 233.086 c 278.438 233.086
 278.727 232.738 278.727 232.332 c 278.727 231.895 278.262 231.633 277.883
 231.633 c 277.012 231.633 276.43 231.953 275.59 233.176 c 274.715 234.422
 l 274.223 232.883 l 273.93 231.984 273.758 231.633 273.32 231.633 c 272.914
 231.633 271.637 232.359 271.027 232.824 c 271.055 233 271.113 233.23 271.258
 233.348 c 271.461 233.262 272.043 232.969 272.391 232.969 c 272.594 232.969
 272.77 233.027 272.855 233.176 c 272.945 233.32 273.059 233.609 273.176
 233.898 c h
273.176 233.898 m f
0.00784314 g
230.277 182.145 m 230.277 183.133 229.473 183.938 228.48 183.938 c 227.492
 183.938 226.688 183.133 226.688 182.145 c 226.688 181.152 227.492 180.348
 228.48 180.348 c 229.473 180.348 230.277 181.152 230.277 182.145 c h
230.277 182.145 m f
0 g
0.75 w
q 1 0 0 1 0 0 cm
228.48 182.145 m 107.691 120.715 l S Q
q 1 0 0 1 0 0 cm
103.945 128.082 m 111.273 131.809 l 115.023 124.441 l S Q
235.188 168.551 m 235.266 168.121 235.469 167.84 236.508 167.84 c 237.371
 167.84 238.184 168.121 238.184 169.391 c 238.184 169.617 238.156 169.871
 238.105 170.176 c 237.801 171.824 236.887 172.484 235.469 172.484 c 235.086
 172.484 234.578 172.461 234.426 172.41 c h
232.5 176.215 m 232.422 176.648 232.168 176.824 231.559 176.875 c 231.18
 176.902 l 231.102 176.902 231.078 176.953 231.051 177.027 c 231 177.305
 l 231.027 177.332 l 231.559 177.332 232.297 177.305 232.906 177.305 c 233.488
 177.305 234.199 177.332 234.883 177.332 c 234.934 177.305 l 234.984 177.027
 l 235.012 176.953 234.961 176.902 234.883 176.902 c 234.352 176.875 l 233.867
 176.852 233.664 176.723 233.664 176.418 c 233.664 176.367 233.664 176.293
 233.691 176.215 c 234.352 172.867 l 234.656 172.969 234.91 173.02 235.441
 173.02 c 238.105 173.02 239.223 171.191 239.453 169.895 c 239.477 169.77
 239.504 169.594 239.504 169.414 c 239.504 168.5 238.996 167.332 236.734
 167.332 c 236.355 167.332 235.391 167.461 234.809 167.461 c 234.223 167.461
 233.488 167.461 232.957 167.434 c 232.906 167.461 l 232.828 167.789 l 232.828
 167.84 232.855 167.891 232.906 167.891 c 233.488 167.918 l 233.691 167.918
 233.996 168.043 233.996 168.426 c 233.996 168.449 233.996 168.5 233.996
 168.551 c h
232.5 176.215 m f
240.758 173.473 m 240.758 174.16 240.832 177.66 244.004 180.43 c 244.156
 180.379 244.285 180.277 244.309 180.148 c 243.828 179.59 242.023 177.484
 242.023 173.473 c 242.023 169.441 243.828 167.359 244.309 166.801 c 244.258
 166.648 244.156 166.547 244.004 166.52 c 242.176 168.07 240.758 170.633
 240.758 173.473 c h
240.758 173.473 m f
248.043 172.586 m 248.578 174.109 l 247.156 176.191 l 247.004 176.445 246.852
 176.496 246.75 176.496 c 246.625 176.496 246.445 176.445 246.32 176.395
 c 246.191 176.344 246.039 176.293 245.887 176.293 c 245.559 176.293 245.305
 176.547 245.305 176.875 c 245.305 177.281 245.836 177.457 246.191 177.457
 c 246.699 177.457 247.082 177.23 247.742 176.266 c 248.805 174.77 l 249.391
 176.598 l 249.566 177.203 249.746 177.457 250.254 177.457 c 250.785 177.457
 251.473 177.18 251.926 176.367 c 251.875 176.242 251.75 176.113 251.574
 176.09 c 251.168 176.598 250.988 176.723 250.812 176.723 c 250.684 176.723
 250.559 176.52 250.457 176.141 c 249.617 173.703 l 250.785 171.977 l 251.016
 171.621 251.395 171.57 251.496 171.57 c 251.621 171.57 251.824 171.621 
251.953 171.723 c 252.055 171.824 252.309 171.875 252.461 171.875 c 252.664
 171.875 252.941 171.57 252.941 171.215 c 252.941 170.836 252.535 170.605
 252.18 170.605 c 251.422 170.605 250.914 170.887 250.176 171.953 c 249.414
 173.043 l 248.984 171.699 l 248.73 170.91 248.551 170.605 248.172 170.605
 c 247.816 170.605 246.699 171.242 246.168 171.648 c 246.168 171.824 246.242
 172.004 246.371 172.129 c 246.547 172.027 247.055 171.773 247.359 171.773
 c 247.539 171.773 247.691 171.824 247.766 171.953 c 247.844 172.078 247.945
 172.332 248.043 172.586 c h
248.043 172.586 m f
256.074 165.953 m 255.973 165.875 255.871 165.852 255.746 165.852 c 255.695
 165.852 l 255.516 165.875 255.391 165.926 255.363 166.078 c 254.375 168.285
 l 254.375 168.312 254.375 168.336 254.375 168.336 c 254.375 168.414 254.398
 168.465 254.449 168.516 c 254.5 168.516 254.551 168.539 254.578 168.539
 c 254.629 168.539 254.68 168.516 254.703 168.488 c 256.254 166.664 l 256.328
 166.586 256.328 166.484 256.328 166.41 c 256.328 166.23 256.254 166.055
 256.074 165.953 c h
256.074 165.953 m f
258.523 175.859 m 258.043 175.859 257.711 176.191 257.711 176.598 c 257.711
 177.102 258.094 177.23 258.371 177.281 c 258.676 177.305 258.93 177.406
 258.93 177.738 c 258.93 178.066 258.371 178.777 257.586 178.98 c 257.586
 179.133 257.609 179.234 257.711 179.336 c 258.625 179.16 259.516 178.422
 259.516 177.355 c 259.516 176.445 259.133 175.859 258.523 175.859 c h
258.523 175.859 m f
268.852 177.305 m 269.152 176.824 271.008 173.98 271.438 172.969 c 271.668
 172.434 271.844 171.875 271.844 171.344 c 271.844 170.91 271.641 170.605
 271.059 170.605 c 270.602 170.605 270.32 170.809 270.32 171.164 c 270.32
 171.293 270.371 171.418 270.422 171.496 c 270.652 171.852 270.754 172.156
 270.754 172.41 c 270.754 173.094 270.117 174.234 269.586 175.047 c 269.586
 175.047 268.801 176.316 268.418 176.902 c 268.316 176.852 l 268.242 175.074
 268.113 173.625 267.656 171.75 c 267.453 170.938 267.25 170.605 266.871
 170.605 c 266.516 170.605 265.398 171.242 264.867 171.648 c 264.867 171.824
 264.941 172.004 265.07 172.129 c 265.246 172.027 265.754 171.773 266.059
 171.773 c 266.234 171.773 266.387 171.824 266.465 171.953 c 266.539 172.078
 266.617 172.309 266.719 172.586 c 267.176 174.16 267.633 177.863 267.453
 178.246 c 266.844 179.285 266.211 179.945 265.98 179.945 c 265.828 179.945
 265.551 179.742 265.449 179.668 c 265.348 179.59 265.043 179.465 264.918
 179.465 c 264.586 179.465 264.207 179.77 264.207 180.227 c 264.207 180.73
 264.891 180.883 265.145 180.883 c 265.957 180.883 267.148 179.895 268.164
 178.371 c h
268.852 177.305 m f
274.773 165.953 m 274.672 165.875 274.57 165.852 274.441 165.852 c 274.391
 165.852 l 274.215 165.875 274.09 165.926 274.062 166.078 c 273.074 168.285
 l 273.074 168.312 273.074 168.336 273.074 168.336 c 273.074 168.414 273.098
 168.465 273.148 168.516 c 273.199 168.516 273.25 168.539 273.277 168.539
 c 273.328 168.539 273.379 168.516 273.402 168.488 c 274.949 166.664 l 275.027
 166.586 275.027 166.484 275.027 166.41 c 275.027 166.23 274.949 166.055
 274.773 165.953 c h
274.773 165.953 m f
279.973 173.473 m 279.973 172.789 279.898 169.262 276.727 166.496 c 276.574
 166.547 276.445 166.648 276.422 166.773 c 276.902 167.359 278.707 169.441
 278.707 173.473 c 278.707 177.484 276.902 179.59 276.422 180.125 c 276.445
 180.301 276.547 180.402 276.727 180.402 c 278.555 178.855 279.973 176.293
 279.973 173.473 c h
279.973 173.473 m f
174.746 142.199 m 173.934 142.25 l 173.656 142.273 173.555 142.375 173.531
 142.504 c 173.504 142.555 173.453 142.73 173.453 142.758 c 173.453 142.809
 173.504 142.809 173.555 142.809 c 174.594 142.809 l 173.684 146.918 l 173.555
 147.402 173.48 147.859 173.48 148.16 c 173.48 148.695 173.758 148.848 174.215
 148.848 c 174.875 148.848 175.891 148.238 176.398 147.301 c 176.371 147.098
 176.246 146.996 176.066 146.996 c 175.383 147.781 175.102 147.934 174.875
 147.934 c 174.824 147.934 174.672 147.91 174.672 147.73 c 174.672 147.578
 174.723 147.301 174.824 146.766 c 175.738 142.809 l 177.211 142.809 l 177.387
 142.73 177.539 142.324 177.363 142.199 c 175.863 142.199 l 176.016 141.512
 l 176.066 141.258 176.219 140.801 176.219 140.625 c 176.219 140.371 176.094
 140.219 175.609 140.219 c 175.051 140.219 175.078 140.879 174.949 141.461
 c h
174.746 142.199 m f
111.246 106.727 m 110.84 106.727 110.535 106.574 110.18 106.523 c 109.977
 107.262 109.801 107.691 109.473 108.504 c 109.574 108.582 109.801 108.605
 109.926 108.605 c 110.359 107.617 110.738 107.312 111.551 107.312 c 112.594
 107.312 l 113.176 107.312 113.25 107.465 113.203 107.895 c 111.754 115.332
 l 111.68 115.738 111.449 115.965 110.816 116.016 c 110.359 116.066 l 110.281
 116.117 110.258 116.371 110.332 116.5 c 110.992 116.5 111.551 116.473 112.137
 116.473 c 112.719 116.473 113.402 116.5 114.062 116.5 c 114.113 116.449
 114.141 116.145 114.113 116.066 c 113.582 116.016 l 113 115.965 112.82 
115.789 112.922 115.332 c 114.367 107.945 l 114.469 107.438 114.672 107.312
 115.18 107.312 c 115.992 107.312 l 116.781 107.312 117.008 107.691 117.262
 108.707 c 117.414 108.707 117.539 108.707 117.719 108.633 c 117.539 107.77
 117.516 107.133 117.539 106.523 c 117.059 106.602 116.832 106.727 116.324
 106.727 c h
111.246 106.727 m f
Q Q
showpage
%%Trailer
end
%%EOF
