%!PS-Adobe-3.0 EPSF-3.0
%%Creator: cairo 1.16.0 (https://cairographics.org)
%%CreationDate: Thu Aug 29 07:02:06 2019
%%Pages: 1
%%DocumentData: Clean7Bit
%%LanguageLevel: 2
%%BoundingBox: 12 55 294 261
%%EndComments
%%BeginProlog
50 dict begin
/q { gsave } bind def
/Q { grestore } bind def
/cm { 6 array astore concat } bind def
/w { setlinewidth } bind def
/J { setlinecap } bind def
/j { setlinejoin } bind def
/M { setmiterlimit } bind def
/d { setdash } bind def
/m { moveto } bind def
/l { lineto } bind def
/c { curveto } bind def
/h { closepath } bind def
/re { exch dup neg 3 1 roll 5 3 roll moveto 0 rlineto
      0 exch rlineto 0 rlineto closepath } bind def
/S { stroke } bind def
/f { fill } bind def
/f* { eofill } bind def
/n { newpath } bind def
/W { clip } bind def
/W* { eoclip } bind def
/BT { } bind def
/ET { } bind def
/BDC { mark 3 1 roll /BDC pdfmark } bind def
/EMC { mark /EMC pdfmark } bind def
/cairo_store_point { /cairo_point_y exch def /cairo_point_x exch def } def
/Tj { show currentpoint cairo_store_point } bind def
/TJ {
  {
    dup
    type /stringtype eq
    { show } { -0.001 mul 0 cairo_font_matrix dtransform rmoveto } ifelse
  } forall
  currentpoint cairo_store_point
} bind def
/cairo_selectfont { cairo_font_matrix aload pop pop pop 0 0 6 array astore
    cairo_font exch selectfont cairo_point_x cairo_point_y moveto } bind def
/Tf { pop /cairo_font exch def /cairo_font_matrix where
      { pop cairo_selectfont } if } bind def
/Td { matrix translate cairo_font_matrix matrix concatmatrix dup
      /cairo_font_matrix exch def dup 4 get exch 5 get cairo_store_point
      /cairo_font where { pop cairo_selectfont } if } bind def
/Tm { 2 copy 8 2 roll 6 array astore /cairo_font_matrix exch def
      cairo_store_point /cairo_font where { pop cairo_selectfont } if } bind def
/g { setgray } bind def
/rg { setrgbcolor } bind def
/d1 { setcachedevice } bind def
/cairo_data_source {
  CairoDataIndex CairoData length lt
    { CairoData CairoDataIndex get /CairoDataIndex CairoDataIndex 1 add def }
    { () } ifelse
} def
/cairo_flush_ascii85_file { cairo_ascii85_file status { cairo_ascii85_file flushfile } if } def
/cairo_image { image cairo_flush_ascii85_file } def
/cairo_imagemask { imagemask cairo_flush_ascii85_file } def
%%EndProlog
%%BeginSetup
%%EndSetup
%%Page: 1 1
%%BeginPageSetup
%%PageBoundingBox: 12 55 294 261
%%EndPageSetup
q 12 55 282 206 rectclip
1 0 0 -1 0 300 cm q
0 g
1 w
0 J
0 j
[] 0.0 d
4 M q 1 0 0 1 0 0 cm
271.039 150 m 271.039 183.73 216.848 211.074 150 211.074 c 83.152 211.074
 28.961 183.73 28.961 150 c 28.961 116.27 83.152 88.926 150 88.926 c 216.848
 88.926 271.039 116.27 271.039 150 c h
271.039 150 m S Q
212.836 202.695 m 212.836 203.598 212.102 204.328 211.199 204.328 c 210.297
 204.328 209.562 203.598 209.562 202.695 c 209.562 201.789 210.297 201.059
 211.199 201.059 c 212.102 201.059 212.836 201.789 212.836 202.695 c h
212.836 202.695 m f
249.73 150 m 249.73 150.902 249 151.637 248.094 151.637 c 247.191 151.637
 246.457 150.902 246.457 150 c 246.457 149.098 247.191 148.363 248.094 148.363
 c 249 148.363 249.73 149.098 249.73 150 c h
249.73 150 m f
53.656 150 m 53.656 150.902 52.922 151.637 52.02 151.637 c 51.113 151.637
 50.383 150.902 50.383 150 c 50.383 149.098 51.113 148.363 52.02 148.363
 c 52.922 148.363 53.656 149.098 53.656 150 c h
53.656 150 m f
1 0 0 rg
0.75 w
q 1 0 0 1 0 0 cm
30.773 69.691 m 149.102 69.691 l S Q
38.273 69.691 m 41.273 66.691 l 30.773 69.691 l 41.273 72.691 l h
38.273 69.691 m f*
0.8 w
q 1 0 0 1 0 0 cm
38.273 69.691 m 41.273 66.691 l 30.773 69.691 l 41.273 72.691 l h
38.273 69.691 m S Q
141.602 69.691 m 138.602 72.691 l 149.102 69.691 l 138.602 66.691 l h
141.602 69.691 m f*
q -1 0 0 -1 0 0 cm
-141.602 -69.691 m -138.602 -72.691 l -149.102 -69.691 l -138.602 -66.691
 l h
-141.602 -69.691 m S Q
0 1 0 rg
0.75 w
q 1 0 0 1 0 0 cm
279.145 90.812 m 279.145 148.172 l S Q
279.145 98.312 m 282.145 101.312 l 279.145 90.812 l 276.145 101.312 l h
279.145 98.312 m f*
0.8 w
q 0 1 -1 0 0 0 cm
98.313 -279.145 m 101.313 -282.145 l 90.813 -279.145 l 101.313 -276.145
 l h
98.313 -279.145 m S Q
279.145 140.672 m 276.145 137.672 l 279.145 148.172 l 282.145 137.672 l
 h
279.145 140.672 m f*
q 0 -1 1 0 0 0 cm
-140.672 279.145 m -137.672 276.145 l -148.172 279.145 l -137.672 282.145
 l h
-140.672 279.145 m S Q
0 g
151.637 150 m 151.637 150.902 150.902 151.637 150 151.637 c 149.098 151.637
 148.363 150.902 148.363 150 c 148.363 149.098 149.098 148.363 150 148.363
 c 150.902 148.363 151.637 149.098 151.637 150 c h
151.637 150 m f
0.75 w
[ 6 1.5 0.75 1.5] 0 d
q 1 0 0 1 0 0 cm
150 55.336 m 150 244.664 l S Q
[ 6 1.5 0.75 1.5] 0 d
q 1 0 0 1 0 0 cm
287.004 150 m 12.996 150 l S Q
[] 0.0 d
q 1 0 0 1 0 0 cm
28.961 138.938 m 28.961 59.625 l S Q
q 1 0 0 1 0 0 cm
177.375 88.926 m 289.5 88.926 l S Q
q 1 0 0 1 0 0 cm
248.094 150 m 211.199 202.695 l S Q
q 1 0 0 1 0 0 cm
211.207 202.691 m 52.02 150 l S Q
0 0.392157 1 rg
1 w
1 J
q 1 0 0 1 0 0 cm
150 150 m 248.094 150 l S Q
1 0 0.168627 rg
q 1 0 0 1 0 0 cm
248.094 150 m 150 88.926 l S Q
0 g
254.262 139.938 m 254.773 139.938 255 140.078 255 140.449 c 255 140.504
 255 140.562 255 140.59 c 254.973 141.043 l 254.941 141.098 254.973 141.184
 255.055 141.184 c 255.426 141.184 l 255.512 141.129 l 255.594 140.418 255.68
 139.938 255.738 139.598 c 255.793 139.23 255.934 138.691 256.133 137.98
 c 256.078 137.895 l 255.707 137.895 l 255.625 137.895 255.566 137.98 255.539
 138.039 c 255.398 138.492 l 255.254 139 255 139.258 254.406 139.258 c 252.223
 139.258 l 252.957 135.488 l 253.043 135.062 253.301 134.891 253.695 134.891
 c 255.48 134.891 l 256.758 134.891 256.957 135.602 257.098 136.848 c 257.578
 136.734 l 257.637 136.027 257.723 134.297 257.723 134.156 c 257.723 134.125
 257.723 134.098 257.691 134.098 c 257.352 134.156 257.266 134.184 256.871
 134.184 c 252.504 134.184 l 251.824 134.184 251.145 134.156 250.352 134.125
 c 250.293 134.184 l 250.238 134.523 l 250.211 134.578 250.211 134.664 250.352
 134.664 c 250.832 134.691 l 251.371 134.75 251.598 134.891 251.598 135.23
 c 251.598 135.316 251.598 135.402 251.57 135.488 c 249.84 144.359 l 249.754
 144.871 249.5 145.125 248.762 145.18 c 248.309 145.211 l 248.227 145.211
 248.168 145.266 248.141 145.352 c 248.082 145.691 l 248.113 145.719 l 248.906
 145.719 249.613 145.691 250.266 145.691 c 250.973 145.691 251.656 145.719
 252.477 145.719 c 252.504 145.691 l 252.562 145.352 l 252.59 145.266 252.535
 145.211 252.449 145.211 c 252.023 145.18 l 251.457 145.125 251.203 144.984
 251.203 144.613 c 251.203 144.559 251.203 144.473 251.23 144.359 c 252.082
 139.938 l h
254.262 139.938 m f
256.828 142.59 m 256.828 142.844 257.055 143.07 257.34 143.07 c 257.539
 143.07 257.906 142.844 257.906 142.559 c 257.906 142.477 257.879 142.391
 257.879 142.305 c 257.852 142.219 257.766 142.105 257.766 141.992 c 257.766
 141.68 258.078 141.227 259.012 141.227 c 259.465 141.227 260.09 141.539
 260.09 142.758 c 260.09 143.551 259.805 144.203 259.07 144.941 c 258.133
 145.875 l 256.914 147.125 256.715 147.719 256.715 148.457 c 256.715 148.457
 257.34 148.426 257.766 148.426 c 259.949 148.426 l 260.344 148.426 260.91
 148.457 260.91 148.457 c 261.082 147.805 261.195 146.84 261.223 146.473
 c 261.137 146.414 260.969 146.387 260.855 146.414 c 260.629 147.293 260.43
 147.605 259.977 147.605 c 257.766 147.605 l 257.766 147.012 258.613 146.16
 258.672 146.102 c 259.949 144.883 l 260.656 144.203 261.195 143.664 261.195
 142.703 c 261.195 141.34 260.09 140.801 259.07 140.801 c 257.68 140.801
 256.828 141.824 256.828 142.59 c h
256.828 142.59 m f
42.973 139.297 m 43.484 139.297 43.711 139.438 43.711 139.809 c 43.711 
139.863 43.711 139.922 43.711 139.949 c 43.684 140.402 l 43.656 140.461 
43.684 140.543 43.77 140.543 c 44.137 140.543 l 44.223 140.488 l 44.305 
139.777 44.391 139.297 44.449 138.957 c 44.504 138.59 44.648 138.051 44.844
 137.34 c 44.789 137.258 l 44.422 137.258 l 44.336 137.258 44.277 137.34
 44.25 137.398 c 44.109 137.852 l 43.965 138.363 43.711 138.617 43.117 138.617
 c 40.934 138.617 l 41.672 134.848 l 41.754 134.422 42.012 134.25 42.406
 134.25 c 44.191 134.25 l 45.469 134.25 45.668 134.961 45.809 136.207 c 
46.289 136.094 l 46.348 135.387 46.434 133.656 46.434 133.516 c 46.434 133.484
 46.434 133.457 46.402 133.457 c 46.062 133.516 45.98 133.543 45.582 133.543
 c 41.219 133.543 l 40.535 133.543 39.855 133.516 39.062 133.484 c 39.004
 133.543 l 38.949 133.883 l 38.922 133.938 38.922 134.023 39.062 134.023
 c 39.543 134.055 l 40.082 134.109 40.309 134.25 40.309 134.59 c 40.309 
134.676 40.309 134.762 40.281 134.848 c 38.551 143.719 l 38.469 144.23 38.211
 144.484 37.477 144.539 c 37.023 144.57 l 36.938 144.57 36.879 144.625 36.852
 144.711 c 36.793 145.051 l 36.824 145.078 l 37.617 145.078 38.324 145.051
 38.977 145.051 c 39.688 145.051 40.367 145.078 41.188 145.078 c 41.219 
145.051 l 41.273 144.711 l 41.301 144.625 41.246 144.57 41.16 144.57 c 40.734
 144.539 l 40.168 144.484 39.914 144.344 39.914 143.973 c 39.914 143.918
 39.914 143.832 39.941 143.719 c 40.793 139.297 l h
42.973 139.297 m f
48.375 146.258 m 48.375 141.918 l 48.375 141.184 48.375 140.418 48.402 
140.246 c 48.402 140.191 48.375 140.191 48.348 140.191 c 47.637 140.617 
46.988 140.926 45.883 141.438 c 45.91 141.578 45.965 141.691 46.078 141.777
 c 46.645 141.551 46.93 141.465 47.156 141.465 c 47.355 141.465 47.41 141.75
 47.41 142.176 c 47.41 146.258 l 47.41 147.305 47.07 147.363 46.191 147.391
 c 46.137 147.477 46.137 147.73 46.191 147.816 c 46.816 147.785 47.242 147.785
 47.949 147.785 c 48.516 147.785 48.828 147.785 49.453 147.816 c 49.539 
147.73 49.539 147.477 49.453 147.391 c 48.602 147.363 48.375 147.305 48.375
 146.258 c h
48.375 146.258 m f
0 1 0.133333 rg
286.309 115.223 m 286.535 114.117 286.734 113.438 286.734 113.438 c 286.734
 113.324 286.68 113.266 286.535 113.266 c 286.082 113.438 284.863 113.664
 284.156 113.691 c 284.098 114.117 l 284.098 114.172 284.129 114.203 284.184
 114.203 c 284.723 114.23 l 284.949 114.23 285.062 114.344 285.062 114.711
 c 285.062 114.883 285.035 115.164 284.949 115.535 c 283.219 123.273 l 282.965
 124.32 283.418 125.23 284.949 125.23 c 285.461 125.23 286.113 125.004 286.707
 124.605 c 288.238 123.555 289.797 121.402 289.797 119.645 c 289.797 118.512
 289.57 117.633 288.039 117.633 c 286.875 117.633 286 118.711 285.402 119.391
 c 285.375 119.391 l h
288.406 119.984 m 288.406 122.422 286.309 124.633 285.035 124.633 c 284.41
 124.633 284.297 123.98 284.582 122.82 c 285.148 120.41 l 285.941 119.473
 286.707 118.426 287.527 118.426 c 288.039 118.426 288.406 118.824 288.406
 119.984 c h
288.406 119.984 m f
1 0 0 rg
94.301 57.438 m 93.848 57.379 93.648 57.324 92.969 57.324 c 91.156 57.324
 88.688 59.988 88.688 62.652 c 88.688 63.59 88.914 64.922 90.332 64.922 
c 91.238 64.922 92.176 63.984 93.195 62.484 c 93.223 62.512 l 92.996 63.219
 l 92.883 63.617 92.855 63.957 92.855 64.156 c 92.855 64.469 92.969 64.922
 93.535 64.922 c 94.586 64.922 95.266 64.242 95.691 63.277 c 95.605 63.137
 95.52 63.023 95.32 63.023 c 94.84 63.645 94.527 63.898 94.359 63.898 c 
94.301 63.898 94.16 63.871 94.16 63.672 c 94.16 63.504 94.273 63.051 94.328
 62.711 c 95.492 57.465 l 95.094 57.465 94.641 57.523 94.301 57.438 c h
93.48 61.039 m 92.629 62.566 91.324 63.984 90.785 63.984 c 90.219 63.984
 90.051 63.305 90.051 62.371 c 90.051 60.582 91.465 57.863 92.996 57.863
 c 93.367 57.863 93.734 57.977 94.047 58.176 c 94.047 58.176 93.875 59.961
 93.48 61.039 c h
93.48 61.039 m f
0 g
108.473 140.762 m 108.473 141.555 108.559 145.723 112.297 148.98 c 112.469
 148.926 112.609 148.812 112.668 148.672 c 112.07 147.988 109.973 145.496
 109.973 140.762 c 109.973 136 112.102 133.531 112.668 132.883 c 112.609
 132.684 112.496 132.57 112.297 132.539 c 110.145 134.383 108.473 137.387
 108.473 140.762 c h
108.473 140.762 m f
116.344 143.992 m 117.055 141.016 l 118.188 139.516 119.379 138.465 120
 138.465 c 120.398 138.465 120.652 138.578 120.652 139.117 c 120.652 139.371
 120.598 139.711 120.453 140.336 c 119.773 143.227 l 119.633 143.793 119.461
 144.531 119.461 144.871 c 119.461 145.211 119.66 145.469 120.199 145.469
 c 121.078 145.469 121.898 144.871 122.723 143.793 c 122.664 143.625 122.551
 143.484 122.297 143.484 c 121.844 144.02 121.305 144.391 121.133 144.391
 c 120.992 144.391 120.938 144.305 120.938 144.078 c 120.938 143.938 121.051
 143.539 121.133 143.059 c 121.844 140.195 l 121.984 139.57 122.07 139.145
 122.07 138.832 c 122.07 137.758 121.59 137.387 120.879 137.387 c 119.945
 137.387 118.98 137.758 117.336 139.684 c 118.441 134.781 l 118.695 133.645
 118.895 132.883 118.895 132.883 c 118.895 132.77 118.84 132.711 118.668
 132.711 c 118.188 132.883 116.883 133.137 116.145 133.191 c 116.09 133.617
 l 116.09 133.676 116.117 133.703 116.203 133.703 c 116.742 133.73 l 116.996
 133.73 117.137 133.844 117.137 134.242 c 117.137 134.441 117.082 134.781
 116.996 135.148 c 115.012 143.992 l 114.957 144.363 114.812 144.816 114.812
 144.984 c 114.812 145.297 114.957 145.469 115.551 145.469 c 116.23 145.469
 116.203 144.672 116.344 143.992 c h
116.344 143.992 m f
126.105 143.598 m 125.539 143.598 125.145 143.965 125.145 144.477 c 125.145
 145.043 125.625 145.211 125.938 145.27 c 126.305 145.297 126.59 145.41 
126.59 145.809 c 126.59 146.203 125.938 147.027 125 147.254 c 125 147.449
 125.059 147.566 125.172 147.707 c 126.25 147.508 127.297 146.629 127.297
 145.383 c 127.297 144.277 126.844 143.598 126.105 143.598 c h
126.105 143.598 m f
133.551 143.992 m 133.465 144.363 133.324 144.816 133.324 144.984 c 133.324
 145.297 133.492 145.469 134.062 145.469 c 134.77 145.469 134.77 144.672
 134.883 143.992 c 135.562 141.074 l 135.703 141.016 135.82 141.016 135.961
 141.016 c 136.102 141.016 136.215 141.16 136.301 141.301 c 136.641 141.895
 136.84 142.801 137.18 143.625 c 137.773 144.93 138.227 145.469 138.965 
145.469 c 139.59 145.469 140.211 144.93 140.809 143.906 c 140.664 143.766
 140.609 143.68 140.41 143.68 c 140.043 144.191 139.672 144.531 139.477 
144.531 c 139.105 144.531 138.992 144.219 138.824 143.852 c 138.312 142.859
 138.086 142.148 137.832 141.668 c 137.547 141.102 137.434 140.848 136.84
 140.676 c 136.84 140.621 l 137.773 139.77 l 138.652 138.977 139.137 138.664
 139.504 138.664 c 139.957 138.664 139.898 138.918 140.496 138.918 c 140.75
 138.918 141.348 138.578 141.348 138.012 c 141.348 137.5 140.949 137.387
 140.469 137.387 c 139.871 137.387 138.766 138.07 137.492 139.23 c 136.754
 139.855 l 136.441 140.109 136.074 140.395 135.703 140.395 c 136.98 134.781
 l 137.266 133.617 137.434 132.883 137.434 132.883 c 137.434 132.77 137.379
 132.711 137.234 132.711 c 136.754 132.883 135.449 133.137 134.715 133.191
 c 134.656 133.617 l 134.656 133.676 134.656 133.703 134.742 133.703 c 135.309
 133.73 l 135.535 133.73 135.676 133.844 135.676 134.242 c 135.676 134.441
 135.648 134.75 135.562 135.148 c h
133.551 143.992 m f
147.594 140.762 m 147.594 139.938 147.508 135.773 143.766 132.539 c 143.57
 132.57 143.426 132.684 143.371 132.852 c 143.965 133.531 146.09 136 146.09
 140.762 c 146.09 145.496 143.965 147.988 143.371 148.641 c 143.426 148.84
 143.539 148.953 143.766 148.953 c 145.895 147.109 147.594 144.105 147.594
 140.762 c h
147.594 140.762 m f
158.969 52.754 m 159.309 52.215 161.379 49.039 161.859 47.906 c 162.117
 47.309 162.312 46.688 162.312 46.09 c 162.312 45.609 162.086 45.27 161.434
 45.27 c 160.926 45.27 160.613 45.496 160.613 45.895 c 160.613 46.035 160.672
 46.176 160.727 46.262 c 160.98 46.66 161.094 47 161.094 47.281 c 161.094
 48.047 160.387 49.324 159.793 50.23 c 159.793 50.23 158.914 51.648 158.488
 52.301 c 158.375 52.242 l 158.289 50.258 158.148 48.641 157.637 46.547 
c 157.41 45.637 157.184 45.27 156.758 45.27 c 156.363 45.27 155.113 45.977
 154.52 46.43 c 154.52 46.629 154.605 46.828 154.746 46.969 c 154.945 46.855
 155.512 46.574 155.852 46.574 c 156.051 46.574 156.219 46.629 156.305 46.773
 c 156.391 46.914 156.477 47.168 156.59 47.48 c 157.098 49.238 157.609 53.375
 157.41 53.801 c 156.73 54.965 156.02 55.699 155.766 55.699 c 155.598 55.699
 155.285 55.473 155.172 55.391 c 155.059 55.305 154.719 55.164 154.574 55.164
 c 154.207 55.164 153.781 55.504 153.781 56.012 c 153.781 56.578 154.547
 56.75 154.832 56.75 c 155.738 56.75 157.07 55.645 158.203 53.945 c h
158.969 52.754 m f
165.586 40.07 m 165.473 39.984 165.359 39.957 165.219 39.957 c 165.16 39.957
 l 164.961 39.984 164.82 40.043 164.793 40.211 c 163.688 42.68 l 163.688
 42.707 163.688 42.734 163.688 42.734 c 163.688 42.82 163.715 42.875 163.773
 42.934 c 163.828 42.934 163.887 42.961 163.914 42.961 c 163.969 42.961 
164.027 42.934 164.055 42.906 c 165.785 40.863 l 165.871 40.777 165.871 
40.664 165.871 40.582 c 165.871 40.383 165.785 40.184 165.586 40.07 c h
165.586 40.07 m f
283.93 158.922 m 284.527 160.594 l 282.938 162.949 l 282.738 163.23 282.57
 163.262 282.457 163.262 c 282.316 163.262 282.117 163.23 282.004 163.176
 c 281.832 163.09 281.664 163.062 281.492 163.062 c 281.125 163.062 280.84
 163.344 280.84 163.715 c 280.84 164.168 281.438 164.367 281.832 164.367
 c 282.43 164.367 282.824 164.109 283.59 163.035 c 284.754 161.332 l 285.434
 163.402 l 285.633 164.082 285.828 164.367 286.398 164.367 c 286.992 164.367
 287.758 164.055 288.27 163.148 c 288.211 163.004 288.07 162.863 287.871
 162.836 c 287.418 163.402 287.191 163.516 287.02 163.516 c 286.852 163.516
 286.738 163.316 286.594 162.891 c 285.688 160.141 l 286.992 158.242 l 287.246
 157.848 287.672 157.762 287.785 157.762 c 287.926 157.762 288.152 157.816
 288.297 157.93 c 288.41 158.043 288.691 158.102 288.863 158.102 c 289.09
 158.102 289.402 157.762 289.402 157.363 c 289.402 156.938 288.949 156.684
 288.551 156.684 c 287.699 156.684 287.133 156.996 286.285 158.188 c 285.434
 159.434 l 284.949 157.93 l 284.668 157.023 284.496 156.684 284.043 156.684
 c 283.648 156.684 282.398 157.422 281.805 157.848 c 281.805 158.043 281.891
 158.242 282.031 158.383 c 282.23 158.27 282.797 158.016 283.137 158.016
 c 283.363 158.016 283.535 158.074 283.617 158.188 c 283.703 158.328 283.789
 158.613 283.93 158.922 c h
283.93 158.922 m f
292.895 151.484 m 292.781 151.398 292.668 151.371 292.555 151.371 c 292.469
 151.371 l 292.273 151.371 292.16 151.453 292.102 151.598 c 290.996 154.09
 l 290.996 154.121 290.996 154.148 290.996 154.148 c 290.996 154.234 291.023
 154.289 291.082 154.348 c 291.137 154.348 291.195 154.375 291.223 154.375
 c 291.281 154.375 291.336 154.348 291.363 154.316 c 293.094 152.25 l 293.18
 152.164 293.18 152.078 293.18 151.992 c 293.18 151.766 293.094 151.598 
292.895 151.484 c h
292.895 151.484 m f
216.164 206.855 m 216.246 206.375 216.473 206.062 217.637 206.062 c 218.602
 206.062 219.508 206.375 219.508 207.789 c 219.508 208.047 219.48 208.328
 219.422 208.641 c 219.055 210.457 218.062 211.223 216.473 211.223 c 216.078
 211.223 215.512 211.164 215.34 211.137 c h
213.215 215.359 m 213.129 215.812 212.816 216.012 212.164 216.066 c 211.742
 216.098 l 211.656 216.098 211.629 216.152 211.598 216.238 c 211.543 216.551
 l 211.57 216.578 l 212.164 216.578 212.961 216.551 213.641 216.551 c 214.293
 216.551 215.086 216.578 215.852 216.578 c 215.879 216.551 l 215.965 216.238
 l 215.965 216.152 215.906 216.098 215.852 216.098 c 215.254 216.066 l 214.715
 216.039 214.488 215.898 214.488 215.559 c 214.488 215.5 214.488 215.445
 214.52 215.359 c 215.254 211.617 l 215.594 211.73 215.879 211.789 216.445
 211.789 c 219.395 211.789 220.641 209.773 220.895 208.328 c 220.926 208.188
 220.953 207.988 220.953 207.82 c 220.953 206.801 220.387 205.496 217.891
 205.496 c 217.465 205.496 216.418 205.664 215.766 205.664 c 215.113 205.664
 214.293 205.637 213.695 205.609 c 213.641 205.664 l 213.582 206.004 l 213.555
 206.062 213.582 206.117 213.668 206.117 c 214.293 206.148 l 214.52 206.148
 214.859 206.289 214.859 206.715 c 214.859 206.742 214.859 206.801 214.859
 206.855 c h
213.215 215.359 m f
0 0.392157 1 rg
201.566 147.883 m 202.754 147.883 203.859 147.031 204.684 145.898 c 204.625
 145.727 204.457 145.613 204.316 145.613 c 203.633 146.352 202.984 146.891
 202.074 146.891 c 201.793 146.891 201.48 146.805 201.227 146.492 c 200.969
 146.18 200.801 145.84 200.801 144.82 c 200.801 142.297 201.992 140.824 
203.293 140.824 c 203.52 140.824 204.004 140.906 204.004 141.445 c 204.004
 141.559 203.973 141.703 203.918 141.785 c 203.859 141.871 203.832 142.043
 203.832 142.129 c 203.832 142.41 204.004 142.664 204.285 142.664 c 204.738
 142.664 205.164 142.324 205.164 141.93 c 205.164 141.25 205.109 140.285
 203.266 140.285 c 202.613 140.285 201.508 140.738 200.801 141.504 c 199.977
 142.383 199.41 143.688 199.41 145.188 c 199.41 145.754 199.523 146.52 199.922
 147.059 c 200.262 147.57 200.855 147.883 201.566 147.883 c h
201.566 147.883 m f
0 1 0 rg
q 1 0 0 1 0 0 cm
150 88.926 m 150 150 l S Q
Q Q
showpage
%%Trailer
end
%%EOF
