%!PS-Adobe-3.0 EPSF-3.0
%%Creator: cairo 1.16.0 (https://cairographics.org)
%%CreationDate: Wed Sep 11 19:56:34 2019
%%Pages: 1
%%DocumentData: Clean7Bit
%%LanguageLevel: 2
%%BoundingBox: 8 7 243 240
%%EndComments
%%BeginProlog
50 dict begin
/q { gsave } bind def
/Q { grestore } bind def
/cm { 6 array astore concat } bind def
/w { setlinewidth } bind def
/J { setlinecap } bind def
/j { setlinejoin } bind def
/M { setmiterlimit } bind def
/d { setdash } bind def
/m { moveto } bind def
/l { lineto } bind def
/c { curveto } bind def
/h { closepath } bind def
/re { exch dup neg 3 1 roll 5 3 roll moveto 0 rlineto
      0 exch rlineto 0 rlineto closepath } bind def
/S { stroke } bind def
/f { fill } bind def
/f* { eofill } bind def
/n { newpath } bind def
/W { clip } bind def
/W* { eoclip } bind def
/BT { } bind def
/ET { } bind def
/BDC { mark 3 1 roll /BDC pdfmark } bind def
/EMC { mark /EMC pdfmark } bind def
/cairo_store_point { /cairo_point_y exch def /cairo_point_x exch def } def
/Tj { show currentpoint cairo_store_point } bind def
/TJ {
  {
    dup
    type /stringtype eq
    { show } { -0.001 mul 0 cairo_font_matrix dtransform rmoveto } ifelse
  } forall
  currentpoint cairo_store_point
} bind def
/cairo_selectfont { cairo_font_matrix aload pop pop pop 0 0 6 array astore
    cairo_font exch selectfont cairo_point_x cairo_point_y moveto } bind def
/Tf { pop /cairo_font exch def /cairo_font_matrix where
      { pop cairo_selectfont } if } bind def
/Td { matrix translate cairo_font_matrix matrix concatmatrix dup
      /cairo_font_matrix exch def dup 4 get exch 5 get cairo_store_point
      /cairo_font where { pop cairo_selectfont } if } bind def
/Tm { 2 copy 8 2 roll 6 array astore /cairo_font_matrix exch def
      cairo_store_point /cairo_font where { pop cairo_selectfont } if } bind def
/g { setgray } bind def
/rg { setrgbcolor } bind def
/d1 { setcachedevice } bind def
/cairo_data_source {
  CairoDataIndex CairoData length lt
    { CairoData CairoDataIndex get /CairoDataIndex CairoDataIndex 1 add def }
    { () } ifelse
} def
/cairo_flush_ascii85_file { cairo_ascii85_file status { cairo_ascii85_file flushfile } if } def
/cairo_image { image cairo_flush_ascii85_file } def
/cairo_imagemask { imagemask cairo_flush_ascii85_file } def
%%EndProlog
%%BeginSetup
%%EndSetup
%%Page: 1 1
%%BeginPageSetup
%%PageBoundingBox: 8 7 243 240
%%EndPageSetup
q 8 7 235 233 rectclip
1 0 0 -1 0 250 cm q
0 g
0.75 w
0 J
0 j
[] 0.0 d
4 M q 1 0 0 1 0 0 cm
31.07 14.285 m 31.07 234.465 l S Q
31.07 21.785 m 34.07 24.785 l 31.07 14.285 l 28.07 24.785 l h
31.07 21.785 m f*
0.8 w
q 0 1 -1 0 0 0 cm
21.785 -31.07 m 24.785 -34.07 l 14.285 -31.07 l 24.785 -28.07 l h
21.785 -31.07 m S Q
31.07 226.965 m 28.07 223.965 l 31.07 234.465 l 34.07 223.965 l h
31.07 226.965 m f*
q 0 -1 1 0 0 0 cm
-226.965 31.07 m -223.965 28.07 l -234.465 31.07 l -223.965 34.07 l h
-226.965 31.07 m S Q
0.75 w
q 1 0 0 1 0 0 cm
11.25 208.215 m 241.07 208.215 l S Q
18.75 208.215 m 21.75 205.215 l 11.25 208.215 l 21.75 211.215 l h
18.75 208.215 m f*
0.8 w
q 1 0 0 1 0 0 cm
18.75 208.215 m 21.75 205.215 l 11.25 208.215 l 21.75 211.215 l h
18.75 208.215 m S Q
233.57 208.215 m 230.57 211.215 l 241.07 208.215 l 230.57 205.215 l h
233.57 208.215 m f*
q -1 0 0 -1 0 0 cm
-233.57 -208.215 m -230.57 -211.215 l -241.07 -208.215 l -230.57 -205.215
 l h
-233.57 -208.215 m S Q
2 w
q 1 0 0 1 0 0 cm
8.711 170.449 m 30.684 177.773 52.656 185.098 73.301 185.793 c 93.945 186.488
 113.266 180.551 131.066 169.758 c 148.871 158.961 165.16 143.301 175.324
 124.742 c 185.488 106.18 189.531 84.715 191.805 65.141 c 194.074 45.57 
194.582 27.891 195.086 10.215 c S Q
121.031 176.344 m 121.031 177.637 119.984 178.684 118.691 178.684 c 117.402
 178.684 116.352 177.637 116.352 176.344 c 116.352 175.051 117.402 174.004
 118.691 174.004 c 119.984 174.004 121.031 175.051 121.031 176.344 c h
121.031 176.344 m f*
0.75 w
[ 4.5 0.75] 0 d
q 1 0 0 1 0 0 cm
207.965 19.684 m 186.969 93.961 165.977 168.238 144.98 242.516 c S Q
187.73 99.555 m 187.73 100.848 186.684 101.895 185.391 101.895 c 184.098
 101.895 183.051 100.848 183.051 99.555 c 183.051 98.262 184.098 97.215 
185.391 97.215 c 186.684 97.215 187.73 98.262 187.73 99.555 c h
187.73 99.555 m f*
[ 4.5 0.75] 0 d
q 1 0 0 1 0 0 cm
233.723 123.477 m 160.629 157.074 87.531 190.668 14.434 224.262 c S Q
1 0 0 rg
1 w
[] 0.0 d
q 1 0 0 1 0 0 cm
177.742 134.156 m 181.832 135.785 185.266 138.73 187.496 142.527 c S Q
178.855 134.598 m 180.156 134.039 l 176.531 133.672 l 179.414 135.898 l
 h
178.855 134.598 m f*
0.247734 w
q 1 0.398358 -0.398358 1 0 0 cm
200.635 54.673 m 201.566 53.744 l 198.311 54.673 l 201.564 55.604 l h
200.635 54.673 m S Q
186.891 141.492 m 185.52 141.137 l 188.156 143.648 l 187.246 140.125 l 
h
186.891 141.492 m f*
0.22987 w
q -0.588031 -1 1 -0.588031 0 0 cm
-186.798 77.047 m -185.935 76.184 l -188.954 77.046 l -185.938 77.909 l
 h
-186.798 77.047 m S Q
0 g
1 w
q 1 0 0 1 0 0 cm
161.969 189.77 m 168.805 192.473 173.582 198.734 174.391 206.039 c S Q
163.086 190.211 m 164.383 189.648 l 160.762 189.293 l 163.648 191.508 l
 h
163.086 190.211 m f*
0.247975 w
q 1 0.395517 -0.395517 1 0 0 cm
206.08 108.703 m 207.009 107.773 l 203.756 108.704 l 207.01 109.632 l h
206.08 108.703 m S Q
174.258 204.848 m 173.156 203.961 l 174.531 207.332 l 175.141 203.742 l
 h
174.258 204.848 m f*
0.265059 w
q -0.110295 -1 1 -0.110295 0 0 cm
-221.374 149.841 m -220.378 148.85 l -223.859 149.841 l -220.378 150.834
 l h
-221.374 149.841 m S Q
1 w
q 1 0 0 1 0 0 cm
82.941 194.934 m 84.352 198.496 85.184 202.258 85.41 206.078 c S Q
83.383 196.051 m 84.68 196.613 l 82.465 193.727 l 82.82 197.348 l h
83.383 196.051 m f*
0.247992 w
q 0.395318 1 -1 0.395318 0 0 cm
198.061 -5.086 m 198.991 -6.015 l 195.737 -5.086 l 198.991 -4.156 l h
198.061 -5.086 m S Q
85.336 204.879 m 84.281 203.941 l 85.484 207.375 l 86.277 203.824 l h
85.336 204.879 m f*
0.2662 w
q -0.0592411 -1 1 -0.0592411 0 0 cm
-209.2 72.943 m -208.204 71.947 l -211.696 72.943 l -208.205 73.943 l h
-209.2 72.943 m S Q
123.723 179.773 m 123.789 179.387 123.973 179.137 124.902 179.137 c 125.676
 179.137 126.406 179.387 126.406 180.523 c 126.406 180.727 126.383 180.953
 126.336 181.207 c 126.043 182.66 125.246 183.273 123.973 183.273 c 123.652
 183.273 123.199 183.23 123.062 183.207 c h
121.355 186.594 m 121.289 186.957 121.039 187.117 120.516 187.164 c 120.176
 187.184 l 120.105 187.184 120.086 187.23 120.062 187.297 c 120.016 187.547
 l 120.039 187.57 l 120.516 187.57 121.152 187.547 121.699 187.547 c 122.223
 187.547 122.859 187.57 123.473 187.57 c 123.496 187.547 l 123.562 187.297
 l 123.562 187.23 123.516 187.184 123.473 187.184 c 122.996 187.164 l 122.562
 187.141 122.379 187.027 122.379 186.754 c 122.379 186.707 122.379 186.66
 122.402 186.594 c 122.996 183.594 l 123.266 183.684 123.496 183.73 123.949
 183.73 c 126.312 183.73 127.312 182.113 127.52 180.953 c 127.543 180.84
 127.562 180.684 127.562 180.547 c 127.562 179.727 127.109 178.68 125.109
 178.68 c 124.77 178.68 123.926 178.816 123.402 178.816 c 122.879 178.816
 122.223 178.797 121.742 178.773 c 121.699 178.816 l 121.652 179.09 l 121.629
 179.137 121.652 179.18 121.723 179.18 c 122.223 179.203 l 122.402 179.203
 122.676 179.316 122.676 179.66 c 122.676 179.684 122.676 179.727 122.676
 179.773 c h
121.355 186.594 m f
195.391 95.082 m 196.938 95.082 198.004 96.129 198.004 98.152 c 198.004
 98.605 197.961 99.082 197.848 99.605 c 197.344 102.176 195.844 103.723 
194.254 103.723 c 192.844 103.723 191.684 102.586 191.684 100.562 c 191.684
 100.195 191.73 99.789 191.797 99.355 c 192.391 96.332 194.141 95.082 195.391
 95.082 c h
190.934 105.926 m 190.82 106.016 190.707 106.152 190.617 106.27 c 191.094
 106.562 l 191.297 106.312 191.523 106.086 191.73 105.883 c 191.957 105.766
 192.16 105.699 192.273 105.699 c 193.547 105.699 194.164 107.062 195.957
 107.062 c 196.824 107.062 197.48 106.699 198.164 105.883 c 197.961 105.723
 l 197.594 106.109 197.051 106.246 196.664 106.246 c 195.457 106.246 194.551
 105.062 193.027 105.062 c 192.934 105.062 192.867 105.086 192.754 105.109
 c 193.594 104.539 194.367 104.242 194.844 104.129 c 197.027 103.699 198.664
 101.855 199.164 99.332 c 199.254 98.969 199.277 98.605 199.277 98.285 c
 199.277 96.035 197.754 94.582 195.664 94.582 c 193.207 94.582 191.023 96.785
 190.48 99.605 c 190.387 99.992 190.367 100.355 190.367 100.695 c 190.367
 102.699 191.57 103.973 193.344 104.176 c 192.434 104.629 191.547 105.289
 190.934 105.926 c h
190.934 105.926 m f
1 0 0 rg
187.41 128.035 m 187.434 128.035 l 190.117 135.129 l 184.66 135.129 l h
188.113 126.672 m 187.273 126.672 l 183.816 135.312 l 183.75 135.449 183.75
 135.449 183.75 135.492 c 183.75 135.562 183.863 135.582 184.023 135.582
 c 191.184 135.582 l 191.41 135.582 191.48 135.562 191.48 135.492 c 191.48
 135.469 191.457 135.426 191.41 135.312 c h
188.113 126.672 m f
199.41 133.016 m 201.684 129.695 l 201.527 129.695 201.32 129.762 201.117
 129.762 c 200.934 129.762 200.73 129.695 200.523 129.695 c 199.434 131.629
 l 199.434 131.492 l 199.434 130.309 199.137 129.605 198.207 129.605 c 197.07
 129.605 195.363 130.445 194.773 132.922 c 194.684 133.309 194.613 133.695
 194.613 134.016 c 194.613 135.082 195.137 135.742 196.363 135.742 c 197.23
 135.742 197.934 135.195 198.867 133.855 c 198.844 134.379 l 198.844 134.492
 l 198.844 135.332 199.07 135.742 199.547 135.742 c 200.094 135.742 200.48
 135.402 200.957 134.539 c 200.66 134.426 l 200.344 134.832 200.184 134.926
 199.844 134.926 c 199.57 134.926 199.41 134.539 199.41 133.855 c h
198.023 130.059 m 198.75 130.059 198.887 130.898 198.887 132.059 c 198.887
 132.152 198.867 132.219 198.867 132.309 c 198.867 132.605 l 198.547 133.152
 l 197.82 134.469 197.094 135.289 196.523 135.289 c 195.91 135.289 195.66
 134.766 195.66 133.992 c 195.66 132.105 196.727 130.059 198.023 130.059
 c h
198.023 130.059 m f
0 g
178 192.074 m 180.273 188.758 l 180.117 188.758 179.91 188.824 179.707 
188.824 c 179.523 188.824 179.32 188.758 179.117 188.758 c 178.023 190.688
 l 178.023 190.551 l 178.023 189.371 177.727 188.664 176.797 188.664 c 175.66
 188.664 173.953 189.508 173.363 191.984 c 173.273 192.371 173.203 192.758
 173.203 193.074 c 173.203 194.145 173.727 194.805 174.953 194.805 c 175.82
 194.805 176.523 194.258 177.457 192.918 c 177.434 193.441 l 177.434 193.555
 l 177.434 194.395 177.66 194.805 178.137 194.805 c 178.684 194.805 179.07
 194.461 179.547 193.598 c 179.25 193.484 l 178.934 193.895 178.773 193.984
 178.434 193.984 c 178.16 193.984 178 193.598 178 192.918 c h
176.613 189.121 m 177.344 189.121 177.477 189.961 177.477 191.121 c 177.477
 191.211 177.457 191.281 177.457 191.371 c 177.457 191.668 l 177.137 192.211
 l 176.41 193.531 175.684 194.348 175.113 194.348 c 174.5 194.348 174.25
 193.824 174.25 193.055 c 174.25 191.164 175.316 189.121 176.613 189.121
 c h
176.613 189.121 m f
185.676 188.758 m 185.676 190.914 l 183.449 190.914 l 183.289 190.914 183.105
 191.164 183.105 191.371 c 183.105 191.484 183.176 191.574 183.312 191.574
 c 185.676 191.574 l 185.676 193.895 l 185.676 194.008 185.789 194.098 185.902
 194.098 c 186.086 194.098 186.359 193.918 186.359 193.758 c 186.359 191.574
 l 188.562 191.574 l 188.746 191.574 188.926 191.281 188.926 191.145 c 188.926
 191.031 188.883 190.914 188.746 190.914 c 186.359 190.914 l 186.359 188.574
 l 186.359 188.438 186.223 188.391 186.133 188.391 c 185.996 188.391 185.676
 188.574 185.676 188.758 c h
185.676 188.758 m f
195.5 187.098 m 195.523 187.098 l 198.203 194.191 l 192.746 194.191 l h
196.203 185.73 m 195.363 185.73 l 191.906 194.371 l 191.84 194.508 191.84
 194.508 191.84 194.555 c 191.84 194.621 191.953 194.645 192.109 194.645
 c 199.273 194.645 l 199.5 194.645 199.57 194.621 199.57 194.555 c 199.57
 194.531 199.547 194.484 199.5 194.371 c h
196.203 185.73 m f
207.5 192.074 m 209.773 188.758 l 209.613 188.758 209.41 188.824 209.207
 188.824 c 209.023 188.824 208.82 188.758 208.613 188.758 c 207.523 190.688
 l 207.523 190.551 l 207.523 189.371 207.227 188.664 206.297 188.664 c 205.16
 188.664 203.453 189.508 202.863 191.984 c 202.77 192.371 202.703 192.758
 202.703 193.074 c 202.703 194.145 203.227 194.805 204.453 194.805 c 205.316
 194.805 206.023 194.258 206.953 192.918 c 206.934 193.441 l 206.934 193.555
 l 206.934 194.395 207.16 194.805 207.637 194.805 c 208.184 194.805 208.57
 194.461 209.047 193.598 c 208.75 193.484 l 208.434 193.895 208.273 193.984
 207.934 193.984 c 207.66 193.984 207.5 193.598 207.5 192.918 c h
206.113 189.121 m 206.84 189.121 206.977 189.961 206.977 191.121 c 206.977
 191.211 206.953 191.281 206.953 191.371 c 206.953 191.668 l 206.637 192.211
 l 205.91 193.531 205.18 194.348 204.613 194.348 c 204 194.348 203.75 193.824
 203.75 193.055 c 203.75 191.164 204.816 189.121 206.113 189.121 c h
206.113 189.121 m f
91.707 200.109 m 93.98 196.793 l 93.824 196.793 93.617 196.859 93.414 196.859
 c 93.23 196.859 93.027 196.793 92.824 196.793 c 91.73 198.723 l 91.73 198.586
 l 91.73 197.406 91.434 196.699 90.504 196.699 c 89.367 196.699 87.66 197.543
 87.07 200.02 c 86.98 200.406 86.91 200.793 86.91 201.113 c 86.91 202.18
 87.434 202.84 88.66 202.84 c 89.527 202.84 90.23 202.293 91.164 200.953
 c 91.141 201.477 l 91.141 201.59 l 91.141 202.43 91.367 202.84 91.844 202.84
 c 92.391 202.84 92.777 202.5 93.254 201.633 c 92.957 201.52 l 92.641 201.93
 92.48 202.02 92.141 202.02 c 91.867 202.02 91.707 201.633 91.707 200.953
 c h
90.32 197.156 m 91.051 197.156 91.184 197.996 91.184 199.156 c 91.184 199.246
 91.164 199.316 91.164 199.406 c 91.164 199.703 l 90.844 200.246 l 90.117
 201.566 89.391 202.387 88.82 202.387 c 88.207 202.387 87.957 201.863 87.957
 201.09 c 87.957 199.203 89.027 197.156 90.32 197.156 c h
90.32 197.156 m f
42.609 19.266 m 42.883 18.809 44.656 16.129 45.043 15.172 c 45.27 14.672
 45.453 14.148 45.453 13.625 c 45.453 13.219 45.25 12.945 44.703 12.945 
c 44.27 12.945 44.02 13.125 44.02 13.488 c 44.02 13.582 44.043 13.719 44.113
 13.785 c 44.316 14.105 44.406 14.422 44.406 14.648 c 44.406 15.285 43.816
 16.355 43.316 17.129 c 43.316 17.129 42.59 18.332 42.203 18.879 c 42.109
 18.832 l 42.02 17.152 41.93 15.785 41.496 14.012 c 41.293 13.238 41.109
 12.945 40.746 12.945 c 40.406 12.945 39.359 13.559 38.859 13.922 c 38.859
 14.082 38.926 14.262 39.043 14.375 c 39.199 14.285 39.68 14.059 39.973 
14.059 c 40.156 14.059 40.316 14.105 40.383 14.219 c 40.449 14.332 40.52
 14.559 40.609 14.809 c 41.043 16.285 41.473 19.789 41.316 20.152 c 40.723
 21.129 40.109 21.766 39.906 21.766 c 39.77 21.766 39.496 21.562 39.406 
21.492 c 39.312 21.402 39.02 21.289 38.906 21.289 c 38.609 21.289 38.246
 21.586 38.246 22.039 c 38.246 22.492 38.883 22.629 39.133 22.629 c 39.883
 22.629 41.02 21.723 41.953 20.266 c h
42.609 19.266 m f
138.031 33.699 m 138.324 33.246 140.074 30.539 140.484 29.586 c 140.711
 29.086 140.871 28.562 140.871 28.039 c 140.871 27.629 140.668 27.355 140.121
 27.355 c 139.688 27.355 139.438 27.539 139.438 27.879 c 139.438 27.992 
139.461 28.129 139.531 28.199 c 139.758 28.516 139.824 28.832 139.824 29.062
 c 139.824 29.699 139.234 30.789 138.734 31.562 c 138.734 31.562 138.008
 32.766 137.621 33.312 c 137.527 33.266 l 137.438 31.586 137.348 30.223 
136.914 28.426 c 136.711 27.652 136.527 27.355 136.164 27.355 c 135.824 
27.355 134.754 27.969 134.254 28.332 c 134.277 28.492 134.324 28.676 134.438
 28.789 c 134.617 28.699 135.098 28.469 135.371 28.469 c 135.574 28.469 
135.711 28.516 135.777 28.629 c 135.848 28.742 135.938 28.969 136.004 29.219
 c 136.461 30.699 136.895 34.246 136.734 34.586 c 136.141 35.562 135.527
 36.199 135.324 36.199 c 135.188 36.199 134.891 36.02 134.824 35.949 c 134.711
 35.859 134.438 35.746 134.301 35.746 c 134.004 35.746 133.641 36.02 133.641
 36.473 c 133.641 36.949 134.277 37.086 134.527 37.086 c 135.301 37.086 
136.438 36.156 137.371 34.723 c h
138.031 33.699 m f
150.27 29.219 m 150.449 29.219 150.656 28.902 150.656 28.742 c 150.656 
28.629 150.609 28.516 150.449 28.516 c 144.789 28.516 l 144.605 28.516 144.426
 28.789 144.426 28.992 c 144.426 29.105 144.516 29.219 144.652 29.219 c 
h
150.27 31.629 m 150.449 31.629 150.656 31.289 150.656 31.152 c 150.656 
31.039 150.609 30.902 150.449 30.902 c 144.789 30.902 l 144.605 30.902 144.426
 31.176 144.426 31.402 c 144.426 31.516 144.516 31.629 144.652 31.629 c 
h
150.27 31.629 m f
156.914 28.062 m 156.617 29.699 156.461 30.586 156.301 31.652 c 156.117
 33.086 155.848 35.406 155.324 36.223 c 155.164 36.496 154.891 36.656 154.664
 36.656 c 154.461 36.656 154.391 36.562 154.301 36.43 c 154.188 36.223 153.891
 35.949 153.574 35.949 c 153.188 35.949 153.051 36.223 153.051 36.473 c 
153.051 36.816 153.414 37.133 154.391 37.133 c 154.98 37.133 155.617 36.859
 156.074 36.223 c 156.461 35.676 156.777 34.562 157.348 31.812 c 157.574
 30.699 157.824 29.516 158.027 28.312 c 158.074 28.062 l 159.414 28.062 
l 159.551 28.062 159.758 27.992 159.801 27.879 c 159.801 27.879 159.871 
27.582 159.871 27.562 c 159.871 27.516 159.848 27.492 159.758 27.492 c 158.188
 27.492 l 158.348 26.676 l 158.438 26.129 158.598 25.629 158.777 25.242 
c 159.145 24.355 159.734 24.082 159.961 24.082 c 160.301 24.082 160.461 
24.172 160.531 24.469 c 160.574 24.785 160.711 25.172 161.188 25.172 c 161.645
 25.172 161.758 24.809 161.758 24.695 c 161.758 24.105 161.121 23.605 160.074
 23.605 c 159.688 23.605 158.777 23.832 158.188 24.535 c 157.688 25.129 
157.301 26.242 157.051 27.492 c 156.098 27.539 l 155.824 27.562 155.711 
27.676 155.688 27.789 c 155.688 27.832 155.641 27.992 155.641 28.039 c 155.641
 28.062 155.688 28.062 155.711 28.062 c h
156.914 28.062 m f
163.676 30.062 m 163.676 30.699 163.746 34.039 166.746 36.656 c 166.883
 36.609 166.996 36.52 167.043 36.406 c 166.566 35.859 164.883 33.859 164.883
 30.062 c 164.883 26.242 166.586 24.266 167.043 23.742 c 166.996 23.582 
166.906 23.492 166.746 23.469 c 165.02 24.945 163.676 27.355 163.676 30.062
 c h
163.676 30.062 m f
170.582 29.219 m 171.082 30.652 l 169.742 32.652 l 169.582 32.883 169.422
 32.926 169.332 32.926 c 169.219 32.926 169.059 32.883 168.945 32.836 c 
168.809 32.766 168.672 32.746 168.512 32.746 c 168.195 32.746 167.969 32.973
 167.969 33.289 c 167.969 33.676 168.492 33.836 168.809 33.836 c 169.309
 33.836 169.648 33.633 170.285 32.723 c 171.285 31.289 l 171.855 33.039 
l 172.016 33.609 172.172 33.836 172.676 33.836 c 173.176 33.836 173.812 
33.562 174.266 32.812 c 174.199 32.676 174.082 32.562 173.926 32.539 c 173.539
 33.016 173.355 33.133 173.195 33.133 c 173.059 33.133 172.969 32.973 172.855
 32.609 c 172.059 30.266 l 173.176 28.652 l 173.379 28.312 173.742 28.266
 173.832 28.266 c 173.969 28.266 174.152 28.312 174.289 28.402 c 174.379
 28.492 174.605 28.562 174.766 28.562 c 174.949 28.562 175.219 28.266 175.219
 27.926 c 175.219 27.562 174.832 27.355 174.492 27.355 c 173.766 27.355 
173.289 27.605 172.582 28.629 c 171.855 29.676 l 171.469 28.402 l 171.219
 27.652 171.059 27.355 170.695 27.355 c 170.355 27.355 169.285 27.969 168.785
 28.332 c 168.809 28.492 168.855 28.676 168.969 28.789 c 169.148 28.699 
169.629 28.469 169.898 28.469 c 170.105 28.469 170.242 28.516 170.309 28.629
 c 170.379 28.742 170.469 28.992 170.582 29.219 c h
170.582 29.219 m f
180.004 30.062 m 180.004 29.402 179.938 26.059 176.934 23.469 c 176.777
 23.492 176.664 23.582 176.617 23.719 c 177.094 24.266 178.801 26.242 178.801
 30.062 c 178.801 33.859 177.094 35.859 176.617 36.383 c 176.664 36.543 
176.754 36.633 176.934 36.633 c 178.641 35.156 180.004 32.746 180.004 30.062
 c h
180.004 30.062 m f
0.75 w
q 1 0 0 1 0 0 cm
159.375 40.27 m 161.383 44.641 163.391 49.016 167.098 48.438 c 170.805 
47.855 176.207 42.32 180.625 39.008 c 185.039 35.691 188.473 34.602 191.902
 33.508 c S Q
189.047 34.418 m 188.07 36.305 l 192.617 33.281 l 187.16 33.445 l h
189.047 34.418 m f*
0.381169 w
q -1 0.318197 -0.318197 -1 0 0 cm
-161.721 -85.877 m -160.289 -87.308 l -165.292 -85.877 l -160.289 -84.449
 l h
-161.721 -85.877 m S Q
0 1 0 rg
0.75 w
q 1 0 0 1 0 0 cm
116.988 168.012 m 130.898 159.227 144.809 150.445 154.934 139.039 c 165.059
 127.637 171.477 113.438 177.852 99.328 c S Q
119.523 166.41 m 119.992 164.34 l 116.355 168.41 l 121.594 166.875 l h
119.523 166.41 m f*
0.338224 w
q 1 -0.631396 0.631396 1 0 0 cm
10.333 172.935 m 11.603 171.666 l 7.165 172.934 l 11.604 174.202 l h
10.333 172.935 m S Q
176.617 102.062 m 177.367 104.047 l 178.16 98.645 l 174.633 102.812 l h
176.617 102.062 m f*
0.364504 w
q -0.451938 1 -1 -0.451938 0 0 cm
18.47 -184.964 m 19.836 -186.332 l 15.053 -184.963 l 19.837 -183.598 l 
h
18.47 -184.964 m S Q
0.75 w
q 1 0 0 1 0 0 cm
175.84 96.691 m 177.789 97.242 179.738 97.793 181.688 98.344 c S Q
q 1 0 0 1 0 0 cm
113.879 165.672 m 114.887 167.879 115.895 170.09 116.902 172.305 c S Q
143.262 129.773 m 143.285 129.773 l 145.965 136.867 l 140.508 136.867 l
 h
143.965 128.41 m 143.125 128.41 l 139.668 137.051 l 139.602 137.188 139.602
 137.188 139.602 137.23 c 139.602 137.301 139.715 137.324 139.871 137.324
 c 147.035 137.324 l 147.262 137.324 147.332 137.301 147.332 137.23 c 147.332
 137.211 147.309 137.164 147.262 137.051 c h
143.965 128.41 m f
151.941 137.461 m 152.148 137.461 l 153.465 137.461 154.262 136.73 154.262
 135.73 c 154.262 135.094 153.898 134.457 152.648 133.641 c 152.238 133.367
 152.102 133.117 152.102 132.777 c 152.102 132.297 152.375 131.82 152.965
 131.82 c 153.305 131.82 153.535 131.934 153.578 132.207 c 153.625 132.547
 153.852 132.914 154.191 132.914 c 154.578 132.914 154.695 132.684 154.695
 132.457 c 154.695 131.98 153.988 131.367 153.148 131.367 c 151.965 131.367
 151.238 132.254 151.238 133.07 c 151.238 133.617 151.531 134.188 152.418
 134.801 c 153.148 135.277 153.262 135.73 153.262 136.004 c 153.262 136.754
 152.715 137.004 152.102 137.004 c 151.738 137.004 151.555 136.938 151.512
 136.641 c 151.465 136.324 151.281 135.938 150.875 135.938 c 150.488 135.938
 150.375 136.254 150.375 136.391 c 150.375 136.914 151.012 137.414 151.941
 137.461 c h
151.941 137.461 m f
0 g
232.711 195.797 m 233.188 197.141 l 231.938 198.98 l 231.777 199.211 231.641
 199.254 231.551 199.254 c 231.438 199.254 231.301 199.23 231.188 199.164
 c 231.051 199.117 230.914 199.094 230.801 199.094 c 230.48 199.094 230.277
 199.301 230.277 199.598 c 230.277 199.961 230.754 200.117 231.051 200.117
 c 231.527 200.117 231.848 199.914 232.438 199.051 c 233.371 197.707 l 233.914
 199.367 l 234.074 199.891 234.211 200.117 234.688 200.117 c 235.145 200.117
 235.758 199.867 236.168 199.164 c 236.121 199.027 235.984 198.938 235.848
 198.891 c 235.484 199.348 235.324 199.461 235.164 199.461 c 235.051 199.461
 234.938 199.301 234.848 198.961 c 234.121 196.777 l 235.145 195.254 l 235.348
 194.934 235.688 194.891 235.781 194.891 c 235.895 194.891 236.051 194.934
 236.188 195.027 c 236.281 195.094 236.484 195.164 236.621 195.164 c 236.824
 195.164 237.055 194.891 237.055 194.57 c 237.055 194.23 236.688 194.023
 236.395 194.023 c 235.711 194.023 235.258 194.277 234.598 195.23 c 233.914
 196.207 l 233.527 195.004 l 233.301 194.297 233.164 194.023 232.824 194.023
 c 232.504 194.023 231.504 194.594 231.027 194.957 c 231.051 195.094 231.098
 195.277 231.211 195.367 c 231.367 195.297 231.824 195.07 232.098 195.07
 c 232.254 195.07 232.391 195.117 232.461 195.23 c 232.527 195.344 232.617
 195.57 232.711 195.797 c h
232.711 195.797 m f
Q Q
showpage
%%Trailer
end
%%EOF
