%!PS-Adobe-3.0 EPSF-3.0
%%Creator: cairo 1.16.0 (https://cairographics.org)
%%CreationDate: Mon Aug 26 19:00:11 2019
%%Pages: 1
%%DocumentData: Clean7Bit
%%LanguageLevel: 2
%%BoundingBox: 15 36 170 166
%%EndComments
%%BeginProlog
50 dict begin
/q { gsave } bind def
/Q { grestore } bind def
/cm { 6 array astore concat } bind def
/w { setlinewidth } bind def
/J { setlinecap } bind def
/j { setlinejoin } bind def
/M { setmiterlimit } bind def
/d { setdash } bind def
/m { moveto } bind def
/l { lineto } bind def
/c { curveto } bind def
/h { closepath } bind def
/re { exch dup neg 3 1 roll 5 3 roll moveto 0 rlineto
      0 exch rlineto 0 rlineto closepath } bind def
/S { stroke } bind def
/f { fill } bind def
/f* { eofill } bind def
/n { newpath } bind def
/W { clip } bind def
/W* { eoclip } bind def
/BT { } bind def
/ET { } bind def
/BDC { mark 3 1 roll /BDC pdfmark } bind def
/EMC { mark /EMC pdfmark } bind def
/cairo_store_point { /cairo_point_y exch def /cairo_point_x exch def } def
/Tj { show currentpoint cairo_store_point } bind def
/TJ {
  {
    dup
    type /stringtype eq
    { show } { -0.001 mul 0 cairo_font_matrix dtransform rmoveto } ifelse
  } forall
  currentpoint cairo_store_point
} bind def
/cairo_selectfont { cairo_font_matrix aload pop pop pop 0 0 6 array astore
    cairo_font exch selectfont cairo_point_x cairo_point_y moveto } bind def
/Tf { pop /cairo_font exch def /cairo_font_matrix where
      { pop cairo_selectfont } if } bind def
/Td { matrix translate cairo_font_matrix matrix concatmatrix dup
      /cairo_font_matrix exch def dup 4 get exch 5 get cairo_store_point
      /cairo_font where { pop cairo_selectfont } if } bind def
/Tm { 2 copy 8 2 roll 6 array astore /cairo_font_matrix exch def
      cairo_store_point /cairo_font where { pop cairo_selectfont } if } bind def
/g { setgray } bind def
/rg { setrgbcolor } bind def
/d1 { setcachedevice } bind def
/cairo_data_source {
  CairoDataIndex CairoData length lt
    { CairoData CairoDataIndex get /CairoDataIndex CairoDataIndex 1 add def }
    { () } ifelse
} def
/cairo_flush_ascii85_file { cairo_ascii85_file status { cairo_ascii85_file flushfile } if } def
/cairo_image { image cairo_flush_ascii85_file } def
/cairo_imagemask { imagemask cairo_flush_ascii85_file } def
%%EndProlog
%%BeginSetup
%%EndSetup
%%Page: 1 1
%%BeginPageSetup
%%PageBoundingBox: 15 36 170 166
%%EndPageSetup
q 15 36 155 130 rectclip
1 0 0 -1 0 200 cm q
0 g
1 w
0 J
0 j
[] 0.0 d
4 M q 1 0 0 1 0 0 cm
169.191 99.285 m 122.801 163.137 l 47.738 138.75 l 47.738 59.824 l 122.801
 35.434 l h
169.191 99.285 m S Q
0.75 w
q 1 0 0 1 0 0 cm
110.316 157.242 m 111.941 153.793 114.926 151.172 118.555 150 c 122.184
 148.828 126.137 149.207 129.477 151.051 c S Q
110.699 156.43 m 110.34 155.43 l 109.898 158.125 l 111.699 156.07 l h
110.699 156.43 m f*
0.180857 w
q 0.472116 -1 1 0.472116 0 0 cm
-85.181 150.914 m -84.502 150.234 l -86.876 150.914 l -84.501 151.593 l
 h
-85.181 150.914 m S Q
128.688 150.617 m 127.668 150.91 l 130.328 151.523 l 128.395 149.598 l 
h
128.688 150.617 m f*
0.175063 w
q -1 -0.552436 0.552436 -1 0 0 cm
-162.348 -60.93 m -161.691 -61.586 l -163.988 -60.93 l -161.692 -60.273
 l h
-162.348 -60.93 m S Q
0.75 w
1 J
q 1 0 0 1 0 0 cm
122.801 35.434 m 115.887 56.719 108.969 78 102.055 99.285 c S Q
q 1 0 0 1 0 0 cm
47.738 59.824 m 65.844 72.977 83.949 86.133 102.055 99.285 c S Q
0.733189 w
[ 1.466378 2.932756] 0 d
q 1 0 0 1 0 0 cm
102.047 99.293 m 116.367 88.887 130.688 78.484 145.004 68.082 c S Q
142.633 69.805 m 142.309 71.855 l 145.598 67.652 l 140.586 69.48 l h
142.633 69.805 m f*
0.316353 w
0 J
[] 0.0 d
q -1 0.726543 -0.726543 -1 0 0 cm
-60.16 -113.514 m -58.973 -114.702 l -63.124 -113.515 l -58.975 -112.328
 l h
-60.16 -113.514 m S Q
0.75 w
q 1 0 0 1 0 0 cm
44.738 59.824 m 35.137 59.824 25.539 59.824 15.938 59.824 c S Q
q 1 0 0 1 0 0 cm
44.738 138.75 m 35.137 138.75 25.539 138.75 15.938 138.75 c S Q
[ 1.5 3] 0 d
q 1 0 0 1 0 0 cm
30.336 61.68 m 30.336 86.727 30.336 111.777 30.336 136.824 c S Q
30.336 64.68 m 31.836 66.18 l 30.336 60.93 l 28.836 66.18 l h
30.336 64.68 m f*
0.4 w
[] 0.0 d
q 0 1 -1 0 0 0 cm
64.68 -30.336 m 66.18 -31.836 l 60.93 -30.336 l 66.18 -28.836 l h
64.68 -30.336 m S Q
30.336 133.824 m 28.836 132.324 l 30.336 137.574 l 31.836 132.324 l h
30.336 133.824 m f*
q 0 -1 1 0 0 0 cm
-133.824 30.336 m -132.324 28.836 l -137.574 30.336 l -132.324 31.836 l
 h
-133.824 30.336 m S Q
24.086 102.23 m 24.328 102.23 l 25.902 102.23 26.848 101.363 26.848 100.172
 c 26.848 99.414 26.414 98.656 24.926 97.68 c 24.438 97.355 24.273 97.059
 24.273 96.652 c 24.273 96.082 24.602 95.512 25.305 95.512 c 25.711 95.512
 25.98 95.648 26.035 95.973 c 26.09 96.379 26.359 96.812 26.766 96.812 c
 27.227 96.812 27.363 96.543 27.363 96.273 c 27.363 95.703 26.523 94.973
 25.52 94.973 c 24.113 94.973 23.246 96.027 23.246 97.004 c 23.246 97.652
 23.598 98.332 24.656 99.062 c 25.52 99.629 25.656 100.172 25.656 100.496
 c 25.656 101.391 25.008 101.691 24.273 101.691 c 23.84 101.691 23.625 101.609
 23.57 101.258 c 23.516 100.875 23.301 100.418 22.812 100.418 c 22.352 100.418
 22.215 100.797 22.215 100.957 c 22.215 101.582 22.977 102.176 24.086 102.23
 c h
24.086 102.23 m f
117.711 138.867 m 113.781 138.867 l 114.297 136.648 115.543 133.668 116.898
 133.668 c 117.656 133.668 118.035 134.75 118.035 136.215 c 118.035 137 
117.926 137.918 117.711 138.867 c h
117.574 139.465 m 117.008 141.93 115.68 144.664 114.434 144.664 c 113.648
 144.664 113.293 143.555 113.293 142.117 c 113.293 141.277 113.43 140.359
 113.621 139.465 c h
112.457 139.137 m 112.211 140.277 112.102 141.223 112.102 142.012 c 112.102
 144.422 113.188 145.262 114.215 145.262 c 115.488 145.262 117.793 143.852
 118.875 139.137 c 119.117 138.082 119.227 137.188 119.227 136.43 c 119.227
 133.965 118.117 133.07 117.141 133.07 c 115.543 133.07 113.402 135.02 112.457
 139.137 c h
112.457 139.137 m f
94.551 79.25 m 94.93 78.301 95.176 77.164 95.418 75.945 c 98.344 75.672
 100.105 73.102 100.105 70.852 c 100.105 69.199 98.996 68.277 97.152 68.195
 c 97.344 67.52 97.504 66.926 97.668 66.465 c 98.59 63.781 l 97.801 63.945
 l 97.289 63.918 l 97.016 65.324 96.719 66.789 96.449 68.195 c 92.926 68.387
 91.68 71.477 91.68 73.207 c 91.68 74.832 92.793 75.863 94.578 75.973 c 
94.145 77.352 93.656 78.816 93.25 79.465 c 93.359 79.789 l h
95.5 75.457 m 95.637 74.535 95.797 73.586 96.016 72.641 c 96.285 71.477
 96.664 70.012 96.988 68.711 c 98.398 68.875 98.859 69.848 98.859 71.016
 c 98.859 71.422 98.832 71.801 98.723 72.234 c 98.398 73.586 97.641 75.293
 95.5 75.457 c h
96.34 68.684 m 96.043 70.176 95.742 71.609 95.473 72.746 c 95.473 72.746
 95.148 73.992 94.715 75.457 c 93.387 75.266 92.898 74.238 92.898 73.102
 c 92.898 71.719 93.766 68.848 96.34 68.684 c h
96.34 68.684 m f
1 w
q 1 0 0 1 0 0 cm
88.609 87 m 92.934 82.27 99.426 80.16 105.703 81.441 c S Q
89.422 86.113 m 89.355 84.699 l 87.734 87.957 l 90.832 86.051 l h
89.422 86.113 m f*
0.196836 w
q 0.913999 -1 1 0.913999 0 0 cm
-2.387 91.604 m -1.65 90.864 l -4.232 91.603 l -1.651 92.341 l h
-2.387 91.604 m S Q
104.527 81.203 m 103.348 81.98 l 106.977 81.703 l 103.746 80.023 l h
104.527 81.203 m f*
0.261258 w
q -1 -0.20453 0.20453 -1 0 0 cm
-116.272 -57.422 m -115.292 -58.4 l -118.721 -57.421 l -115.29 -56.443 
l h
-116.272 -57.422 m S Q
127.465 75.031 m 127.574 74.461 l 127.738 73.84 127.871 73.297 127.871 
73.027 c 127.871 72.754 127.738 72.594 127.52 72.594 c 127.004 72.594 126.355
 72.699 125.598 72.809 c 125.461 72.945 125.516 73.105 125.598 73.27 c 126.246
 73.297 l 126.438 73.324 126.547 73.461 126.547 73.621 c 126.547 73.785 
126.547 74 126.438 74.461 c 125.516 78.469 l 125.461 78.824 125.324 79.094
 125.324 79.363 c 125.324 79.637 125.461 79.797 125.949 79.797 c 126.52 
79.797 126.52 79.094 126.68 78.469 c 127.141 76.574 l 127.926 75.191 128.82
 73.676 129.199 73.676 c 129.363 73.676 129.445 73.758 129.551 73.867 c 
129.66 74 129.875 74.219 130.094 74.219 c 130.527 74.219 130.824 73.73 130.824
 73.297 c 130.824 72.973 130.582 72.539 129.984 72.539 c 129.172 72.539 
128.223 73.539 127.52 75.059 c h
127.465 75.031 m f
1 w
q 1 0 0 1 0 0 cm
45.637 99.285 m 49.836 99.285 l S Q
q 1 0 0 1 0 0 cm
85.918 49.625 m 84.621 45.633 l S Q
q 1 0 0 1 0 0 cm
144.297 68.594 m 147.695 66.125 l S Q
q 1 0 0 1 0 0 cm
147.695 132.445 m 144.297 129.977 l S Q
q 1 0 0 1 0 0 cm
85.918 148.945 m 84.621 152.941 l S Q
Q Q
showpage
%%Trailer
end
%%EOF
