<?xml version="1.0" encoding="UTF-8" standalone="no"?>
<svg
   xmlns:dc="http://purl.org/dc/elements/1.1/"
   xmlns:cc="http://creativecommons.org/ns#"
   xmlns:rdf="http://www.w3.org/1999/02/22-rdf-syntax-ns#"
   xmlns:svg="http://www.w3.org/2000/svg"
   xmlns="http://www.w3.org/2000/svg"
   xmlns:sodipodi="http://sodipodi.sourceforge.net/DTD/sodipodi-0.dtd"
   xmlns:inkscape="http://www.inkscape.org/namespaces/inkscape"
   height="200"
   version="1.1"
   width="200"
   id="svg61"
   sodipodi:docname="20190826..sphere_params_rd_small.svg"
   inkscape:version="0.92.4 (5da689c313, 2019-01-14)">
  <title
     id="title67">Sphere (parameters r, d)</title>
  <metadata
     id="metadata65">
    <rdf:RDF>
      <cc:Work
         rdf:about="">
        <dc:format>image/svg+xml</dc:format>
        <dc:type
           rdf:resource="http://purl.org/dc/dcmitype/StillImage" />
        <dc:title>Sphere (parameters r, d)</dc:title>
        <cc:license
           rdf:resource="http://creativecommons.org/licenses/by-sa/4.0/" />
        <dc:creator>
          <cc:Agent>
            <dc:title>Steven Baltakatei Sandoval (baltakatei.com)</dc:title>
          </cc:Agent>
        </dc:creator>
        <dc:rights>
          <cc:Agent>
            <dc:title>This work, &quot;Sphere (parameters r,d)&quot;, is a derivative of &quot;Poincare-sphere stokes.svg&quot; (https://commons.wikimedia.org/wiki/File:Poincare-sphere_stokes.svg) by Geek3 (https://commons.wikimedia.org/wiki/User:Geek3), used under CC BY 3.0 (https://creativecommons.org/licenses/by/3.0/). &quot;Sphere (parameters r,d)&quot; is licensed under CC BY-SA 4.0 (https://creativecommons.org/licenses/by-sa/4.0/) by Steven Baltakatei Sandoval (http://baltakatei.com)</dc:title>
          </cc:Agent>
        </dc:rights>
        <dc:date>2019-08-26T05:42Z</dc:date>
        <dc:source>https://commons.wikimedia.org/wiki/File:Poincare-sphere_stokes.svg</dc:source>
      </cc:Work>
      <cc:License
         rdf:about="http://creativecommons.org/licenses/by-sa/4.0/">
        <cc:permits
           rdf:resource="http://creativecommons.org/ns#Reproduction" />
        <cc:permits
           rdf:resource="http://creativecommons.org/ns#Distribution" />
        <cc:requires
           rdf:resource="http://creativecommons.org/ns#Notice" />
        <cc:requires
           rdf:resource="http://creativecommons.org/ns#Attribution" />
        <cc:permits
           rdf:resource="http://creativecommons.org/ns#DerivativeWorks" />
        <cc:requires
           rdf:resource="http://creativecommons.org/ns#ShareAlike" />
      </cc:License>
    </rdf:RDF>
  </metadata>
  <sodipodi:namedview
     pagecolor="#ffffff"
     bordercolor="#666666"
     borderopacity="1"
     objecttolerance="10"
     gridtolerance="10"
     guidetolerance="10"
     inkscape:pageopacity="0"
     inkscape:pageshadow="2"
     inkscape:window-width="1234"
     inkscape:window-height="853"
     id="namedview63"
     showgrid="false"
     inkscape:zoom="1.28"
     inkscape:cx="35.603353"
     inkscape:cy="107.08936"
     inkscape:window-x="0"
     inkscape:window-y="0"
     inkscape:window-maximized="0"
     inkscape:current-layer="svg61" />
  <desc
     id="desc4">Drawing of a sphere with radius r and diameter d.
rights: GNU Free Documentation license,
        Creative Commons Attribution ShareAlike 4.0 license</desc>
  <defs
     id="defs24">
    <marker
       id="arrow3"
       orient="auto"
       overflow="visible"
       style="overflow:visible">
      <path
         d="M 8.7185878,4.0337352 -2.2072895,0.01601326 8.7185884,-4.0017078 c -1.7454984,2.3720609 -1.7354408,5.6174519 -6e-7,8.035443 z"
         transform="scale(-0.8)"
         id="path6"
         inkscape:connector-curvature="0"
         style="fill:#000000;stroke:none" />
    </marker>
    <marker
       id="arrow4"
       orient="auto"
       overflow="visible"
       style="overflow:visible">
      <path
         d="M 8.7185878,4.0337352 -2.2072895,0.01601326 8.7185884,-4.0017078 c -1.7454984,2.3720609 -1.7354408,5.6174519 -6e-7,8.035443 z"
         transform="scale(0.8)"
         id="path9"
         inkscape:connector-curvature="0"
         style="fill:#000000;stroke:none" />
    </marker>
    <radialGradient
       cx="-55"
       cy="-154"
       gradientUnits="userSpaceOnUse"
       id="grad1"
       r="330"
       fx="-55"
       fy="-154">
      <stop
         offset="0"
         stop-color="#ffffff"
         stop-opacity="0.3"
         id="stop12" />
      <stop
         offset="1"
         stop-color="#dddddd"
         stop-opacity="0.3"
         id="stop14" />
    </radialGradient>
    <radialGradient
       cx="-22.000006"
       cy="-22.000006"
       gradientUnits="userSpaceOnUse"
       id="grad2"
       r="252.99998"
       fx="-22.000006"
       fy="-22.000006">
      <stop
         offset="0.6"
         stop-color="#cccccc"
         stop-opacity="0"
         id="stop17" />
      <stop
         offset="0.8"
         stop-color="#cccccc"
         stop-opacity="0.2"
         id="stop19" />
      <stop
         offset="1"
         stop-color="#333333"
         stop-opacity="0.2"
         id="stop21" />
    </radialGradient>
  </defs>
  <g
     font-size="80px"
     font-style="italic"
     transform="matrix(0.33331586,0,0,0.33331586,102.48959,112.96219)"
     id="g59"
     style="font-style:italic;font-size:80px;font-family:'Linux Libertine O';fill:none;stroke:#000000;stroke-width:2">
    <path
       d="M 220,0 A 220,75.244432 -180 0 0 -220,0"
       id="path27"
       inkscape:connector-curvature="0"
       style="stroke:#000000;stroke-dasharray:8, 6" />
    <path
       d="M 34.649154,-217.25431 A 220,87.368878 99.061594 0 1 -34.649154,217.25431"
       id="path29"
       inkscape:connector-curvature="0"
       style="stroke:#000000;stroke-dasharray:8, 6" />
    <path
       d="M -130.11514,-177.398 A 220,187.36316 53.741273 0 0 130.11514,177.398"
       id="path31"
       inkscape:connector-curvature="0"
       style="stroke:#000000;stroke-dasharray:8, 6" />
    <circle
       cx="0"
       cy="0"
       r="5"
       id="circle33"
       style="fill:#000000;stroke:none" />
    <line
       x1="0"
       x2="-148.53925"
       y1="0"
       y2="159.28883"
       id="line35"
       style="stroke:#000000;marker-end:url(#arrow3)" />
    <text
       transform="translate(-55,48.4)"
       id="text37"
       style="text-anchor:middle;fill:#000000;stroke:none">r</text>
    <circle
       cx="0"
       cy="0"
       r="220"
       id="circle39"
       style="fill:url(#grad1);stroke:none" />
    <circle
       cx="0"
       cy="0"
       r="220"
       id="circle41"
       style="fill:url(#grad2);stroke:none" />
    <path
       d="M 220,0 A 220,75.244432 -180 0 1 -220,0"
       id="path43"
       inkscape:connector-curvature="0" />
    <path
       d="M 34.649154,-217.25431 A 220,87.368878 99.061594 0 0 -34.649154,217.25431"
       id="path45"
       inkscape:connector-curvature="0" />
    <path
       d="M -130.11514,-177.398 A 220,187.36316 53.741273 0 1 130.11514,177.398"
       id="path47"
       inkscape:connector-curvature="0" />
    <circle
       cx="0"
       cy="0"
       r="220"
       id="circle49" />
    <line
       x1="-218.89999"
       x2="218.89999"
       y1="-231"
       y2="-231"
       id="line51"
       style="stroke:#000000;marker-start:url(#arrow4);marker-end:url(#arrow3)" />
    <line
       x1="-221.10001"
       x2="-221.10001"
       y1="-33"
       y2="-264"
       id="line53"
       style="stroke:#000000" />
    <line
       x1="221.10001"
       x2="221.10001"
       y1="-33"
       y2="-264"
       id="line55"
       style="stroke:#000000" />
    <text
       transform="translate(0,-236.5)"
       id="text57"
       style="text-anchor:middle;fill:#000000;stroke:none">d</text>
  </g>
</svg>
