<?xml version="1.0" encoding="UTF-8" standalone="no"?>
<!-- Created with Inkscape (http://www.inkscape.org/) -->

<svg
   xmlns:dc="http://purl.org/dc/elements/1.1/"
   xmlns:cc="http://creativecommons.org/ns#"
   xmlns:rdf="http://www.w3.org/1999/02/22-rdf-syntax-ns#"
   xmlns:svg="http://www.w3.org/2000/svg"
   xmlns="http://www.w3.org/2000/svg"
   xmlns:sodipodi="http://sodipodi.sourceforge.net/DTD/sodipodi-0.dtd"
   xmlns:inkscape="http://www.inkscape.org/namespaces/inkscape"
   width="200pt"
   height="130pt"
   id="svg3252"
   sodipodi:version="0.32"
   inkscape:version="0.92.4 (5da689c313, 2019-01-14)"
   version="1.0"
   sodipodi:docname="20190822..circular_segment_(params_sdArϕ).svg"
   inkscape:output_extension="org.inkscape.output.svg.inkscape">
  <title
     id="title880">Circular Segment (parameters s, d, A, r, ϕ)</title>
  <defs
     id="defs3254">
    <inkscape:path-effect
       effect="bspline"
       id="path-effect936"
       is_visible="true"
       weight="33.333333"
       steps="2"
       helper_size="0"
       apply_no_weight="true"
       apply_with_weight="true"
       only_selected="false" />
    <marker
       inkscape:stockid="Arrow1Lstart"
       orient="auto"
       refY="0"
       refX="0"
       id="Arrow1Lstart"
       style="overflow:visible">
      <path
         id="path3927"
         d="M 0,0 5,-5 -12.5,0 5,5 Z"
         style="fill-rule:evenodd;stroke:#000000;stroke-width:1.00000003pt;marker-start:none"
         transform="matrix(0.8,0,0,0.8,10,0)"
         inkscape:connector-curvature="0" />
    </marker>
    <marker
       inkscape:stockid="Arrow2Lend"
       orient="auto"
       refY="0"
       refX="0"
       id="Arrow2Lend"
       style="overflow:visible">
      <path
         id="path3253"
         style="font-size:12px;fill-rule:evenodd;stroke-width:0.625;stroke-linejoin:round"
         d="M 8.7185878,4.0337352 -2.2072895,0.01601326 8.7185884,-4.0017078 c -1.7454984,2.3720609 -1.7354408,5.6174519 -6e-7,8.035443 z"
         transform="matrix(-1.1,0,0,-1.1,-1.1,0)"
         inkscape:connector-curvature="0" />
    </marker>
    <marker
       inkscape:stockid="Arrow1Lend"
       orient="auto"
       refY="0"
       refX="0"
       id="Arrow1Lend"
       style="overflow:visible">
      <path
         id="path3235"
         d="M 0,0 5,-5 -12.5,0 5,5 Z"
         style="fill-rule:evenodd;stroke:#000000;stroke-width:1.00000003pt;marker-start:none"
         transform="matrix(-0.8,0,0,-0.8,-10,0)"
         inkscape:connector-curvature="0" />
    </marker>
    <inkscape:perspective
       sodipodi:type="inkscape:persp3d"
       inkscape:vp_x="0 : 526.18109 : 1"
       inkscape:vp_y="0 : 1000 : 0"
       inkscape:vp_z="744.09448 : 526.18109 : 1"
       inkscape:persp3d-origin="372.04724 : 350.78739 : 1"
       id="perspective3260" />
    <inkscape:perspective
       id="perspective2419"
       inkscape:persp3d-origin="372.04724 : 350.78739 : 1"
       inkscape:vp_z="744.09448 : 526.18109 : 1"
       inkscape:vp_y="0 : 1000 : 0"
       inkscape:vp_x="0 : 526.18109 : 1"
       sodipodi:type="inkscape:persp3d" />
  </defs>
  <sodipodi:namedview
     id="base"
     pagecolor="#ffffff"
     bordercolor="#666666"
     borderopacity="1.0"
     gridtolerance="10000"
     guidetolerance="10"
     objecttolerance="10"
     inkscape:pageopacity="0.0"
     inkscape:pageshadow="2"
     inkscape:zoom="2.823747"
     inkscape:cx="36.161194"
     inkscape:cy="107.06807"
     inkscape:document-units="pt"
     inkscape:current-layer="layer1"
     showgrid="false"
     inkscape:window-width="1920"
     inkscape:window-height="1043"
     inkscape:window-x="0"
     inkscape:window-y="0"
     showguides="true"
     inkscape:guide-bbox="true"
     inkscape:window-maximized="1"
     units="pt" />
  <metadata
     id="metadata3257">
    <rdf:RDF>
      <cc:Work
         rdf:about="">
        <dc:format>image/svg+xml</dc:format>
        <dc:type
           rdf:resource="http://purl.org/dc/dcmitype/StillImage" />
        <dc:title>Circular Segment (parameters s, d, A, r, ϕ)</dc:title>
        <dc:creator>
          <cc:Agent>
            <dc:title>Steven Baltakatei Sandoval (baltakatei.com)</dc:title>
          </cc:Agent>
        </dc:creator>
        <dc:rights>
          <cc:Agent>
            <dc:title>This work, &quot;Circular Segment (parameters s, d, A, r, ϕ)&quot;, is a derivative of &quot;https://commons.wikimedia.org/wiki/File:Circularsegment.svg&quot; by Sbesson, released to the public domain. &quot;Circular Segment (parameters s, d, A, r, ϕ)&quot; is licensed under CC BY-SA 4.0 by Steven Baltakatei Sandoval.</dc:title>
          </cc:Agent>
        </dc:rights>
        <cc:license
           rdf:resource="http://creativecommons.org/licenses/by-sa/4.0/" />
        <dc:date>2019-08-22T23:42Z</dc:date>
        <dc:source>https://commons.wikimedia.org/wiki/File:Circularsegment.svg</dc:source>
      </cc:Work>
      <cc:License
         rdf:about="http://creativecommons.org/licenses/by-sa/4.0/">
        <cc:permits
           rdf:resource="http://creativecommons.org/ns#Reproduction" />
        <cc:permits
           rdf:resource="http://creativecommons.org/ns#Distribution" />
        <cc:requires
           rdf:resource="http://creativecommons.org/ns#Notice" />
        <cc:requires
           rdf:resource="http://creativecommons.org/ns#Attribution" />
        <cc:permits
           rdf:resource="http://creativecommons.org/ns#DerivativeWorks" />
        <cc:requires
           rdf:resource="http://creativecommons.org/ns#ShareAlike" />
      </cc:License>
    </rdf:RDF>
  </metadata>
  <g
     inkscape:label="Layer 1"
     inkscape:groupmode="layer"
     id="layer1"
     transform="translate(-352.12612,-297.75937)">
    <path
       style="opacity:1;fill:#6aff86;fill-opacity:1;fill-rule:nonzero;stroke:none;stroke-width:1.61333084;stroke-linecap:round;stroke-linejoin:round;stroke-miterlimit:4;stroke-dasharray:none;stroke-dashoffset:0;stroke-opacity:1"
       d="m 506.10225,342.41038 c -36.78502,0.16534 -72.6306,18.94793 -92.96875,52.75 l 1.15625,0.6875 H 600.196 c -9.62681,-16.29013 -21.35873,-28.10665 -37.59375,-37.875 -17.70585,-10.65332 -37.23166,-15.64911 -56.5,-15.5625 z"
       id="path3387"
       inkscape:connector-curvature="0" />
    <line
       style="fill:none;stroke:#000000;stroke-width:0.88400143;stroke-miterlimit:4;stroke-dasharray:none"
       id="line9"
       y2="342.90607"
       x2="502.87805"
       y1="342.90607"
       x1="372.63409" />
    <path
       sodipodi:type="arc"
       style="opacity:1;fill:none;fill-opacity:1;fill-rule:evenodd;stroke:#000000;stroke-width:1.38058341;stroke-linecap:square;stroke-linejoin:miter;stroke-miterlimit:4;stroke-dasharray:none;stroke-dashoffset:0;stroke-opacity:1"
       id="path3242"
       sodipodi:cx="-450.53571"
       sodipodi:cy="508.05911"
       sodipodi:rx="7.7636204"
       sodipodi:ry="8.3797808"
       d="m -446.341,501.00777 a 7.7636204,8.3797808 0 0 1 3.56891,7.05134 7.7636204,8.3797808 0 0 1 -3.56891,7.05134"
       sodipodi:start="5.2831853"
       sodipodi:end="0.99999999"
       transform="rotate(-90)"
       sodipodi:open="true" />
    <text
       xml:space="preserve"
       style="font-style:normal;font-variant:normal;font-weight:normal;font-stretch:normal;line-height:0%;font-family:'Bitstream Vera Sans';text-align:start;writing-mode:lr-tb;text-anchor:start;fill:#000000;fill-opacity:1;stroke:none;stroke-width:1px;stroke-linecap:butt;stroke-linejoin:miter;stroke-opacity:1"
       x="503.68585"
       y="435.89795"
       id="text3248"><tspan
         sodipodi:role="line"
         x="503.68585"
         y="435.89795"
         style="font-style:italic;font-variant:normal;font-weight:normal;font-stretch:normal;font-size:24px;line-height:1.25;font-family:'Linux Libertine O';-inkscape-font-specification:'Linux Libertine O Italic'"
         id="tspan928">ϕ</tspan></text>
    <path
       style="display:inline;fill:none;fill-rule:evenodd;stroke:#000000;stroke-width:2;stroke-linecap:butt;stroke-linejoin:miter;stroke-miterlimit:4;stroke-dasharray:12, 12;stroke-dashoffset:0;stroke-opacity:1"
       d="M 599.3222,395.81955 H 415.01067"
       id="path3297"
       inkscape:connector-curvature="0" />
    <text
       xml:space="preserve"
       style="font-style:normal;font-variant:normal;font-weight:normal;font-stretch:normal;line-height:0%;font-family:'Bitstream Vera Sans';text-align:start;writing-mode:lr-tb;text-anchor:start;fill:#000000;fill-opacity:1;stroke:none;stroke-width:1px;stroke-linecap:butt;stroke-linejoin:miter;stroke-opacity:1"
       x="557.04449"
       y="451.54706"
       id="text3194"><tspan
         sodipodi:role="line"
         id="tspan3196"
         x="557.04449"
         y="451.54706"
         style="font-style:italic;font-variant:normal;font-weight:normal;font-stretch:normal;font-size:24px;line-height:1.25;font-family:'Linux Libertine O';-inkscape-font-specification:'Linux Libertine O Italic'">r</tspan></text>
    <text
       xml:space="preserve"
       style="font-style:normal;font-variant:normal;font-weight:normal;font-stretch:normal;line-height:0%;font-family:'Bitstream Vera Sans';text-align:start;writing-mode:lr-tb;text-anchor:start;fill:#000000;fill-opacity:1;stroke:none;stroke-width:1px;stroke-linecap:butt;stroke-linejoin:miter;stroke-opacity:1"
       x="362.21289"
       y="376.24075"
       id="text3202"><tspan
         sodipodi:role="line"
         id="tspan3204"
         x="362.21289"
         y="376.24075"
         style="font-style:italic;font-variant:normal;font-weight:normal;font-stretch:normal;font-size:24px;line-height:1.25;font-family:'Linux Libertine O';-inkscape-font-specification:'Linux Libertine O Italic'">d</tspan></text>
    <line
       style="display:inline;fill:none;stroke:#000000;stroke-width:0.88400143;stroke-miterlimit:4;stroke-dasharray:none"
       id="line3210"
       y2="395.77451"
       x2="433.75519"
       y1="395.77451"
       x1="372.26663" />
    <text
       xml:space="preserve"
       style="font-style:normal;font-variant:normal;font-weight:normal;font-stretch:normal;line-height:0%;font-family:'Bitstream Vera Sans';text-align:start;writing-mode:lr-tb;text-anchor:start;display:inline;fill:#000000;fill-opacity:1;stroke:none;stroke-width:1px;stroke-linecap:butt;stroke-linejoin:miter;stroke-opacity:1"
       x="503.35095"
       y="327.78476"
       id="text3214"
       inkscape:label="circle_arc_minor_length_label"><tspan
         sodipodi:role="line"
         id="tspan3216"
         x="503.35095"
         y="327.78476"
         style="font-style:italic;font-variant:normal;font-weight:normal;font-stretch:normal;font-size:24px;line-height:1.25;font-family:'Linux Libertine O';-inkscape-font-specification:'Linux Libertine O Italic'">s</tspan></text>
    <circle
       style="display:none;opacity:1;fill:none;fill-opacity:1;fill-rule:nonzero;stroke:#000000;stroke-width:2;stroke-linecap:round;stroke-linejoin:round;stroke-miterlimit:4;stroke-dasharray:none;stroke-dashoffset:0;stroke-opacity:1"
       id="path3377"
       transform="matrix(0.8066654,0,0,0.8066654,378.29034,240.38638)"
       cx="150"
       cy="150"
       r="135"
       inkscape:label="circle_full" />
    <path
       sodipodi:type="arc"
       style="display:inline;opacity:1;fill:none;fill-opacity:1;fill-rule:nonzero;stroke:#000000;stroke-width:1.61333084;stroke-linecap:round;stroke-linejoin:round;stroke-miterlimit:4;stroke-dasharray:none;stroke-dashoffset:0;stroke-opacity:1"
       id="path3385"
       sodipodi:cx="507.22473"
       sodipodi:cy="451.94217"
       sodipodi:rx="108.89983"
       sodipodi:ry="108.89983"
       d="m 413.91328,395.79819 a 108.89983,108.89983 0 0 1 93.84757,-52.75453 108.89983,108.89983 0 0 1 93.3236,53.67599 l -93.85972,55.22252 z"
       sodipodi:start="3.6832492"
       sodipodi:end="5.7513748"
       inkscape:label="circle_segment" />
    <path
       sodipodi:type="arc"
       style="display:inline;opacity:1;fill:none;fill-opacity:1;fill-rule:nonzero;stroke:#000000;stroke-width:1;stroke-linecap:round;stroke-linejoin:round;stroke-miterlimit:4;stroke-dasharray:none;stroke-dashoffset:0;stroke-opacity:1;marker-start:url(#Arrow1Lstart);marker-end:url(#Arrow2Lend)"
       id="path3401"
       sodipodi:cx="505.94894"
       sodipodi:cy="439.78342"
       sodipodi:rx="108.89983"
       sodipodi:ry="108.89983"
       d="m 412.63749,383.63944 a 108.89983,108.89983 0 0 1 93.72952,-52.75505 108.89983,108.89983 0 0 1 93.32171,53.47315"
       sodipodi:start="3.6832492"
       sodipodi:end="5.7492068"
       sodipodi:open="true"
       inkscape:label="circle_arc_minor_length" />
    <line
       style="display:inline;fill:none;stroke:#000000;stroke-width:0.94529653;stroke-miterlimit:4;stroke-dasharray:none;marker-start:url(#Arrow1Lstart);marker-end:url(#Arrow2Lend)"
       id="line6832"
       y2="393.59262"
       x2="385.14154"
       y1="344.53427"
       x1="385.14154"
       inkscape:label="circle_segment_sagitta_indicator" />
    <line
       style="display:inline;fill:none;stroke:#000000;stroke-width:1;stroke-miterlimit:4;stroke-dasharray:none;marker-start:url(#Arrow1Lstart);marker-end:url(#Arrow2Lend)"
       id="line6834"
       y2="457.59296"
       x2="513.44464"
       y1="405.72757"
       x1="603.27814"
       inkscape:label="circle_radius_indicator" />
    <path
       style="fill:none;stroke:#000000;stroke-width:1px;stroke-linecap:butt;stroke-linejoin:miter;stroke-opacity:1"
       d="m 579.12946,252.23455 c -7.08157,3.06868 -14.16369,6.1376 -16.82047,3.7171 -2.65677,-2.42051 -0.88624,-10.32888 -6.55208,-8.02688 -5.66585,2.302 -18.76901,14.81494 -31.87319,27.32884"
       id="path934"
       inkscape:connector-curvature="0"
       inkscape:path-effect="#path-effect936"
       inkscape:original-d="m 579.12946,252.23455 c -7.08178,3.06821 -14.1639,6.13713 -21.24837,9.20763 1.77187,-7.91087 3.5424,-15.81924 5.3121,-23.72735 -13.10215,12.51192 -26.20532,25.02485 -39.30947,37.53878"
       sodipodi:nodetypes="cccc"
       transform="translate(8.1452057,90.305541)" />
    <text
       xml:space="preserve"
       style="font-style:normal;font-variant:normal;font-weight:normal;font-stretch:normal;font-size:40px;line-height:1.25;font-family:'Linux Libertine O';-inkscape-font-specification:'Linux Libertine O';letter-spacing:0px;word-spacing:0px;fill:#000000;fill-opacity:1;stroke:none"
       x="582.31671"
       y="339.70697"
       id="text940"><tspan
         sodipodi:role="line"
         id="tspan938"
         x="582.31671"
         y="339.70697"
         style="font-style:italic;font-size:24px">A</tspan></text>
  </g>
</svg>
