%!PS-Adobe-3.0 EPSF-3.0
%%Creator: cairo 1.16.0 (https://cairographics.org)
%%CreationDate: Mon Aug 26 07:42:27 2019
%%Pages: 1
%%DocumentData: Clean7Bit
%%LanguageLevel: 2
%%BoundingBox: 6 27 287 185
%%EndComments
%%BeginProlog
50 dict begin
/q { gsave } bind def
/Q { grestore } bind def
/cm { 6 array astore concat } bind def
/w { setlinewidth } bind def
/J { setlinecap } bind def
/j { setlinejoin } bind def
/M { setmiterlimit } bind def
/d { setdash } bind def
/m { moveto } bind def
/l { lineto } bind def
/c { curveto } bind def
/h { closepath } bind def
/re { exch dup neg 3 1 roll 5 3 roll moveto 0 rlineto
      0 exch rlineto 0 rlineto closepath } bind def
/S { stroke } bind def
/f { fill } bind def
/f* { eofill } bind def
/n { newpath } bind def
/W { clip } bind def
/W* { eoclip } bind def
/BT { } bind def
/ET { } bind def
/BDC { mark 3 1 roll /BDC pdfmark } bind def
/EMC { mark /EMC pdfmark } bind def
/cairo_store_point { /cairo_point_y exch def /cairo_point_x exch def } def
/Tj { show currentpoint cairo_store_point } bind def
/TJ {
  {
    dup
    type /stringtype eq
    { show } { -0.001 mul 0 cairo_font_matrix dtransform rmoveto } ifelse
  } forall
  currentpoint cairo_store_point
} bind def
/cairo_selectfont { cairo_font_matrix aload pop pop pop 0 0 6 array astore
    cairo_font exch selectfont cairo_point_x cairo_point_y moveto } bind def
/Tf { pop /cairo_font exch def /cairo_font_matrix where
      { pop cairo_selectfont } if } bind def
/Td { matrix translate cairo_font_matrix matrix concatmatrix dup
      /cairo_font_matrix exch def dup 4 get exch 5 get cairo_store_point
      /cairo_font where { pop cairo_selectfont } if } bind def
/Tm { 2 copy 8 2 roll 6 array astore /cairo_font_matrix exch def
      cairo_store_point /cairo_font where { pop cairo_selectfont } if } bind def
/g { setgray } bind def
/rg { setrgbcolor } bind def
/d1 { setcachedevice } bind def
/cairo_data_source {
  CairoDataIndex CairoData length lt
    { CairoData CairoDataIndex get /CairoDataIndex CairoDataIndex 1 add def }
    { () } ifelse
} def
/cairo_flush_ascii85_file { cairo_ascii85_file status { cairo_ascii85_file flushfile } if } def
/cairo_image { image cairo_flush_ascii85_file } def
/cairo_imagemask { imagemask cairo_flush_ascii85_file } def
%%EndProlog
%%BeginSetup
%%EndSetup
%%Page: 1 1
%%BeginPageSetup
%%PageBoundingBox: 6 27 287 185
%%EndPageSetup
q 6 27 281 158 rectclip
1 0 0 -1 0 200 cm q
0 g
1 w
1 J
0 j
[] 0.0 d
4 M q 1 0 0 1 0 0 cm
216.75 144.918 m 155.047 144.918 93.344 144.918 31.641 144.918 c 31.641
 144.918 74.215 41.875 74.215 41.875 c S Q
q -1 0 0 -1 0 0 cm
-74.215 -41.875 m -135.918 -41.875 -197.621 -41.875 -259.324 -41.875 c 
-259.324 -41.875 -216.75 -144.918 -216.75 -144.918 c S Q
0.75 w
0 J
q 0 1 -1 0 0 0 cm
133.625 -6.762 m 136.848 -14.562 140.004 -22.195 143.191 -29.914 c S Q
q 0 1 -1 0 0 0 cm
30.582 -49.336 m 33.805 -57.137 36.957 -64.77 40.148 -72.488 c S Q
0.75 w
[ 6 0.75] 0 d
q 1 0 0 1 0 0 cm
19.258 136.59 m 32.875 103.637 46.488 70.688 60.102 37.738 c S Q
22.125 129.656 m 20.496 125.738 l 19.258 136.59 l 26.043 128.031 l h
22.125 129.656 m f*
0.739375 w
[] 0.0 d
q 0.413174 -1 1 0.413174 0 0 cm
-102.941 64.658 m -100.17 61.884 l -109.876 64.656 l -100.171 67.431 l 
h
-102.941 64.658 m S Q
57.238 44.668 m 58.867 48.586 l 60.102 37.738 l 53.32 46.297 l h
57.238 44.668 m f*
0.739375 w
q -0.413174 1 -1 -0.413174 0 0 cm
17.954 -64.656 m 20.725 -67.43 l 11.024 -64.656 l 20.728 -61.885 l h
17.954 -64.656 m S Q
0.794693 w
q -1 0.426155 -0.426155 -1 0 0 cm
26.112 -135.521 m 29.076 -142.695 31.979 -149.719 34.911 -156.818 c S Q
q -1 0.426155 -0.426155 -1 0 0 cm
-130.547 -202.282 m -127.583 -209.456 -124.679 -216.48 -121.748 -223.579
 c S Q
0.691236 w
[ 5.529891 0.691236] 0 d
q 0.421013 1 -1 0.421013 0 0 cm
147.079 28.11 m 168.661 -23.124 190.24 -74.36 211.82 -125.59 c S Q
41.312 158.914 m 44.312 155.914 l 33.812 158.914 l 44.312 161.914 l h
41.312 158.914 m f*
0.8 w
[] 0.0 d
q 1 0.00018079 -0.00018079 1 0 0 cm
41.341 158.907 m 44.341 155.906 l 33.841 158.908 l 44.342 161.906 l h
41.341 158.907 m S Q
207.27 158.945 m 204.27 161.945 l 214.77 158.945 l 204.27 155.945 l h
207.27 158.945 m f*
q -1 -0.00018079 0.00018079 -1 0 0 cm
-207.298 -158.908 m -204.299 -161.908 l -214.798 -158.906 l -204.298 -155.908
 l h
-207.298 -158.908 m S Q
0.689961 w
q -0.426155 -1 1 -0.426155 0 0 cm
-138.389 227.126 m -135.424 219.949 -132.521 212.928 -129.589 205.826 c
 S Q
0.694026 w
q -0.409643 -1 1 -0.409643 0 0 cm
-223.84 192.68 m -216.203 174.094 -208.724 155.904 -201.169 137.518 c S Q
0.689961 w
[ 5.519687 0.689961] 0 d
q -1 0.426155 -0.426155 -1 0 0 cm
-215.892 -135.043 m -204.105 -163.289 -192.322 -191.533 -180.538 -219.781
 c S Q
273.496 50.539 m 276.52 53.516 l 273.441 43.039 l 270.52 53.562 l h
273.496 50.539 m f*
0.799977 w
[] 0.0 d
q 0.00757804 1 -1 0.00757804 0 0 cm
52.609 -273.097 m 55.608 -276.098 l 45.109 -273.1 l 55.609 -270.098 l h
52.609 -273.097 m S Q
274.141 135.344 m 271.117 132.367 l 274.199 142.844 l 277.117 132.32 l 
h
274.141 135.344 m f*
q -0.00757804 -1 1 -0.00757804 0 0 cm
-137.413 273.099 m -134.414 270.099 l -144.913 273.101 l -134.413 276.099
 l h
-137.413 273.099 m S Q
0.75 w
[ 6 0.75] 0 d
q 1 0 0 1 0 0 cm
76.258 43.766 m 122.422 76.84 168.582 109.914 214.746 142.992 c S Q
82.355 48.133 m 86.543 47.441 l 76.258 43.766 l 83.047 52.32 l h
82.355 48.133 m f*
0.650301 w
[] 0.0 d
q 1 0.716513 -0.716513 1 0 0 cm
77.206 -7.186 m 79.646 -9.626 l 71.109 -7.185 l 79.646 -4.747 l h
77.206 -7.186 m S Q
208.648 138.621 m 204.461 139.312 l 214.746 142.992 l 207.957 134.438 l
 h
208.648 138.621 m f*
0.650301 w
q -1 -0.716513 0.716513 -1 0 0 cm
-203.498 7.188 m -201.059 4.749 l -209.597 7.187 l -201.061 9.625 l h
-203.498 7.188 m S Q
0.635637 w
[ 5.085099 0.635637] 0 d
q 0.626264 -1 1 0.626264 0 0 cm
-87.391 89.288 m -30.244 127.421 26.903 165.554 84.052 203.69 c S Q
41.398 140.23 m 42.902 136.266 l 34.559 143.309 l 45.363 141.738 l h
41.398 140.23 m f*
0.729532 w
[] 0.0 d
q 1 -0.450018 0.450018 1 0 0 cm
-18.052 132.107 m -15.318 129.372 l -24.892 132.107 l -15.319 134.844 l
 h
-18.052 132.107 m S Q
249.488 46.59 m 247.98 50.555 l 256.328 43.512 l 245.52 45.082 l h
249.488 46.59 m f*
q -1 0.450018 -0.450018 -1 0 0 cm
-190.037 -132.11 m -187.299 -134.843 l -196.876 -132.11 l -187.3 -129.371
 l h
-190.037 -132.11 m S Q
0.75 w
q 1 0 0 1 0 0 cm
94.023 78.402 m 96.496 79.59 98.969 80.777 101.055 80.918 c 103.145 81.062
 104.848 80.164 106.309 78.277 c 107.773 76.387 108.996 73.508 110.219 70.629
 c S Q
109.047 73.391 m 109.84 75.355 l 110.512 69.938 l 107.078 74.184 l h
109.047 73.391 m f*
0.368132 w
q -0.424999 1 -1 -0.424999 0 0 cm
22.908 -118.783 m 24.287 -120.162 l 19.456 -118.78 l 24.288 -117.401 l 
h
22.908 -118.783 m S Q
0.863845 w
q 1 0 0 1 0 0 cm
194.227 87.043 m 190.125 87.547 186.023 88.051 183.969 86.789 c 181.918
 85.527 181.918 82.504 181.918 79.484 c S Q
181.918 82.938 m 183.645 84.668 l 181.918 78.621 l 180.191 84.668 l h
181.918 82.938 m f*
0.460718 w
q 0 1 -1 0 0 0 cm
82.938 -181.918 m 84.668 -183.645 l 78.621 -181.918 l 84.668 -180.191 l
 h
82.938 -181.918 m S Q
1.151794 w
q 1 0 0 1 0 0 cm
248.203 68.883 m 237.281 64.383 230.141 53.75 230.117 41.938 c 259.324 
41.875 l h
248.203 68.883 m S Q
0.75 w
q 1 0 0 1 0 0 cm
217.105 31.207 m 213.23 34.578 209.352 37.949 208.965 41.383 c 208.578 
44.812 211.684 48.301 215.656 49.414 c 219.629 50.527 224.562 49.242 229.449
 47.969 c S Q
226.547 48.727 m 225.473 50.555 l 230.176 47.781 l 224.715 47.652 l h
226.547 48.727 m f*
0.38709 w
q -1 0.260416 -0.260416 -1 0 0 cm
-200.276 -100.881 m -198.824 -102.332 l -203.905 -100.881 l -198.822 -99.429
 l h
-200.276 -100.881 m S Q
84.703 75.539 m 83.633 77.473 82.426 78.961 81.562 78.961 c 80.871 78.961
 80.699 77.715 80.699 76.473 c 80.699 74.191 82.355 70.98 84.359 70.98 c
 85.188 70.98 85.707 72.121 85.707 72.879 c 85.707 73.363 85.359 74.367 
84.703 75.539 c h
84.703 77.234 m 84.566 77.785 l 84.43 78.305 84.359 78.719 84.359 78.996
 c 84.359 79.41 84.496 79.961 85.223 79.961 c 86.605 79.961 87.469 79.098
 88.02 77.855 c 87.883 77.68 87.812 77.508 87.535 77.508 c 86.949 78.305
 86.535 78.648 86.293 78.648 c 86.223 78.648 86.051 78.613 86.051 78.371
 c 86.051 78.164 86.191 77.543 86.258 77.129 c 88.574 67.078 l 88.883 65.66
 89.125 64.797 89.125 64.797 c 89.125 64.625 89.059 64.555 88.848 64.555
 c 88.262 64.797 86.707 65.074 85.809 65.145 c 85.742 65.66 l 85.742 65.73
 85.773 65.766 85.844 65.766 c 86.535 65.801 l 86.812 65.801 86.984 65.938
 86.984 66.422 c 86.984 66.664 86.914 67.043 86.812 67.492 c 86.016 71.395
 l 85.742 70.738 85.117 70.188 84.289 70.188 c 81.941 70.188 78.969 73.434
 78.969 76.852 c 78.969 78.027 79.281 79.961 81.18 79.961 c 82.32 79.961
 83.355 79.098 84.637 77.199 c h
84.703 77.234 m f
92.266 81.223 m 92.266 75.938 l 92.266 75.039 92.266 74.105 92.297 73.898
 c 92.297 73.832 92.266 73.832 92.23 73.832 c 91.367 74.348 90.57 74.73 
89.223 75.352 c 89.258 75.523 89.328 75.66 89.465 75.766 c 90.156 75.488
 90.504 75.387 90.777 75.387 c 91.02 75.387 91.09 75.73 91.09 76.25 c 91.09
 81.223 l 91.09 82.5 90.676 82.57 89.605 82.605 c 89.535 82.707 89.535 83.02
 89.605 83.121 c 90.363 83.09 90.883 83.09 91.746 83.09 c 92.438 83.09 92.816
 83.09 93.578 83.121 c 93.68 83.02 93.68 82.707 93.578 82.605 c 92.539 82.57
 92.266 82.5 92.266 81.223 c h
92.266 81.223 m f
202.391 85.074 m 201.32 87.012 200.113 88.496 199.25 88.496 c 198.559 88.496
 198.387 87.254 198.387 86.008 c 198.387 83.73 200.043 80.516 202.047 80.516
 c 202.875 80.516 203.395 81.656 203.395 82.418 c 203.395 82.898 203.047
 83.902 202.391 85.074 c h
202.391 86.77 m 202.254 87.32 l 202.117 87.84 202.047 88.254 202.047 88.531
 c 202.047 88.945 202.184 89.496 202.91 89.496 c 204.293 89.496 205.156 
88.633 205.707 87.391 c 205.57 87.219 205.5 87.043 205.227 87.043 c 204.637
 87.84 204.223 88.184 203.98 88.184 c 203.91 88.184 203.738 88.148 203.738
 87.91 c 203.738 87.703 203.879 87.078 203.945 86.664 c 206.262 76.613 l
 206.57 75.195 206.812 74.332 206.812 74.332 c 206.812 74.16 206.746 74.09
 206.539 74.09 c 205.949 74.332 204.395 74.609 203.496 74.68 c 203.43 75.195
 l 203.43 75.266 203.465 75.301 203.531 75.301 c 204.223 75.336 l 204.5 
75.336 204.672 75.473 204.672 75.957 c 204.672 76.199 204.602 76.578 204.5
 77.027 c 203.703 80.93 l 203.43 80.273 202.809 79.723 201.977 79.723 c 
199.629 79.723 196.656 82.969 196.656 86.387 c 196.656 87.562 196.969 89.496
 198.867 89.496 c 200.008 89.496 201.047 88.633 202.324 86.734 c h
202.391 86.77 m f
206.496 85.508 m 206.496 85.82 206.773 86.094 207.117 86.094 c 207.359 
86.094 207.809 85.82 207.809 85.473 c 207.809 85.371 207.773 85.266 207.773
 85.164 c 207.742 85.059 207.637 84.922 207.637 84.781 c 207.637 84.402 
208.016 83.852 209.156 83.852 c 209.711 83.852 210.469 84.23 210.469 85.715
 c 210.469 86.684 210.125 87.477 209.227 88.375 c 208.086 89.516 l 206.602
 91.035 206.359 91.762 206.359 92.66 c 206.359 92.66 207.117 92.625 207.637
 92.625 c 210.297 92.625 l 210.781 92.625 211.473 92.66 211.473 92.66 c 
211.68 91.863 211.816 90.691 211.852 90.242 c 211.746 90.172 211.539 90.137
 211.402 90.172 c 211.125 91.242 210.883 91.621 210.332 91.621 c 207.637
 91.621 l 207.637 90.898 208.672 89.859 208.742 89.793 c 210.297 88.305 
l 211.16 87.477 211.816 86.82 211.816 85.645 c 211.816 83.988 210.469 83.332
 209.227 83.332 c 207.535 83.332 206.496 84.574 206.496 85.508 c h
206.496 85.508 m f
277.973 91.836 m 278.805 88.207 l 280.184 86.41 281.602 85.133 282.395 
85.133 c 282.879 85.133 283.156 85.27 283.156 85.961 c 283.156 86.238 283.121
 86.652 282.949 87.414 c 282.117 90.902 l 281.945 91.594 281.738 92.492 
281.738 92.906 c 281.738 93.32 281.98 93.629 282.637 93.629 c 283.707 93.629
 284.676 92.906 285.676 91.594 c 285.609 91.418 285.504 91.246 285.191 91.246
 c 284.605 91.902 283.984 92.316 283.777 92.316 c 283.57 92.316 283.535 
92.215 283.535 91.973 c 283.535 91.766 283.641 91.281 283.777 90.73 c 284.605
 87.238 l 284.777 86.48 284.883 85.961 284.883 85.582 c 284.883 84.27 284.297
 83.82 283.465 83.82 c 282.328 83.82 281.152 84.27 279.184 86.617 c 280.496
 80.676 l 280.805 79.262 281.047 78.363 281.047 78.363 c 281.047 78.223 
280.98 78.156 280.773 78.156 c 280.184 78.363 278.629 78.672 277.73 78.742
 c 277.664 79.262 l 277.664 79.328 277.699 79.363 277.766 79.363 c 278.457
 79.398 l 278.734 79.398 278.906 79.535 278.906 80.02 c 278.906 80.262 278.836
 80.641 278.77 81.125 c 276.352 91.836 l 276.246 92.281 276.074 92.836 276.074
 93.043 c 276.074 93.422 276.281 93.629 276.973 93.629 c 277.801 93.629 
277.801 92.664 277.973 91.836 c h
277.973 91.836 m f
130.539 162.367 m 129.949 162.297 129.676 162.23 128.812 162.23 c 126.461
 162.23 123.32 165.648 123.32 169.066 c 123.32 170.312 123.594 172.004 125.426
 172.004 c 126.602 172.004 127.809 170.828 129.121 168.895 c 129.156 168.93
 l 128.879 169.828 l 128.707 170.348 128.637 170.762 128.637 171.039 c 128.637
 171.453 128.812 172.004 129.535 172.004 c 130.883 172.004 131.781 171.141
 132.336 169.898 c 132.195 169.723 132.129 169.551 131.816 169.551 c 131.23
 170.348 130.816 170.691 130.605 170.691 c 130.539 170.691 130.367 170.656
 130.367 170.414 c 130.367 170.207 130.469 169.586 130.574 169.172 c 132.059
 162.402 l 131.539 162.402 130.988 162.469 130.539 162.367 c h
129.469 167.031 m 128.398 169 126.703 170.828 126.012 170.828 c 125.289
 170.828 125.082 169.934 125.082 168.723 c 125.082 166.41 126.875 162.918
 128.879 162.918 c 129.328 162.918 129.812 163.059 130.227 163.336 c 130.227
 163.336 130.02 165.648 129.469 167.031 c h
129.469 167.031 m f
34.832 71.547 m 35.109 70.199 35.348 69.371 35.348 69.371 c 35.348 69.23
 35.281 69.164 35.109 69.164 c 34.555 69.371 33.07 69.645 32.207 69.68 c
 32.137 70.199 l 32.137 70.27 32.172 70.301 32.242 70.301 c 32.898 70.336
 l 33.172 70.336 33.312 70.477 33.312 70.926 c 33.312 71.133 33.277 71.477
 33.172 71.926 c 31.066 81.355 l 30.754 82.633 31.309 83.738 33.172 83.738
 c 33.797 83.738 34.59 83.465 35.316 82.98 c 37.18 81.703 39.078 79.078 
39.078 76.934 c 39.078 75.555 38.805 74.48 36.938 74.48 c 35.523 74.48 34.453
 75.793 33.727 76.625 c 33.691 76.625 l h
37.387 77.348 m 37.387 80.32 34.832 83.016 33.277 83.016 c 32.516 83.016
 32.379 82.219 32.723 80.805 c 33.414 77.867 l 34.383 76.727 35.316 75.449
 36.316 75.449 c 36.938 75.449 37.387 75.934 37.387 77.348 c h
37.387 77.348 m f
222.355 35.223 m 222.84 34.012 223.152 32.562 223.461 31.008 c 227.191 
30.66 229.438 27.379 229.438 24.512 c 229.438 22.406 228.023 21.23 225.672
 21.129 c 225.914 20.266 226.121 19.504 226.328 18.918 c 227.504 15.496 
l 226.504 15.703 l 225.848 15.672 l 225.5 17.465 225.121 19.332 224.773 
21.129 c 220.285 21.371 218.695 25.309 218.695 27.52 c 218.695 29.59 220.113
 30.902 222.391 31.043 c 221.84 32.805 221.219 34.668 220.699 35.496 c 220.836
 35.91 l h
223.566 30.387 m 223.738 29.211 223.945 28 224.223 26.793 c 224.566 25.309
 225.051 23.441 225.465 21.785 c 227.262 21.992 227.848 23.234 227.848 24.719
 c 227.848 25.238 227.816 25.723 227.676 26.273 c 227.262 28 226.297 30.18
 223.566 30.387 c h
224.637 21.75 m 224.258 23.648 223.879 25.48 223.531 26.93 c 223.531 26.93
 223.117 28.52 222.566 30.387 c 220.871 30.145 220.25 28.832 220.25 27.379
 c 220.25 25.617 221.355 21.957 224.637 21.75 c h
224.637 21.75 m f
Q Q
showpage
%%Trailer
end
%%EOF
