%!PS-Adobe-3.0 EPSF-3.0
%%Creator: cairo 1.16.0 (https://cairographics.org)
%%CreationDate: Wed Aug 28 08:04:12 2019
%%Pages: 1
%%DocumentData: Clean7Bit
%%LanguageLevel: 2
%%BoundingBox: 58 0 212 250
%%EndComments
%%BeginProlog
50 dict begin
/q { gsave } bind def
/Q { grestore } bind def
/cm { 6 array astore concat } bind def
/w { setlinewidth } bind def
/J { setlinecap } bind def
/j { setlinejoin } bind def
/M { setmiterlimit } bind def
/d { setdash } bind def
/m { moveto } bind def
/l { lineto } bind def
/c { curveto } bind def
/h { closepath } bind def
/re { exch dup neg 3 1 roll 5 3 roll moveto 0 rlineto
      0 exch rlineto 0 rlineto closepath } bind def
/S { stroke } bind def
/f { fill } bind def
/f* { eofill } bind def
/n { newpath } bind def
/W { clip } bind def
/W* { eoclip } bind def
/BT { } bind def
/ET { } bind def
/BDC { mark 3 1 roll /BDC pdfmark } bind def
/EMC { mark /EMC pdfmark } bind def
/cairo_store_point { /cairo_point_y exch def /cairo_point_x exch def } def
/Tj { show currentpoint cairo_store_point } bind def
/TJ {
  {
    dup
    type /stringtype eq
    { show } { -0.001 mul 0 cairo_font_matrix dtransform rmoveto } ifelse
  } forall
  currentpoint cairo_store_point
} bind def
/cairo_selectfont { cairo_font_matrix aload pop pop pop 0 0 6 array astore
    cairo_font exch selectfont cairo_point_x cairo_point_y moveto } bind def
/Tf { pop /cairo_font exch def /cairo_font_matrix where
      { pop cairo_selectfont } if } bind def
/Td { matrix translate cairo_font_matrix matrix concatmatrix dup
      /cairo_font_matrix exch def dup 4 get exch 5 get cairo_store_point
      /cairo_font where { pop cairo_selectfont } if } bind def
/Tm { 2 copy 8 2 roll 6 array astore /cairo_font_matrix exch def
      cairo_store_point /cairo_font where { pop cairo_selectfont } if } bind def
/g { setgray } bind def
/rg { setrgbcolor } bind def
/d1 { setcachedevice } bind def
/cairo_data_source {
  CairoDataIndex CairoData length lt
    { CairoData CairoDataIndex get /CairoDataIndex CairoDataIndex 1 add def }
    { () } ifelse
} def
/cairo_flush_ascii85_file { cairo_ascii85_file status { cairo_ascii85_file flushfile } if } def
/cairo_image { image cairo_flush_ascii85_file } def
/cairo_imagemask { imagemask cairo_flush_ascii85_file } def
%%EndProlog
%%BeginSetup
%%EndSetup
%%Page: 1 1
%%BeginPageSetup
%%PageBoundingBox: 58 0 212 250
%%EndPageSetup
q 58 0 154 250 rectclip
1 0 0 -1 0 250 cm q
0 g
1 w
0 J
0 j
[] 0.0 d
4 M q 1 0 0 1 0 0 cm
89.977 124.898 m 91.008 137.832 l 92.039 143.191 l 93.07 147.305 l 94.105
 150.77 l 95.137 153.824 l 96.168 156.586 l 97.199 159.125 l 98.23 161.488
 l 99.266 163.707 l 100.297 165.805 l 101.328 167.801 l 102.359 169.711 
l 103.391 171.539 l 104.426 173.301 l 105.457 175 l 106.488 176.641 l 107.52
 178.234 l 108.555 179.781 l 109.586 181.285 l 110.617 182.75 l 111.648 
184.18 l 112.68 185.574 l 113.715 186.938 l 114.746 188.27 l 115.777 189.578
 l 116.809 190.859 l 117.84 192.117 l 118.875 193.348 l 119.906 194.559 
l 120.938 195.75 l 121.969 196.922 l 123.004 198.074 l 124.035 199.211 l
 125.066 200.328 l 126.098 201.43 l 127.129 202.516 l 128.164 203.586 l 
129.195 204.641 l 130.227 205.684 l 131.258 206.711 l 132.293 207.73 l 133.324
 208.734 l 134.355 209.727 l 135.387 210.707 l 136.418 211.676 l 137.453
 212.633 l 138.484 213.582 l 139.516 214.52 l 140.547 215.449 l 141.578 
216.371 l 142.613 217.281 l 143.645 218.18 l 144.676 219.074 l 145.707 219.957
 l 146.742 220.832 l 147.773 221.703 l 148.805 222.562 l 149.836 223.414
 l 150.867 224.262 l 151.902 225.102 l 153.965 226.758 l 154.996 227.574
 l 156.031 228.387 l 157.062 229.191 l 158.094 229.992 l 159.125 230.785
 l 160.156 231.57 l 161.191 232.352 l 162.223 233.129 l 163.254 233.898 
l 164.285 234.664 l 165.316 235.422 l 166.352 236.18 l 168.414 237.672 l
 169.445 238.41 l 170.48 239.145 l 171.512 239.875 l 172.543 240.602 l 174.605
 242.039 l 175.641 242.75 l 176.672 243.457 l 178.734 244.863 l 179.77 245.559
 l 180.801 246.25 l 181.832 246.938 l 182.863 247.621 l 183.895 248.301 
l 184.93 248.977 l 185.961 249.648 l 188.023 250.984 l 189.055 251.645 l
 190.09 252.305 l 192.152 253.609 l 193.184 254.258 l 194.219 254.902 l 
195.25 255.547 l 197.312 256.82 l 89.977 124.91 m 91.008 111.973 l 92.039
 106.617 l 93.07 102.504 l 94.105 99.039 l 95.137 95.984 l 96.168 93.223
 l 97.199 90.684 l 98.23 88.32 l 99.266 86.102 l 100.297 84.004 l 101.328
 82.008 l 102.359 80.098 l 103.391 78.27 l 104.426 76.508 l 105.457 74.809
 l 106.488 73.168 l 107.52 71.574 l 108.555 70.027 l 109.586 68.523 l 110.617
 67.059 l 111.648 65.629 l 112.68 64.234 l 113.715 62.871 l 114.746 61.535
 l 115.777 60.23 l 116.809 58.949 l 117.84 57.691 l 118.875 56.461 l 119.906
 55.246 l 120.938 54.059 l 121.969 52.887 l 123.004 51.734 l 124.035 50.598
 l 125.066 49.48 l 126.098 48.379 l 127.129 47.293 l 128.164 46.223 l 129.195
 45.168 l 130.227 44.125 l 131.258 43.094 l 132.293 42.078 l 133.324 41.074
 l 134.355 40.082 l 135.387 39.102 l 136.418 38.133 l 137.453 37.172 l 138.484
 36.227 l 139.516 35.285 l 140.547 34.359 l 141.578 33.438 l 142.613 32.527
 l 143.645 31.629 l 144.676 30.734 l 145.707 29.852 l 146.742 28.973 l 147.773
 28.105 l 148.805 27.246 l 149.836 26.391 l 150.867 25.547 l 151.902 24.707
 l 152.934 23.875 l 153.965 23.051 l 154.996 22.234 l 156.031 21.422 l 157.062
 20.617 l 158.094 19.816 l 159.125 19.023 l 160.156 18.238 l 161.191 17.457
 l 162.223 16.68 l 163.254 15.91 l 164.285 15.145 l 165.316 14.387 l 166.352
 13.629 l 168.414 12.137 l 169.445 11.398 l 170.48 10.664 l 171.512 9.934
 l 172.543 9.207 l 173.574 8.484 l 174.605 7.77 l 175.641 7.059 l 176.672
 6.348 l 177.703 5.645 l 178.734 4.945 l 179.77 4.25 l 180.801 3.559 l 181.832
 2.871 l 182.863 2.188 l 183.895 1.508 l 184.93 0.832 l 185.961 0.16 l 188.023
 -1.176 l 189.055 -1.836 l 190.09 -2.496 l 192.152 -3.801 l 193.184 -4.449
 l 194.219 -5.094 l 195.25 -5.738 l 197.312 -7.012 l S Q
1.5 w
q 0.561632 0 0 1 0 0 cm
347.891 124.926 m 266.627 124.926 185.363 124.926 104.091 124.926 c S Q
1 w
q 1 0 0 0.870797 0 0 cm
90.027 22.972 m 90.027 104.237 90.027 185.507 90.027 266.773 c S Q
132.746 124.73 m 132.746 126.062 131.664 127.145 130.332 127.145 c 129 
127.145 127.918 126.062 127.918 124.73 c 127.918 123.398 129 122.316 130.332
 122.316 c 131.664 122.316 132.746 123.398 132.746 124.73 c h
132.746 124.73 m f*
59.395 135.266 m 59.395 135.848 59.453 138.887 62.188 141.266 c 62.309 
141.227 62.414 141.145 62.453 141.039 c 62.02 140.543 60.488 138.723 60.488
 135.266 c 60.488 131.793 62.043 129.992 62.453 129.516 c 62.414 129.371
 62.332 129.289 62.188 129.266 c 60.613 130.613 59.395 132.805 59.395 135.266
 c h
59.395 135.266 m f
65.137 137.625 m 65.656 135.453 l 66.484 134.355 67.352 133.59 67.809 133.59
 c 68.098 133.59 68.285 133.676 68.285 134.066 c 68.285 134.254 68.242 134.5
 68.137 134.957 c 67.641 137.066 l 67.539 137.48 67.414 138.02 67.414 138.266
 c 67.414 138.516 67.559 138.703 67.953 138.703 c 68.594 138.703 69.195 
138.266 69.793 137.48 c 69.754 137.355 69.668 137.254 69.484 137.254 c 69.152
 137.648 68.758 137.914 68.637 137.914 c 68.531 137.914 68.492 137.855 68.492
 137.688 c 68.492 137.586 68.574 137.297 68.637 136.941 c 69.152 134.855
 l 69.254 134.398 69.316 134.09 69.316 133.859 c 69.316 133.074 68.965 132.805
 68.449 132.805 c 67.766 132.805 67.062 133.074 65.863 134.48 c 66.668 130.902
 l 66.855 130.074 67 129.516 67 129.516 c 67 129.434 66.961 129.391 66.836
 129.391 c 66.484 129.516 65.531 129.703 64.992 129.742 c 64.953 130.055
 l 64.953 130.094 64.973 130.117 65.035 130.117 c 65.43 130.137 l 65.613
 130.137 65.719 130.219 65.719 130.508 c 65.719 130.652 65.676 130.902 65.613
 131.172 c 64.168 137.625 l 64.125 137.895 64.02 138.227 64.02 138.352 c
 64.02 138.578 64.125 138.703 64.559 138.703 c 65.055 138.703 65.035 138.121
 65.137 137.625 c h
65.137 137.625 m f
72.266 137.336 m 71.852 137.336 71.562 137.605 71.562 137.977 c 71.562 
138.391 71.914 138.516 72.141 138.559 c 72.41 138.578 72.617 138.66 72.617
 138.949 c 72.617 139.238 72.141 139.84 71.457 140.004 c 71.457 140.148 
71.5 140.234 71.582 140.336 c 72.367 140.191 73.133 139.551 73.133 138.641
 c 73.133 137.832 72.801 137.336 72.266 137.336 c h
72.266 137.336 m f
77.699 137.625 m 77.637 137.895 77.531 138.227 77.531 138.352 c 77.531 
138.578 77.656 138.703 78.07 138.703 c 78.586 138.703 78.586 138.121 78.668
 137.625 c 79.168 135.496 l 79.27 135.453 79.352 135.453 79.457 135.453 
c 79.559 135.453 79.641 135.559 79.703 135.66 c 79.953 136.094 80.098 136.758
 80.348 137.355 c 80.781 138.309 81.109 138.703 81.648 138.703 c 82.105 
138.703 82.559 138.309 82.992 137.562 c 82.891 137.461 82.848 137.398 82.703
 137.398 c 82.434 137.77 82.168 138.02 82.023 138.02 c 81.754 138.02 81.668
 137.793 81.547 137.523 c 81.172 136.797 81.008 136.281 80.82 135.93 c 80.613
 135.516 80.531 135.328 80.098 135.207 c 80.098 135.164 l 80.781 134.543
 l 81.422 133.965 81.773 133.738 82.043 133.738 c 82.375 133.738 82.332 
133.922 82.766 133.922 c 82.953 133.922 83.387 133.676 83.387 133.262 c 
83.387 132.887 83.098 132.805 82.746 132.805 c 82.312 132.805 81.504 133.301
 80.574 134.148 c 80.035 134.605 l 79.809 134.793 79.539 135 79.27 135 c
 80.199 130.902 l 80.406 130.055 80.531 129.516 80.531 129.516 c 80.531 
129.434 80.492 129.391 80.387 129.391 c 80.035 129.516 79.082 129.703 78.547
 129.742 c 78.504 130.055 l 78.504 130.094 78.504 130.117 78.566 130.117
 c 78.98 130.137 l 79.145 130.137 79.25 130.219 79.25 130.508 c 79.25 130.652
 79.227 130.883 79.168 131.172 c h
77.699 137.625 m f
87.949 135.266 m 87.949 134.668 87.887 131.625 85.156 129.266 c 85.008 
129.289 84.906 129.371 84.863 129.496 c 85.301 129.992 86.852 131.793 86.852
 135.266 c 86.852 138.723 85.301 140.543 84.863 141.02 c 84.906 141.164 
84.988 141.246 85.156 141.246 c 86.707 139.902 87.949 137.707 87.949 135.266
 c h
87.949 135.266 m f
92.488 124.73 m 92.488 126.062 91.41 127.145 90.078 127.145 c 88.742 127.145
 87.664 126.062 87.664 124.73 c 87.664 123.398 88.742 122.316 90.078 122.316
 c 91.41 122.316 92.488 123.398 92.488 124.73 c h
92.488 124.73 m f*
90.203 16.555 m 90.797 13.57 l 90.82 13.312 90.898 13.109 91 12.926 c 93.703
 8.965 l 94.035 8.504 94.242 8.219 94.781 8.195 c 95.195 8.141 l 95.246 
8.066 95.297 7.758 95.246 7.703 c 94.809 7.703 94.344 7.73 94.012 7.73 c
 93.676 7.73 93.188 7.703 92.598 7.703 c 92.543 7.758 92.543 8.09 92.57 
8.141 c 93.059 8.195 l 93.445 8.246 93.445 8.348 93.137 8.812 c 90.691 12.543
 l 90.613 12.543 l 89.305 8.812 l 89.148 8.398 89.098 8.27 89.637 8.195 
c 90.152 8.141 l 90.203 8.066 90.203 7.758 90.176 7.703 c 89.559 7.703 89.098
 7.73 88.504 7.73 c 87.941 7.73 87.348 7.703 86.91 7.703 c 86.859 7.781 
86.883 8.066 86.938 8.141 c 87.168 8.195 l 87.684 8.27 87.812 8.426 88.121
 9.25 c 89.535 13.055 l 89.559 13.16 89.586 13.262 89.586 13.34 c 89.586
 13.418 89.559 13.57 89.535 13.727 c 88.996 16.555 l 88.918 16.992 88.688
 17.199 88.043 17.273 c 87.555 17.328 l 87.504 17.379 87.449 17.637 87.527
 17.766 c 88.223 17.766 88.789 17.738 89.379 17.738 c 89.973 17.738 90.668
 17.766 91.359 17.766 c 91.414 17.711 91.438 17.402 91.414 17.328 c 90.871
 17.273 l 90.281 17.223 90.102 17.02 90.203 16.555 c h
90.203 16.555 m f
98.836 6.199 m 98.734 6.125 98.633 6.098 98.527 6.098 c 98.449 6.098 l 
98.27 6.098 98.168 6.176 98.117 6.305 c 97.113 8.566 l 97.113 8.594 97.113
 8.621 97.113 8.621 c 97.113 8.695 97.141 8.746 97.191 8.801 c 97.242 8.801
 97.293 8.824 97.32 8.824 c 97.371 8.824 97.422 8.801 97.449 8.773 c 99.016
 6.895 l 99.094 6.82 99.094 6.742 99.094 6.664 c 99.094 6.457 99.016 6.305
 98.836 6.199 c h
98.836 6.199 m f
199.941 119.496 m 199.914 119.57 200.02 119.57 200.145 119.598 c 200.402
 119.648 200.84 119.777 201.277 120.68 c 202.797 123.867 l 202.875 123.996
 202.926 124.125 202.926 124.23 c 202.926 124.254 202.926 124.281 202.926
 124.332 c 202.898 124.41 202.797 124.562 202.691 124.691 c 200.094 127.574
 l 199.684 128.035 199.016 128.73 198.141 128.781 c 198.062 128.781 197.984
 128.809 197.961 128.887 c 197.91 129.195 l 197.91 129.219 l 198.344 129.219
 198.73 129.195 199.168 129.195 c 199.762 129.195 200.145 129.219 200.84
 129.219 c 200.891 129.195 l 200.945 128.887 l 200.945 128.832 200.945 128.781
 200.867 128.781 c 200.582 128.758 l 200.301 128.73 200.223 128.629 200.223
 128.5 c 200.223 128.395 200.328 128.191 200.508 128.012 c 203.027 125.18
 l 203.156 125.078 203.258 124.977 203.285 124.977 c 203.336 124.977 203.414
 125.027 203.465 125.156 c 204.879 128.062 l 204.957 128.27 205.035 128.422
 205.035 128.523 c 205.035 128.652 204.906 128.703 204.547 128.758 c 204.238
 128.781 l 204.16 128.781 204.133 128.832 204.133 128.887 c 204.059 129.195
 l 204.109 129.219 l 204.805 129.219 205.625 129.195 205.961 129.195 c 206.32
 129.195 206.938 129.219 207.531 129.219 c 207.555 129.195 l 207.633 128.887
 l 207.633 128.832 207.605 128.781 207.531 128.781 c 206.887 128.73 206.477
 128.215 206.191 127.598 c 204.52 124.355 l 204.441 124.203 204.367 124.047
 204.367 123.945 c 204.367 123.895 204.367 123.867 204.391 123.844 c 204.418
 123.715 204.52 123.559 204.676 123.379 c 207.168 120.625 l 207.684 120.062
 208.098 119.648 208.996 119.598 c 209.125 119.598 209.152 119.547 209.152
 119.496 c 209.203 119.188 l 209.176 119.16 l 208.586 119.16 208.07 119.188
 207.734 119.188 c 207.375 119.188 206.859 119.16 206.242 119.16 c 206.219
 119.188 l 206.168 119.496 l 206.141 119.57 206.191 119.598 206.242 119.598
 c 206.68 119.648 l 206.859 119.648 206.938 119.727 206.938 119.805 c 206.938
 119.934 206.836 120.113 206.629 120.316 c 204.184 123.047 l 204.082 123.148
 204.004 123.227 203.953 123.227 c 203.93 123.227 203.875 123.148 203.824
 123.047 c 202.566 120.316 l 202.488 120.137 202.41 119.984 202.41 119.879
 c 202.41 119.754 202.512 119.676 202.77 119.648 c 203.258 119.598 l 203.312
 119.598 203.336 119.57 203.363 119.496 c 203.414 119.211 l 203.387 119.211
 203.387 119.16 203.387 119.16 c 202.691 119.16 201.949 119.188 201.586 
119.188 c 201.227 119.188 200.637 119.16 200.043 119.16 c 199.992 119.211
 l h
199.941 119.496 m f
211.711 117.656 m 211.609 117.578 211.508 117.555 211.402 117.555 c 211.328
 117.555 l 211.148 117.555 211.043 117.629 210.992 117.758 c 209.988 120.023
 l 209.988 120.051 209.988 120.074 209.988 120.074 c 209.988 120.152 210.016
 120.203 210.066 120.254 c 210.117 120.254 210.168 120.281 210.195 120.281
 c 210.246 120.281 210.297 120.254 210.324 120.23 c 211.891 118.352 l 211.969
 118.273 211.969 118.195 211.969 118.121 c 211.969 117.914 211.891 117.758
 211.711 117.656 c h
211.711 117.656 m f
137.441 137.957 m 137.852 137.957 138.004 138.066 138.004 138.367 c 138.004
 138.391 138.004 138.434 138.004 138.477 c 137.984 138.801 l 137.961 138.844
 137.984 138.91 138.047 138.91 c 138.328 138.91 l 138.414 138.887 l 138.457
 138.324 138.523 137.957 138.59 137.699 c 138.633 137.418 138.719 137.004
 138.871 136.465 c 138.828 136.398 l 138.547 136.398 l 138.48 136.398 138.438
 136.465 138.414 136.508 c 138.328 136.855 l 138.199 137.242 138.004 137.418
 137.551 137.418 c 135.883 137.418 l 136.426 134.559 l 136.512 134.215 136.684
 134.082 137.008 134.082 c 138.371 134.082 l 139.367 134.082 139.496 134.625
 139.605 135.578 c 139.996 135.512 l 140.039 134.949 140.105 133.629 140.105
 133.52 c 140.105 133.5 140.082 133.477 140.059 133.477 c 139.82 133.52 
139.758 133.543 139.434 133.543 c 136.098 133.543 l 135.578 133.543 135.039
 133.52 134.434 133.5 c 134.41 133.543 l 134.348 133.801 l 134.348 133.844
 134.348 133.91 134.434 133.91 c 134.824 133.934 l 135.234 133.977 135.387
 134.082 135.387 134.363 c 135.387 134.406 135.387 134.473 135.387 134.559
 c 134.043 141.355 l 133.977 141.746 133.785 141.941 133.219 141.984 c 132.875
 142.004 l 132.809 142.004 132.766 142.047 132.746 142.113 c 132.703 142.371
 l 132.723 142.395 l 133.328 142.395 133.871 142.371 134.367 142.371 c 134.91
 142.371 135.449 142.395 136.055 142.395 c 136.098 142.371 l 136.145 142.113
 l 136.164 142.047 136.121 142.004 136.055 142.004 c 135.711 141.984 l 135.277
 141.941 135.082 141.832 135.082 141.551 c 135.082 141.484 135.105 141.422
 135.125 141.355 c 135.773 137.957 l h
137.441 137.957 m f
141.523 138.91 m 141.523 139.539 141.566 142.699 144.426 145.164 c 144.555
 145.145 144.664 145.035 144.707 144.926 c 144.25 144.406 142.648 142.523
 142.648 138.91 c 142.648 135.316 144.273 133.434 144.707 132.938 c 144.664
 132.805 144.574 132.699 144.426 132.676 c 142.801 134.082 141.523 136.379
 141.523 138.91 c h
141.523 138.91 m f
147.516 141.379 m 148.035 139.105 l 148.902 137.98 149.789 137.18 150.285
 137.18 c 150.59 137.18 150.762 137.266 150.762 137.699 c 150.762 137.871
 150.742 138.129 150.633 138.605 c 150.113 140.793 l 150.004 141.227 149.875
 141.789 149.875 142.047 c 149.875 142.309 150.027 142.504 150.438 142.504
 c 151.109 142.504 151.715 142.047 152.344 141.227 c 152.301 141.117 152.234
 141.008 152.039 141.008 c 151.672 141.422 151.281 141.68 151.152 141.68
 c 151.023 141.68 151 141.617 151 141.465 c 151 141.336 151.066 141.031 
151.152 140.684 c 151.672 138.5 l 151.781 138.023 151.844 137.699 151.844
 137.461 c 151.844 136.637 151.477 136.355 150.957 136.355 c 150.242 136.355
 149.508 136.637 148.273 138.109 c 149.094 134.387 l 149.289 133.5 149.441
 132.938 149.441 132.938 c 149.441 132.848 149.398 132.805 149.27 132.805
 c 148.902 132.938 147.926 133.133 147.363 133.176 c 147.32 133.5 l 147.32
 133.543 147.344 133.562 147.387 133.562 c 147.82 133.586 l 147.992 133.586
 148.102 133.672 148.102 133.977 c 148.102 134.125 148.059 134.363 148.012
 134.668 c 146.5 141.379 l 146.434 141.66 146.324 142.004 146.324 142.137
 c 146.324 142.371 146.453 142.504 146.887 142.504 c 147.406 142.504 147.406
 141.898 147.516 141.379 c h
147.516 141.379 m f
158.602 136.422 m 158.602 138.586 l 156.352 138.586 l 156.176 138.586 156.004
 138.844 156.004 139.062 c 156.004 139.168 156.09 139.277 156.199 139.277
 c 158.602 139.277 l 158.602 141.617 l 158.602 141.723 158.711 141.809 158.816
 141.809 c 159.035 141.809 159.293 141.637 159.293 141.465 c 159.293 139.277
 l 161.523 139.277 l 161.695 139.277 161.891 138.953 161.891 138.824 c 161.891
 138.715 161.848 138.586 161.695 138.586 c 159.293 138.586 l 159.293 136.227
 l 159.293 136.098 159.164 136.055 159.055 136.055 c 158.926 136.055 158.602
 136.227 158.602 136.422 c h
158.602 136.422 m f
168.887 136.832 m 168.93 136.617 169.078 136.184 169.078 136.008 c 169.078
 135.793 168.93 135.641 168.496 135.641 c 167.977 135.641 167.977 136.246
 167.867 136.766 c 167.695 137.566 l 167.004 138.066 166.504 138.477 166.113
 138.953 c 166.156 139.168 166.289 139.258 166.547 139.258 c 166.828 138.844
 167.133 138.605 167.523 138.281 c 166.113 144.582 l 166.027 144.969 165.832
 145.121 165.379 145.188 c 165.117 145.23 l 165.055 145.25 164.988 145.273
 164.988 145.34 c 164.988 145.598 l 165.012 145.641 l 165.012 145.641 165.941
 145.555 166.438 145.555 c 166.98 145.555 167.91 145.598 167.91 145.598 
c 167.934 145.555 l 167.934 145.297 l 167.934 145.23 167.91 145.188 167.848
 145.188 c 167.586 145.145 l 167.391 145.121 167.023 145.035 167.133 144.582
 c 167.738 142.047 l 167.953 142.285 168.324 142.504 168.734 142.504 c 169.707
 142.504 170.508 141.984 171.113 141.227 c 171.852 140.34 172.219 139.406
 172.219 138.41 c 172.219 137.266 171.828 136.355 170.465 136.355 c 169.773
 136.355 169.254 136.617 168.887 136.832 c h
171.094 138.629 m 171.094 139.301 170.832 140.25 170.312 141.051 c 169.926
 141.617 169.406 142.027 168.887 142.027 c 168.516 142.027 168.148 141.855
 167.867 141.465 c 168.777 137.461 l 169.125 137.242 169.512 136.984 170.031
 136.984 c 170.965 136.984 171.094 137.957 171.094 138.629 c h
171.094 138.629 m f
178.48 133.52 m 177.941 133.52 l 174.672 143.176 l 175.234 143.176 l h
178.48 133.52 m f
180.777 135.965 m 180.777 136.246 181.035 136.484 181.316 136.484 c 181.555
 136.484 181.965 136.27 181.965 135.945 c 181.965 135.836 181.922 135.75
 181.902 135.664 c 181.879 135.555 181.793 135.445 181.793 135.34 c 181.793
 134.992 182.16 134.496 183.156 134.496 c 183.656 134.496 184.348 134.84
 184.348 136.16 c 184.348 137.027 184.023 137.742 183.223 138.562 c 182.203
 139.559 l 180.863 140.945 180.645 141.594 180.645 142.395 c 180.645 142.395
 181.34 142.371 181.77 142.371 c 184.172 142.371 l 184.605 142.371 185.258
 142.395 185.258 142.395 c 185.43 141.68 185.559 140.641 185.582 140.23 
c 185.492 140.164 185.32 140.145 185.168 140.164 c 184.953 141.141 184.715
 141.484 184.219 141.484 c 181.77 141.484 l 181.77 140.816 182.723 139.883
 182.789 139.82 c 184.172 138.5 l 184.953 137.742 185.559 137.137 185.559
 136.098 c 185.559 134.625 184.348 134.02 183.242 134.02 c 181.707 134.02
 180.777 135.145 180.777 135.965 c h
180.777 135.965 m f
187.652 141.074 m 187.219 141.074 186.918 141.355 186.918 141.746 c 186.918
 142.18 187.285 142.309 187.523 142.352 c 187.781 142.371 188.02 142.461
 188.02 142.762 c 188.02 143.066 187.523 143.691 186.809 143.867 c 186.809
 143.996 186.828 144.105 186.938 144.191 c 187.762 144.039 188.562 143.391
 188.562 142.438 c 188.562 141.617 188.195 141.074 187.652 141.074 c h
187.652 141.074 m f
193.309 141.379 m 193.242 141.66 193.137 142.004 193.137 142.137 c 193.137
 142.371 193.266 142.504 193.699 142.504 c 194.219 142.504 194.219 141.898
 194.328 141.379 c 194.824 139.168 l 194.934 139.125 195.02 139.125 195.129
 139.125 c 195.234 139.125 195.32 139.215 195.41 139.344 c 195.648 139.777
 195.797 140.488 196.078 141.098 c 196.512 142.09 196.859 142.504 197.422
 142.504 c 197.898 142.504 198.375 142.09 198.809 141.312 c 198.719 141.203
 198.656 141.141 198.504 141.141 c 198.242 141.527 197.941 141.789 197.789
 141.789 c 197.531 141.789 197.441 141.57 197.312 141.27 c 196.922 140.535
 196.75 139.992 196.555 139.602 c 196.34 139.191 196.254 138.996 195.797
 138.867 c 195.797 138.801 l 196.512 138.176 l 197.184 137.566 197.551 137.328
 197.832 137.328 c 198.18 137.328 198.137 137.523 198.59 137.523 c 198.785
 137.523 199.219 137.266 199.219 136.832 c 199.219 136.465 198.914 136.355
 198.547 136.355 c 198.113 136.355 197.27 136.875 196.297 137.762 c 195.734
 138.238 l 195.516 138.434 195.215 138.648 194.934 138.648 c 195.93 134.387
 l 196.121 133.5 196.254 132.938 196.254 132.938 c 196.254 132.848 196.23
 132.805 196.102 132.805 c 195.734 132.938 194.738 133.133 194.176 133.176
 c 194.133 133.5 l 194.133 133.543 194.152 133.562 194.195 133.562 c 194.629
 133.586 l 194.801 133.586 194.91 133.672 194.91 133.977 c 194.91 134.125
 194.891 134.363 194.824 134.668 c h
193.309 141.379 m f
203.973 138.91 m 203.973 138.305 203.906 135.145 201.07 132.676 c 200.918
 132.699 200.812 132.805 200.77 132.914 c 201.223 133.434 202.824 135.316
 202.824 138.91 c 202.824 142.523 201.223 144.406 200.77 144.906 c 200.812
 145.059 200.898 145.145 201.07 145.145 c 202.695 143.758 203.973 141.465
 203.973 138.91 c h
203.973 138.91 m f
1.085123 w
q 1 0 0 0.849263 0 0 cm
130.34 26.645 m 130.34 107.911 130.34 189.181 130.34 270.446 c S Q
136.301 78.941 m 136.32 78.734 136.465 78.32 136.465 78.176 c 136.465 77.949
 136.32 77.824 135.906 77.824 c 135.41 77.824 135.41 78.383 135.305 78.879
 c 135.141 79.645 l 134.5 80.121 134.004 80.516 133.652 80.969 c 133.691
 81.176 133.816 81.238 134.043 81.238 c 134.332 80.867 134.621 80.637 134.996
 80.328 c 133.652 86.309 l 133.566 86.68 133.359 86.844 132.945 86.906 c
 132.699 86.949 l 132.637 86.949 132.574 86.969 132.574 87.051 c 132.574
 87.301 l 132.594 87.32 l 132.594 87.32 133.484 87.258 133.961 87.258 c 
134.457 87.258 135.348 87.277 135.348 87.277 c 135.367 87.258 l 135.367 
86.988 l 135.367 86.926 135.348 86.906 135.305 86.887 c 135.059 86.844 l
 134.852 86.824 134.52 86.762 134.621 86.309 c 135.203 83.926 l 135.387 
84.133 135.762 84.34 136.152 84.34 c 137.062 84.34 137.828 83.844 138.41
 83.141 c 139.113 82.273 139.465 81.383 139.465 80.453 c 139.465 79.355 
139.094 78.484 137.789 78.484 c 137.125 78.484 136.652 78.734 136.301 78.941
 c h
138.387 80.66 m 138.387 81.301 138.121 82.191 137.621 82.977 c 137.27 83.492
 136.773 83.887 136.277 83.887 c 135.945 83.887 135.594 83.719 135.305 83.348
 c 136.176 79.543 l 136.504 79.336 136.879 79.086 137.375 79.086 c 138.266
 79.086 138.387 80.016 138.387 80.66 c h
138.387 80.66 m f
136.531 165.703 m 136.555 165.496 136.699 165.082 136.699 164.938 c 136.699
 164.711 136.555 164.586 136.141 164.586 c 135.645 164.586 135.645 165.145
 135.539 165.641 c 135.375 166.406 l 134.734 166.883 134.234 167.273 133.883
 167.73 c 133.926 167.938 134.051 168 134.277 168 c 134.566 167.625 134.855
 167.398 135.23 167.09 c 133.883 173.066 l 133.801 173.441 133.594 173.605
 133.18 173.668 c 132.934 173.711 l 132.871 173.711 132.809 173.73 132.809
 173.812 c 132.809 174.062 l 132.828 174.082 l 132.828 174.082 133.719 174.02
 134.195 174.02 c 134.691 174.02 135.582 174.039 135.582 174.039 c 135.602
 174.02 l 135.602 173.75 l 135.602 173.688 135.582 173.668 135.539 173.648
 c 135.293 173.605 l 135.086 173.586 134.754 173.523 134.855 173.066 c 135.438
 170.688 l 135.621 170.895 135.996 171.102 136.387 171.102 c 137.297 171.102
 138.062 170.605 138.645 169.902 c 139.348 169.035 139.699 168.145 139.699
 167.211 c 139.699 166.117 139.324 165.246 138.023 165.246 c 137.359 165.246
 136.883 165.496 136.531 165.703 c h
138.621 167.418 m 138.621 168.062 138.352 168.949 137.855 169.738 c 137.504
 170.254 137.008 170.648 136.512 170.648 c 136.18 170.648 135.828 170.48
 135.539 170.109 c 136.41 166.301 l 136.738 166.094 137.113 165.848 137.609
 165.848 c 138.5 165.848 138.621 166.777 138.621 167.418 c h
138.621 167.418 m f
Q Q
showpage
%%Trailer
end
%%EOF
